<?xml version="1.0" encoding="UTF-8" standalone="no"?>
<svg
   id="Laag_1"
   data-name="Laag 1"
   viewBox="0 0 1280 310.00001"
   version="1.1"
   sodipodi:docname="ubuntu-touch-ubports-light.svg"
   width="1280"
   height="310"
   inkscape:version="1.2.2 (732a01da63, 2022-12-09, custom)"
   xmlns:inkscape="http://www.inkscape.org/namespaces/inkscape"
   xmlns:sodipodi="http://sodipodi.sourceforge.net/DTD/sodipodi-0.dtd"
   xmlns="http://www.w3.org/2000/svg"
   xmlns:svg="http://www.w3.org/2000/svg">
  <sodipodi:namedview
     id="namedview76"
     pagecolor="#ffffff"
     bordercolor="#666666"
     borderopacity="1.0"
     inkscape:showpageshadow="2"
     inkscape:pageopacity="0.0"
     inkscape:pagecheckerboard="0"
     inkscape:deskcolor="#d1d1d1"
     showgrid="false"
     inkscape:zoom="2.8707468"
     inkscape:cx="170.86146"
     inkscape:cy="89.349572"
     inkscape:window-width="1850"
     inkscape:window-height="1016"
     inkscape:window-x="0"
     inkscape:window-y="0"
     inkscape:window-maximized="1"
     inkscape:current-layer="Laag_1" />
  <defs
     id="defs7">
    <style
       id="style2">.cls-1{fill:#fff;}.cls-2{fill:#e95420;}.cls-3{clip-path:url(#clip-path);}</style>
    <clipPath
       id="clip-path">
      <path
         class="cls-1"
         d="m 200.31,98 h 0.46 c 0.23,0 0.49,0 0.49,0.32 0,0.32 -0.28,0.36 -0.59,0.36 h -0.36 z m -0.35,-0.27 v 2.14 h 0.35 v -0.92 h 0.37 l 0.61,0.92 h 0.37 l -0.64,-1 c 0.33,0 0.59,-0.19 0.59,-0.58 0,-0.39 -0.25,-0.61 -0.79,-0.61 z m -0.84,1.06 a 1.58,1.58 0 1 1 1.59,1.58 1.55,1.55 0 0 1 -1.59,-1.58 m -0.35,0 a 1.93,1.93 0 1 0 1.94,-1.83 1.89,1.89 0 0 0 -1.94,1.83"
         id="path4" />
    </clipPath>
  </defs>
  <path
     class="cls-1"
     d="m 490.11203,228.55486 a 31.507662,31.507662 0 0 1 19.47316,4.73799 16.81988,16.81988 0 0 1 6.39629,14.21398 19.852196,19.852196 0 0 1 -1.84782,8.95481 14.687782,14.687782 0 0 1 -5.35393,5.9225 24.59019,24.59019 0 0 1 -8.48101,3.31659 58.56161,58.56161 0 0 1 -11.32381,0.99498 h -8.38625 v 23.68997 h -6.01725 v -60.17252 a 47.948502,47.948502 0 0 1 7.48603,-1.27926 c 2.89018,-0.28428 5.59083,-0.37904 8.05459,-0.37904 z m 0.28428,5.21179 c -2.27424,0 -4.16944,0 -5.73297,0 l -4.07468,0.42642 v 27.29085 h 7.67555 a 62.825804,62.825804 0 0 0 8.86005,-0.56856 20.420755,20.420755 0 0 0 6.72795,-2.17948 10.234068,10.234068 0 0 0 4.31158,-4.31157 14.498263,14.498263 0 0 0 1.51616,-7.01224 12.650445,12.650445 0 0 0 -1.6583,-6.72795 11.608086,11.608086 0 0 0 -4.35896,-4.21681 17.956998,17.956998 0 0 0 -6.15939,-2.17948 39.277973,39.277973 0 0 0 -7.10699,-0.52118 z"
     id="path11"
     style="stroke-width:4.73799" />
  <path
     class="cls-1"
     d="m 565.25662,267.73807 a 29.470325,29.470325 0 0 1 -1.56354,9.85503 22.410713,22.410713 0 0 1 -4.35895,7.58079 18.951977,18.951977 0 0 1 -6.6332,4.73799 21.178835,21.178835 0 0 1 -16.86726,0 18.951977,18.951977 0 0 1 -6.63319,-4.73799 21.652634,21.652634 0 0 1 -4.35895,-7.58079 31.839322,31.839322 0 0 1 0,-19.71006 22.315953,22.315953 0 0 1 4.35895,-7.62817 19.946956,19.946956 0 0 1 6.63319,-4.73799 21.700014,21.700014 0 0 1 16.86726,0 19.946956,19.946956 0 0 1 6.6332,4.73799 23.121412,23.121412 0 0 1 4.35895,7.62817 29.470325,29.470325 0 0 1 1.56354,9.85503 z m -6.15939,0 a 21.842154,21.842154 0 0 0 -3.97992,-13.74018 14.213983,14.213983 0 0 0 -21.70001,0 21.842154,21.842154 0 0 0 -3.97992,13.74018 21.510494,21.510494 0 0 0 3.97992,13.6928 14.213983,14.213983 0 0 0 21.70001,0 21.510494,21.510494 0 0 0 3.97992,-13.6928 z"
     id="path13"
     style="stroke-width:4.73799" />
  <path
     class="cls-1"
     d="m 607.51953,244.71142 c 0.52118,2.98493 1.23188,6.11201 2.08472,9.47599 0.85283,3.36397 1.80043,6.77533 2.84279,10.23406 1.04236,3.45874 2.1321,6.8701 3.26922,10.23407 1.13712,3.36398 2.369,6.58581 3.55349,9.47599 0.99498,-2.22686 2.08472,-4.97489 3.17446,-8.19673 1.08974,-3.22184 2.27424,-6.63319 3.41136,-10.23407 1.13711,-3.60087 2.17947,-7.20175 3.17445,-10.85 0.99498,-3.64826 1.80044,-7.01224 2.46376,-10.18669 h 5.68559 c -2.13209,9.04957 -4.50109,17.29368 -7.01223,24.73233 a 222.68573,222.68573 0 0 1 -8.33887,21.22621 h -5.35393 c -0.90022,-2.08472 -1.84782,-4.40633 -2.8428,-7.01223 -0.99498,-2.6059 -1.98996,-5.30655 -3.03232,-8.24411 -1.04235,-2.93756 -2.03733,-6.01725 -3.03231,-9.47599 -0.99498,-3.45873 -1.8952,-6.53843 -2.79542,-9.90241 -0.90022,3.41136 -1.84782,6.68058 -2.79541,9.94979 -0.9476,3.26922 -1.98996,6.30153 -3.03232,9.47599 -1.04236,3.17446 -2.03734,5.68559 -3.03232,8.24411 -0.99498,2.55852 -1.8952,4.738 -2.79541,6.96485 h -5.59084 a 222.68573,222.68573 0 0 1 -8.33887,-21.22621 q -3.79039,-11.22905 -6.96485,-24.73233 h 6.15939 c 0.61594,3.12707 1.46878,6.53843 2.41638,10.18669 0.9476,3.64825 2.03734,7.24913 3.17446,10.85 1.13712,3.60088 2.27423,6.96485 3.45873,10.18669 1.1845,3.22184 2.22686,5.92249 3.22184,8.14935 1.13712,-2.93756 2.27424,-6.11201 3.41135,-9.47599 1.13712,-3.36397 2.22686,-6.82271 3.22184,-10.23407 0.99498,-3.41135 1.94258,-6.82271 2.8428,-10.18668 0.90022,-3.36398 1.6583,-6.49106 2.36899,-9.47599 z"
     id="path15"
     style="stroke-width:4.73799" />
  <path
     class="cls-1"
     d="m 644.09684,267.64331 a 28.427966,28.427966 0 0 1 1.75306,-10.51835 23.689972,23.689972 0 0 1 4.5011,-7.53341 17.956998,17.956998 0 0 1 6.44367,-4.45371 18.951977,18.951977 0 0 1 7.39127,-1.46878 17.341059,17.341059 0 0 1 13.36114,5.49607 24.77971,24.77971 0 0 1 5.02228,16.96202 c 0,0.4738 0,0.9476 0,1.4214 v 1.37402 h -32.26574 a 20.231236,20.231236 0 0 0 4.16943,12.9821 15.682761,15.682761 0 0 0 12.46093,4.738 26.058969,26.058969 0 0 0 7.43865,-0.85284 c 1.84782,-0.61594 3.17445,-1.13712 4.02729,-1.51616 l 1.04236,4.73799 a 21.510494,21.510494 0 0 1 -4.73799,1.6583 29.233425,29.233425 0 0 1 -8.05459,0.99498 26.864428,26.864428 0 0 1 -10.32883,-1.80044 18.525558,18.525558 0 0 1 -7.01223,-4.73799 18.951977,18.951977 0 0 1 -3.97992,-7.58079 34.587358,34.587358 0 0 1 -1.23188,-9.90241 z m 32.64479,-3.64826 a 18.336038,18.336038 0 0 0 -3.36398,-11.18166 10.992147,10.992147 0 0 0 -9.09695,-3.97992 11.655466,11.655466 0 0 0 -5.54345,1.23188 13.266384,13.266384 0 0 0 -4.2642,3.3166 14.972062,14.972062 0 0 0 -2.84279,4.73799 19.994336,19.994336 0 0 0 -1.23188,5.78035 z"
     id="path17"
     style="stroke-width:4.73799" />
  <path
     class="cls-1"
     d="m 711.32898,243.8112 a 31.697182,31.697182 0 0 1 5.35394,0.4738 13.219004,13.219004 0 0 1 3.50611,0.90022 l -1.13712,4.73799 a 11.134287,11.134287 0 0 0 -2.89017,-0.75808 31.128623,31.128623 0 0 0 -5.73298,-0.42642 29.186045,29.186045 0 0 0 -6.01725,0.52118 20.231236,20.231236 0 0 0 -2.98493,0.90022 v 40.27295 h -5.73298 v -43.82644 a 38.993693,38.993693 0 0 1 15.63538,-3.03232 z"
     id="path19"
     style="stroke-width:4.73799" />
  <path
     class="cls-1"
     d="m 726.25367,267.64331 a 28.427966,28.427966 0 0 1 1.75305,-10.51835 23.689972,23.689972 0 0 1 4.5011,-7.53341 18.193898,18.193898 0 0 1 6.39629,-4.45371 19.283637,19.283637 0 0 1 7.43865,-1.46878 17.151539,17.151539 0 0 1 13.45591,5.49607 24.495431,24.495431 0 0 1 5.02227,16.96202 v 1.4214 1.37402 H 732.5552 a 20.231236,20.231236 0 0 0 4.16943,12.9821 15.635381,15.635381 0 0 0 12.41355,4.738 26.201108,26.201108 0 0 0 7.48603,-0.85284 38.993693,38.993693 0 0 0 3.97991,-1.51616 l 1.08974,4.73799 a 22.552853,22.552853 0 0 1 -4.73799,1.6583 29.233425,29.233425 0 0 1 -8.05459,0.99498 26.864428,26.864428 0 0 1 -10.32883,-1.80044 18.525558,18.525558 0 0 1 -7.01223,-4.73799 19.757436,19.757436 0 0 1 -4.0273,-7.58079 36.435176,36.435176 0 0 1 -1.27925,-9.90241 z m 32.64478,-3.64826 a 18.383418,18.383418 0 0 0 -3.41136,-11.18166 10.897387,10.897387 0 0 0 -9.04957,-3.97992 11.655466,11.655466 0 0 0 -5.54345,1.23188 13.266384,13.266384 0 0 0 -4.2642,3.3166 14.972062,14.972062 0 0 0 -2.84279,4.73799 19.994336,19.994336 0 0 0 -1.23188,5.78035 z"
     id="path21"
     style="stroke-width:4.73799" />
  <path
     class="cls-1"
     d="m 814.38036,289.24856 a 48.232782,48.232782 0 0 1 -6.58581,1.70568 54.486934,54.486934 0 0 1 -10.13931,0.80546 24.77971,24.77971 0 0 1 -9.19171,-1.6583 18.951977,18.951977 0 0 1 -7.10699,-4.73799 21.510494,21.510494 0 0 1 -4.738,-7.58079 28.807005,28.807005 0 0 1 -1.65829,-10.04455 32.550021,32.550021 0 0 1 1.37402,-9.47599 22.221193,22.221193 0 0 1 4.07467,-7.62817 17.956998,17.956998 0 0 1 6.53843,-4.97489 20.752415,20.752415 0 0 1 8.81267,-1.80044 21.652634,21.652634 0 0 1 7.86507,1.32664 21.984294,21.984294 0 0 1 4.738,2.41637 v -24.68495 l 5.78035,-1.08973 z m -5.78035,-36.15089 a 21.510494,21.510494 0 0 0 -2.03734,-1.37402 17.198919,17.198919 0 0 0 -2.79542,-1.32664 22.837133,22.837133 0 0 0 -3.45873,-0.99498 17.435819,17.435819 0 0 0 -3.88516,-0.42642 15.398481,15.398481 0 0 0 -7.15437,1.51616 12.650445,12.650445 0 0 0 -4.73799,4.07468 16.39346,16.39346 0 0 0 -2.55852,5.92249 29.849364,29.849364 0 0 0 -0.80546,7.24913 19.757436,19.757436 0 0 0 4.73799,13.9297 15.777521,15.777521 0 0 0 12.03451,4.738 52.544357,52.544357 0 0 0 6.87009,-0.37904 30.228404,30.228404 0 0 0 3.97992,-0.85284 z"
     id="path23"
     style="stroke-width:4.73799" />
  <path
     class="cls-1"
     d="m 855.88519,247.26993 a 20.420755,20.420755 0 0 1 4.73799,-2.41637 21.842154,21.842154 0 0 1 7.86507,-1.32664 20.989315,20.989315 0 0 1 8.86005,1.80044 18.951977,18.951977 0 0 1 6.53844,4.97489 22.126433,22.126433 0 0 1 4.02729,7.62817 31.033863,31.033863 0 0 1 1.37402,9.47599 28.807005,28.807005 0 0 1 -1.61092,10.04455 22.221193,22.221193 0 0 1 -4.73799,7.58079 19.710056,19.710056 0 0 1 -7.10699,4.73799 24.77971,24.77971 0 0 1 -9.19171,1.6583 53.776235,53.776235 0 0 1 -10.13931,-0.80546 46.432344,46.432344 0 0 1 -6.58581,-1.70568 v -66.33192 l 5.78035,-1.08973 z m 0,37.90396 a 29.186045,29.186045 0 0 0 3.93253,0.85284 53.349816,53.349816 0 0 0 6.91748,0.37904 15.682761,15.682761 0 0 0 11.98712,-4.738 19.567916,19.567916 0 0 0 4.738,-13.9297 32.360501,32.360501 0 0 0 -0.80546,-7.24913 16.39346,16.39346 0 0 0 -2.55852,-5.92249 12.650445,12.650445 0 0 0 -4.73799,-4.07468 15.493241,15.493241 0 0 0 -7.15438,-1.51616 17.862239,17.862239 0 0 0 -3.93253,0.42642 24.59019,24.59019 0 0 0 -3.45874,0.99498 22.079053,22.079053 0 0 0 -2.79541,1.32664 15.824901,15.824901 0 0 0 -1.98996,1.37402 z"
     id="path25"
     style="stroke-width:4.73799" />
  <path
     class="cls-1"
     d="m 914.4468,291.66494 c -1.8952,-3.64825 -3.7904,-7.39127 -5.59083,-11.32381 -1.80044,-3.93253 -3.50612,-7.86507 -5.11704,-11.84498 -1.61092,-3.97992 -2.98493,-8.00721 -4.31157,-11.98713 -1.32664,-3.97991 -2.41638,-7.91245 -3.36398,-11.7976 h 6.11201 c 0.66332,2.84279 1.51616,5.92249 2.51114,9.19171 0.99498,3.26921 2.1321,6.68057 3.41136,10.18668 1.27926,3.50612 2.70065,7.107 4.21681,10.75525 1.51616,3.64826 3.22184,7.29651 5.02228,10.85001 1.32663,-3.64826 2.51113,-7.10699 3.50611,-10.37621 0.99498,-3.26922 1.98996,-6.49105 2.8428,-9.47599 0.85284,-2.98493 1.70568,-6.53843 2.51113,-9.90241 0.80546,-3.36397 1.6583,-7.05961 2.51114,-10.99214 h 5.78035 c -1.94257,8.62315 -4.12205,16.96202 -6.53843,25.11137 a 216.1473,216.1473 0 0 1 -7.86507,22.26857 46.811384,46.811384 0 0 1 -3.50611,6.91747 20.941935,20.941935 0 0 1 -3.93254,4.738 14.213983,14.213983 0 0 1 -5.11703,2.74803 22.694993,22.694993 0 0 1 -6.82271,0.90022 15.730141,15.730141 0 0 1 -4.07468,-0.52118 17.0094,17.0094 0 0 1 -2.27424,-0.80546 l 1.1845,-4.73799 a 10.850007,10.850007 0 0 0 1.98996,0.75808 13.455904,13.455904 0 0 0 3.41136,0.4738 18.336038,18.336038 0 0 0 4.73799,-0.52118 10.234068,10.234068 0 0 0 3.64826,-1.84782 13.361144,13.361144 0 0 0 2.89017,-3.3166 31.128623,31.128623 0 0 0 2.22686,-5.44869 z"
     id="path27"
     style="stroke-width:4.73799" />
  <path
     class="cls-1"
     d="m 987.17501,291.9966 a 26.438008,26.438008 0 0 1 -10.42359,-1.84782 17.672719,17.672719 0 0 1 -6.96485,-5.16441 20.278616,20.278616 0 0 1 -3.88515,-7.67555 35.819237,35.819237 0 0 1 -1.1845,-9.47599 v -38.75679 h 6.01725 v 37.90395 a 28.427966,28.427966 0 0 0 1.23188,8.76529 16.44084,16.44084 0 0 0 3.3166,6.11201 13.645424,13.645424 0 0 0 5.16441,3.5535 20.610275,20.610275 0 0 0 13.50328,0 13.645424,13.645424 0 0 0 5.16442,-3.5535 17.151539,17.151539 0 0 0 3.31664,-6.11201 28.427966,28.427966 0 0 0 1.2318,-8.76529 v -37.90395 h 6.0173 v 38.75679 a 35.819237,35.819237 0 0 1 -1.1845,9.47599 20.278616,20.278616 0 0 1 -4.0273,7.86507 17.672719,17.672719 0 0 1 -6.96486,5.16441 26.532768,26.532768 0 0 1 -10.32883,1.6583 z"
     id="path29"
     style="stroke-width:4.73799" />
  <path
     class="cls-1"
     d="m 1040.2879,291.23852 h -3.5061 l -4.122,-0.37904 -3.9326,-0.52118 a 29.186045,29.186045 0 0 1 -3.2218,-0.66332 v -59.46182 c 1.0897,-0.28428 2.2742,-0.52118 3.5535,-0.75808 l 4.0747,-0.52118 4.0746,-0.28428 c 1.3267,0 2.5585,0 3.6957,0 a 55.624053,55.624053 0 0 1 9.476,0.75808 25.679929,25.679929 0 0 1 7.865,2.70065 14.924682,14.924682 0 0 1 5.354,4.738 13.598044,13.598044 0 0 1 2.0373,7.58079 14.213983,14.213983 0 0 1 -2.5585,8.48101 12.982104,12.982104 0 0 1 -6.8227,4.73799 20.325996,20.325996 0 0 1 4.738,1.80044 14.213983,14.213983 0 0 1 3.8851,2.98494 12.745205,12.745205 0 0 1 2.6533,4.40633 19.236257,19.236257 0 0 1 0.9002,6.30153 15.019442,15.019442 0 0 1 -6.9175,13.31377 39.704392,39.704392 0 0 1 -21.2262,4.78537 z m -8.7179,-35.29806 h 11.7502 a 36.956356,36.956356 0 0 0 6.2068,-0.52118 14.213983,14.213983 0 0 0 5.1171,-1.75305 9.4759886,9.4759886 0 0 0 3.4113,-3.45874 10.660487,10.660487 0 0 0 1.2319,-5.54345 9.0969491,9.0969491 0 0 0 -1.3267,-5.06966 9.8550281,9.8550281 0 0 0 -3.7903,-3.41135 17.956998,17.956998 0 0 0 -5.8278,-1.8952 44.537146,44.537146 0 0 0 -7.4386,-0.61594 c -2.1795,0 -4.0747,0 -5.5435,0 -1.4688,0 -2.7954,0.28428 -3.7904,0.4738 z m 0,5.11704 v 24.40067 l 3.9799,0.37904 c 1.8005,0 3.6009,0 5.4487,0 a 55.245014,55.245014 0 0 0 7.9599,-0.56856 21.842154,21.842154 0 0 0 6.7753,-1.94258 12.081885,12.081885 0 0 0 4.738,-3.93253 10.755247,10.755247 0 0 0 1.753,-6.3963 13.124244,13.124244 0 0 0 -1.2318,-5.96987 9.997168,9.997168 0 0 0 -3.5535,-3.74301 15.824901,15.824901 0 0 0 -5.5909,-1.80044 44.395007,44.395007 0 0 0 -7.4386,-0.56856 z"
     id="path31"
     style="stroke-width:4.73799" />
  <path
     class="cls-1"
     d="m 1087.0519,307.1108 h -5.7803 v -60.78846 a 51.738898,51.738898 0 0 1 6.5858,-1.70568 53.776235,53.776235 0 0 1 10.1393,-0.80546 24.77971,24.77971 0 0 1 9.1917,1.6583 20.325996,20.325996 0 0 1 7.107,4.73799 21.415734,21.415734 0 0 1 4.738,7.58079 27.906786,27.906786 0 0 1 1.6583,10.04455 32.8343,32.8343 0 0 1 -1.374,9.47599 21.273594,21.273594 0 0 1 -4.0273,7.53341 18.667698,18.667698 0 0 1 -6.5385,4.73799 21.131455,21.131455 0 0 1 -8.86,1.80044 21.889534,21.889534 0 0 1 -7.8651,-1.27926 22.173813,22.173813 0 0 1 -4.738,-2.46375 z m 0,-24.68495 a 16.014421,16.014421 0 0 0 1.99,1.32664 19.331017,19.331017 0 0 0 2.7954,1.32664 24.59019,24.59019 0 0 0 3.4587,1.04236 20.894555,20.894555 0 0 0 3.9326,0.37904 15.540621,15.540621 0 0 0 7.1543,-1.46878 12.697825,12.697825 0 0 0 4.738,-3.97992 18.004378,18.004378 0 0 0 2.6059,-5.96987 32.360501,32.360501 0 0 0 0.8055,-7.24913 19.662676,19.662676 0 0 0 -4.738,-13.9297 15.682761,15.682761 0 0 0 -11.9871,-4.738 45.105706,45.105706 0 0 0 -6.9175,0.42642 23.074032,23.074032 0 0 0 -3.9325,0.80546 z"
     id="path33"
     style="stroke-width:4.73799" />
  <path
     class="cls-1"
     d="m 1172.3832,267.73807 a 29.470325,29.470325 0 0 1 -1.5635,9.85503 21.652634,21.652634 0 0 1 -4.359,7.58079 18.951977,18.951977 0 0 1 -6.6332,4.73799 20.373375,20.373375 0 0 1 -23.6899,-4.73799 22.410713,22.410713 0 0 1 -4.359,-7.58079 31.839322,31.839322 0 0 1 0,-19.71006 23.121412,23.121412 0 0 1 4.359,-7.62817 20.894555,20.894555 0 0 1 23.6899,-4.73799 19.946956,19.946956 0 0 1 6.6332,4.73799 22.315953,22.315953 0 0 1 4.359,7.62817 29.470325,29.470325 0 0 1 1.5635,9.85503 z m -6.112,0 a 21.557874,21.557874 0 0 0 -4.0273,-13.74018 14.213983,14.213983 0 0 0 -21.7,0 21.842154,21.842154 0 0 0 -3.9799,13.74018 21.510494,21.510494 0 0 0 3.9799,13.6928 14.213983,14.213983 0 0 0 21.7,0 21.226214,21.226214 0 0 0 4.0273,-13.6928 z"
     id="path35"
     style="stroke-width:4.73799" />
  <path
     class="cls-1"
     d="m 1200.669,243.8112 a 31.697182,31.697182 0 0 1 5.354,0.4738 13.219004,13.219004 0 0 1 3.5061,0.90022 l -1.1371,4.73799 a 11.134287,11.134287 0 0 0 -2.8902,-0.75808 31.128623,31.128623 0 0 0 -5.733,-0.42642 28.854385,28.854385 0 0 0 -6.0172,0.52118 16.014421,16.014421 0 0 0 -2.9376,0.90022 v 40.27295 h -5.7803 v -43.82644 a 38.993693,38.993693 0 0 1 15.6353,-3.03232 z"
     id="path37"
     style="stroke-width:4.73799" />
  <path
     class="cls-1"
     d="m 1223.7904,244.71142 h 18.2887 v 4.73799 h -18.2887 v 24.44805 a 24.069011,24.069011 0 0 0 0.6634,6.39629 8.6705296,8.6705296 0 0 0 1.8952,3.74302 6.0646327,6.0646327 0 0 0 3.0323,1.80044 19.473157,19.473157 0 0 0 9.7602,-0.42642 19.331017,19.331017 0 0 0 3.4588,-1.51616 l 1.4214,4.73799 a 20.468135,20.468135 0 0 1 -4.3116,1.80044 20.941935,20.941935 0 0 1 -6.7753,1.04236 19.710056,19.710056 0 0 1 -7.1544,-1.13712 10.186688,10.186688 0 0 1 -4.738,-3.36397 13.929703,13.929703 0 0 1 -2.4164,-5.63822 39.562252,39.562252 0 0 1 -0.7107,-8.00721 v -42.31029 l 5.7804,-1.08973 z"
     id="path39"
     style="stroke-width:4.73799" />
  <path
     class="cls-1"
     d="m 1262.263,286.59529 a 18.383418,18.383418 0 0 0 8.2441,-1.6583 5.7329731,5.7329731 0 0 0 3.2218,-5.54345 8.33887,8.33887 0 0 0 -0.5686,-3.22184 6.7753318,6.7753318 0 0 0 -1.8952,-2.369 15.919661,15.919661 0 0 0 -3.5061,-2.03733 l -5.4013,-2.32162 c -1.7057,-0.7107 -3.364,-1.46878 -4.738,-2.17948 a 19.378397,19.378397 0 0 1 -4.0746,-2.6059 10.944767,10.944767 0 0 1 -2.8902,-3.50611 10.565727,10.565727 0 0 1 -1.0424,-4.9749 11.181667,11.181667 0 0 1 4.2168,-9.04957 17.767479,17.767479 0 0 1 11.6081,-3.45873 29.849364,29.849364 0 0 1 7.7703,0.80546 22.363333,22.363333 0 0 1 4.3116,1.4214 l -1.3266,5.11703 c -0.7107,-0.33166 -1.8952,-0.80546 -3.6009,-1.4214 a 24.73233,24.73233 0 0 0 -7.4387,-0.85284 15.777521,15.777521 0 0 0 -3.6956,0.37904 10.992147,10.992147 0 0 0 -3.0323,1.23188 6.2541525,6.2541525 0 0 0 -2.1321,2.17948 5.4960734,5.4960734 0 0 0 -0.8055,3.12707 6.7279519,6.7279519 0 0 0 0.7107,3.22184 6.9648516,6.9648516 0 0 0 2.0847,2.369 17.0094,17.0094 0 0 0 3.364,1.8952 c 1.3267,0.61593 2.8902,1.23187 4.738,1.94257 1.8478,0.7107 3.4588,1.4214 5.117,2.17948 a 17.862239,17.862239 0 0 1 4.3116,2.65328 13.029484,13.029484 0 0 1 3.0323,3.74301 11.750226,11.750226 0 0 1 1.1372,5.4487 10.660487,10.660487 0 0 1 -4.738,9.47598 22.126433,22.126433 0 0 1 -12.7452,3.22184 30.891723,30.891723 0 0 1 -9.476,-1.04236 29.233425,29.233425 0 0 1 -4.2642,-1.56354 l 1.5161,-5.21179 1.1372,0.56856 2.4163,0.90022 a 30.133644,30.133644 0 0 0 8.4337,1.1845 z"
     id="path41"
     style="stroke-width:4.73799" />
  <path
     class="cls-1"
     d="m 99.748679,183.35439 c -5.069654,1.27926 -11.750226,2.6059 -20.089096,4.0273 a 168.24618,168.24618 0 0 1 -28.901765,2.17947 61.593926,61.593926 0 0 1 -24.021631,-4.16943 38.851553,38.851553 0 0 1 -15.682761,-11.79761 47.379943,47.379943 0 0 1 -8.5757698,-17.957 93.006828,93.006828 0 0 1 -2.463757,-22.93189 V 63.246236 H 22.140333 v 64.673624 q 0,22.60023 7.106991,32.3605 7.106991,9.76027 24.021631,9.76027 c 2.416377,0 4.737994,0 7.391271,0 2.653277,0 4.737995,-0.37904 7.106992,-0.61594 l 6.112012,-0.7107 a 16.67774,16.67774 0 0 0 3.885156,-0.80546 V 63.672655 h 22.126433 z"
     id="path43"
     style="stroke-width:4.73799" />
  <path
     class="cls-1"
     d="m 153.76181,167.67163 a 70.359215,70.359215 0 0 0 9.47599,1.75306 111.43763,111.43763 0 0 0 15.1142,0.85284 36.577316,36.577316 0 0 0 28.42797,-11.79761 q 10.75525,-11.75022 10.70787,-33.40286 a 79.029745,79.029745 0 0 0 -1.8952,-17.81486 40.557231,40.557231 0 0 0 -6.15939,-14.21398 30.844343,30.844343 0 0 0 -11.08691,-9.475989 35.819237,35.819237 0 0 0 -16.2987,-3.458735 43.305268,43.305268 0 0 0 -16.63036,3.127076 44.821426,44.821426 0 0 0 -11.65547,6.396292 z m 0,-98.976701 a 61.972965,61.972965 0 0 1 12.08189,-5.448693 57.89829,57.89829 0 0 1 18.95198,-2.842797 56.097853,56.097853 0 0 1 23.68997,4.737995 49.55942,49.55942 0 0 1 17.4832,13.313764 58.703749,58.703749 0 0 1 10.94476,20.468135 87.652895,87.652895 0 0 1 3.69564,26.153727 77.987386,77.987386 0 0 1 -4.40633,27.00657 56.524272,56.524272 0 0 1 -12.46093,20.32599 54.771214,54.771214 0 0 1 -19.52054,12.83997 68.890437,68.890437 0 0 1 -25.67993,4.73799 155.83263,155.83263 0 0 1 -27.33822,-2.13209 c -7.95983,-1.46878 -14.45089,-2.89018 -19.52054,-4.31158 V 6.1534046 l 22.12643,-3.7903955 z"
     id="path45"
     style="stroke-width:4.73799" />
  <path
     class="cls-1"
     d="m 364.034,183.35439 c -5.06965,1.27926 -11.7976,2.6059 -20.13647,4.0273 a 167.86714,167.86714 0 0 1 -28.90177,2.17947 61.972965,61.972965 0 0 1 -24.02163,-4.16943 39.183213,39.183213 0 0 1 -15.68276,-11.79761 47.379943,47.379943 0 0 1 -8.57577,-17.957 93.006828,93.006828 0 0 1 -2.6059,-22.93189 V 63.246236 h 22.12643 v 64.673624 q 0,22.60023 7.15438,32.3605 7.15437,9.76027 24.06901,9.76027 c 2.36899,0 4.73799,0 7.34389,0 2.6059,0 4.73799,-0.37904 7.15437,-0.61594 l 6.06463,-0.7107 a 17.814859,17.814859 0 0 0 3.93254,-0.80546 V 63.672655 h 22.12643 z"
     id="path47"
     style="stroke-width:4.73799" />
  <path
     class="cls-1"
     d="m 395.87332,66.799732 c 5.06966,-1.279259 11.84499,-2.605897 20.23124,-4.027296 a 175.54269,175.54269 0 0 1 28.99652,-2.132097 62.588905,62.588905 0 0 1 24.54281,4.169435 37.903954,37.903954 0 0 1 15.54063,11.892366 45.105706,45.105706 0 0 1 8.24411,17.956998 105.27823,105.27823 0 0 1 2.36899,23.074032 v 69.41162 h -21.98429 v -64.91053 a 104.56753,104.56753 0 0 0 -1.56354,-19.52053 32.692161,32.692161 0 0 0 -5.11703,-13.076866 20.278616,20.278616 0 0 0 -9.47599,-7.249131 41.31531,41.31531 0 0 0 -14.73516,-2.274237 c -2.369,0 -4.738,0 -7.34389,0 l -7.24914,0.615939 c -2.32161,0 -4.40633,0.521179 -6.20677,0.852839 l -3.93253,0.710699 V 186.52885 h -22.12644 z"
     id="path49"
     style="stroke-width:4.73799" />
  <path
     class="cls-1"
     d="m 546.92058,63.246236 h 46.85876 v 18.572938 h -46.85876 v 56.855936 a 68.748297,68.748297 0 0 0 1.4214,15.3511 22.505473,22.505473 0 0 0 4.31157,9.47599 15.493241,15.493241 0 0 0 7.107,4.73799 31.791942,31.791942 0 0 0 9.99716,1.4214 46.290204,46.290204 0 0 0 16.15656,-2.27424 c 3.97992,-1.46878 6.68058,-2.55852 8.10197,-3.17446 l 4.738,18.05176 a 77.371447,77.371447 0 0 1 -11.75023,4.2642 64.436722,64.436722 0 0 1 -18.95197,2.65327 57.756151,57.756151 0 0 1 -20.7998,-3.22183 30.181024,30.181024 0 0 1 -13.219,-9.47599 38.756793,38.756793 0 0 1 -7.01223,-15.8249 102.71972,102.71972 0 0 1 -2.03734,-21.79478 V 28.753637 l 22.12643,-3.790395 z"
     id="path51"
     style="stroke-width:4.73799" />
  <path
     class="cls-1"
     d="m 714.1244,183.35439 c -5.06965,1.27926 -11.75023,2.6059 -20.0891,4.0273 a 168.24618,168.24618 0 0 1 -28.90176,2.17947 61.593926,61.593926 0 0 1 -24.02163,-4.16943 38.851553,38.851553 0 0 1 -15.68276,-11.79761 47.379943,47.379943 0 0 1 -8.57577,-17.957 93.006828,93.006828 0 0 1 -2.6059,-22.93189 V 63.246236 h 22.12643 v 64.673624 q 0,22.60023 7.107,32.3605 7.10699,9.76027 24.02163,9.76027 c 2.41637,0 4.73799,0 7.39127,0 2.65327,0 4.73799,-0.37904 7.15437,-0.61594 l 6.06463,-0.7107 a 16.67774,16.67774 0 0 0 3.88516,-0.80546 V 63.672655 h 22.12643 z"
     id="path53"
     style="stroke-width:4.73799" />
  <path
     class="cls-2"
     d="M 784.531,2.3630091 A 49.93846,49.93846 0 1 1 734.40302,52.301469 49.93846,49.93846 0 0 1 784.34148,2.3630091"
     id="path55"
     style="stroke-width:4.73799" />
  <path
     class="cls-1"
     d="m 784.531,70.590127 a 18.383418,18.383418 0 0 1 -7.72294,-1.658298 l -4.50109,8.10197 a 27.148707,27.148707 0 0 0 12.22403,2.842797 28.143686,28.143686 0 0 0 7.24913,-0.947599 9.0495691,9.0495691 0 0 1 12.17664,-6.964852 27.385607,27.385607 0 0 0 8.10197,-17.814858 h -9.47599 a 18.288658,18.288658 0 0 1 -18.24127,16.67774 M 766.05282,52.538369 a 18.099138,18.099138 0 0 1 7.77031,-14.972062 l -4.738,-8.007211 a 27.859406,27.859406 0 0 0 -11.37118,15.919661 9.0969491,9.0969491 0 0 1 3.36397,7.059612 9.0021892,9.0021892 0 0 1 -3.36397,7.012231 27.859406,27.859406 0 0 0 11.37118,15.967041 l 4.738,-8.00721 A 18.146518,18.146518 0 0 1 766.05282,52.538369 M 784.531,34.060191 a 18.288658,18.288658 0 0 1 18.24127,16.72512 h 9.47599 a 27.622507,27.622507 0 0 0 -8.10197,-17.814859 9.0021892,9.0021892 0 0 1 -12.17664,-7.012231 28.143686,28.143686 0 0 0 -7.24913,-0.947599 27.148707,27.148707 0 0 0 -12.22403,2.842796 l 4.50109,8.101971 a 18.430798,18.430798 0 0 1 7.72294,-1.705678 m 21.74739,-6.491052 a 6.4436722,6.4436722 0 1 0 -8.76529,2.368997 6.4436722,6.4436722 0 0 0 8.76529,-2.368997 m -11.13429,56.050472 a 6.4436722,6.4436722 0 1 0 2.369,-8.765289 6.4436722,6.4436722 0 0 0 -2.369,8.765289 M 758.80369,52.585749 a 6.4436722,6.4436722 0 1 1 -6.44368,-6.443673 6.3962923,6.3962923 0 0 1 6.44368,6.443673"
     id="path57"
     style="stroke-width:4.73799" />
  <path
     class="cls-2"
     d="m 896.58456,96.459576 h 36.1509 v 9.475984 h -36.1509 v 48.46969 a 47.948502,47.948502 0 0 0 1.32664,12.55568 17.625339,17.625339 0 0 0 3.74301,7.48603 12.034506,12.034506 0 0 0 5.96988,3.50612 37.335395,37.335395 0 0 0 19.33101,-0.80546 47.379943,47.379943 0 0 0 6.8701,-3.0797 l 2.79541,9.47599 a 43.684307,43.684307 0 0 1 -8.62315,3.60088 42.641949,42.641949 0 0 1 -13.31376,1.98995 39.751772,39.751772 0 0 1 -14.21398,-2.17947 20.420755,20.420755 0 0 1 -9.09695,-6.68057 26.295868,26.295868 0 0 1 -4.738,-11.13429 76.850268,76.850268 0 0 1 -1.4214,-15.8249 V 69.784668 l 11.41857,-2.084717 z"
     id="path59"
     style="stroke-width:4.73799" />
  <path
     class="cls-2"
     d="m 1027.7322,141.94432 a 57.99305,57.99305 0 0 1 -3.0797,19.52054 43.589548,43.589548 0 0 1 -8.5757,14.92468 41.17317,41.17317 0 0 1 -46.43237,9.47599 39.277973,39.277973 0 0 1 -13.07686,-9.47599 43.636928,43.636928 0 0 1 -8.62315,-14.92468 63.252224,63.252224 0 0 1 0,-38.9937 44.110727,44.110727 0 0 1 8.62315,-15.01944 37.903954,37.903954 0 0 1 13.07686,-9.475986 42.641949,42.641949 0 0 1 33.16597,0 38.567274,38.567274 0 0 1 13.0769,9.475986 44.015967,44.015967 0 0 1 8.5757,15.01944 57.708771,57.708771 0 0 1 3.2692,19.47316 z m -12.0818,0 a 42.641949,42.641949 0 0 0 -7.9125,-27.10133 27.764647,27.764647 0 0 0 -42.64194,0 42.641949,42.641949 0 0 0 -8.00721,27.10133 42.262909,42.262909 0 0 0 7.91245,27.05395 27.954166,27.954166 0 0 0 42.6419,0 42.641949,42.641949 0 0 0 8.0073,-27.05395 z"
     id="path61"
     style="stroke-width:4.73799" />
  <path
     class="cls-2"
     d="m 1111.6895,184.11247 c -3.4114,0.9476 -7.9598,1.98996 -13.6928,3.12708 a 106.22583,106.22583 0 0 1 -21.0841,1.80043 43.826447,43.826447 0 0 1 -17.0568,-2.98493 27.859406,27.859406 0 0 1 -11.0395,-8.43363 34.776878,34.776878 0 0 1 -6.0646,-13.17163 73.533672,73.533672 0 0 1 -1.8478,-17.05678 V 96.459576 h 11.4185 v 47.379944 a 79.977344,79.977344 0 0 0 1.4214,16.34608 26.295868,26.295868 0 0 0 4.738,10.80263 18.051758,18.051758 0 0 0 8.1494,5.96987 35.677097,35.677097 0 0 0 12.224,1.84782 92.912068,92.912068 0 0 0 14.214,-0.90022 36.861596,36.861596 0 0 0 7.5808,-1.56354 V 96.459576 h 11.4185 z"
     id="path63"
     style="stroke-width:4.73799" />
  <path
     class="cls-2"
     d="m 1168.9245,189.18212 a 48.517062,48.517062 0 0 1 -18.6203,-3.31659 35.108538,35.108538 0 0 1 -13.4559,-9.47599 43.636928,43.636928 0 0 1 -8.1494,-14.92468 63.299604,63.299604 0 0 1 -2.7954,-19.23626 61.593926,61.593926 0 0 1 2.8902,-19.47316 43.684307,43.684307 0 0 1 8.3388,-15.20896 36.814216,36.814216 0 0 1 13.1717,-9.760266 42.641949,42.641949 0 0 1 17.3884,-3.411356 74.244371,74.244371 0 0 1 13.7876,1.231879 32.786921,32.786921 0 0 1 9.9024,3.174456 l -2.985,9.807647 a 36.056137,36.056137 0 0 0 -7.9124,-2.79542 51.596758,51.596758 0 0 0 -11.7502,-1.04235 27.527747,27.527747 0 0 0 -22.8846,9.47598 43.257888,43.257888 0 0 0 -7.8176,27.66989 58.13519,58.13519 0 0 0 1.753,14.82992 29.944124,29.944124 0 0 0 5.6856,11.60809 26.532768,26.532768 0 0 0 10.1867,7.53341 38.282994,38.282994 0 0 0 15.209,2.74804 38.946313,38.946313 0 0 0 12.3661,-1.70568 50.0806,50.0806 0 0 0 7.2965,-2.89018 l 2.4638,9.85503 a 44.347627,44.347627 0 0 1 -9.9498,3.41136 59.698728,59.698728 0 0 1 -14.1192,1.89519 z"
     id="path65"
     style="stroke-width:4.73799" />
  <path
     class="cls-2"
     d="M 1205.0754,187.23955 V 53.012168 l 11.4185,-2.084717 v 48.185402 a 74.62341,74.62341 0 0 1 11.4186,-3.269216 60.267287,60.267287 0 0 1 11.6081,-1.137119 44.963566,44.963566 0 0 1 17.5306,2.984936 26.911808,26.911808 0 0 1 11.229,8.528386 33.16596,33.16596 0 0 1 5.9225,13.26639 82.204201,82.204201 0 0 1 1.6583,17.0094 v 50.74392 h -11.4186 v -47.04829 a 83.43608,83.43608 0 0 0 -1.3266,-16.2987 26.343248,26.343248 0 0 0 -4.4063,-10.89738 16.67774,16.67774 0 0 0 -8.1494,-6.06464 37.903954,37.903954 0 0 0 -12.7926,-1.84781 45.295226,45.295226 0 0 0 -6.4436,0.52117 l -6.3963,1.13712 c -1.99,0.42642 -3.7904,0.85284 -5.354,1.32664 a 26.390628,26.390628 0 0 0 -3.0797,1.04236 v 78.12953 z"
     id="path67"
     style="stroke-width:4.73799" />
  <path
     class="cls-1"
     d="m 740.60979,166.72403 h 2.17948 c 1.08973,0 2.32161,0 2.32161,1.51616 0,1.51616 -1.32664,1.70568 -2.79541,1.70568 h -1.70568 z m -1.6583,-1.27926 v 10.13931 h 1.6583 v -4.35895 h 1.75306 l 2.89017,4.35895 h 1.75306 l -3.03232,-4.73799 c 1.56354,0 2.79542,-0.90022 2.79542,-2.74804 0,-1.84782 -1.1845,-2.89018 -3.74301,-2.89018 z m -3.97991,5.02228 a 7.486031,7.486031 0 1 1 7.53341,7.48603 7.3438912,7.3438912 0 0 1 -7.53341,-7.48603 m -1.6583,0 a 9.144329,9.144329 0 1 0 9.19171,-8.67053 8.9548092,8.9548092 0 0 0 -9.19171,8.67053"
     id="path69"
     style="stroke-width:4.73799" />
  <g
     class="cls-3"
     clip-path="url(#clip-path)"
     id="g73"
     transform="matrix(4.7379943,0,0,4.7379943,-208.45785,-297.59941)">
    <rect
       class="cls-1"
       x="196.37"
       y="94.300003"
       width="8.6700001"
       height="8.9200001"
       id="rect71" />
  </g>
</svg>
