<?xml version="1.0" encoding="UTF-8" standalone="no"?>
<svg
   id="Laag_1"
   data-name="Laag 1"
   viewBox="0 0 1280 310.00001"
   version="1.1"
   sodipodi:docname="ubuntu-touch-ubports.svg"
   width="1280"
   height="310"
   inkscape:version="1.2.2 (732a01da63, 2022-12-09, custom)"
   xmlns:inkscape="http://www.inkscape.org/namespaces/inkscape"
   xmlns:sodipodi="http://sodipodi.sourceforge.net/DTD/sodipodi-0.dtd"
   xmlns="http://www.w3.org/2000/svg"
   xmlns:svg="http://www.w3.org/2000/svg">
  <sodipodi:namedview
     id="namedview74"
     pagecolor="#ffffff"
     bordercolor="#666666"
     borderopacity="1.0"
     inkscape:showpageshadow="2"
     inkscape:pageopacity="0.0"
     inkscape:pagecheckerboard="0"
     inkscape:deskcolor="#d1d1d1"
     showgrid="false"
     inkscape:zoom="0.68354205"
     inkscape:cx="114.84297"
     inkscape:cy="351.84375"
     inkscape:window-width="1850"
     inkscape:window-height="1016"
     inkscape:window-x="0"
     inkscape:window-y="0"
     inkscape:window-maximized="1"
     inkscape:current-layer="Laag_1" />
  <defs
     id="defs7">
    <style
       id="style2">.cls-1{fill:#1d1d1b;}.cls-2{fill:#e95420;}.cls-3{fill:#fff;}.cls-4{clip-path:url(#clip-path);}</style>
    <clipPath
       id="clip-path">
      <path
         class="cls-1"
         d="M 203.49,98 H 204 c 0.24,0 0.49,0 0.49,0.32 0,0.32 -0.28,0.36 -0.59,0.36 h -0.36 z m -0.35,-0.27 v 2.14 h 0.35 v -0.92 h 0.37 l 0.61,0.92 h 0.37 l -0.64,-1 c 0.33,0 0.59,-0.19 0.59,-0.58 0,-0.39 -0.25,-0.61 -0.78,-0.61 z m -0.83,1.06 a 1.58,1.58 0 1 1 1.58,1.58 1.54,1.54 0 0 1 -1.58,-1.58 m -0.35,0 a 1.93,1.93 0 1 0 1.93,-1.83 1.88,1.88 0 0 0 -1.89,1.79"
         id="path4" />
    </clipPath>
  </defs>
  <path
     class="cls-1"
     d="m 490.19533,228.54654 a 31.504396,31.504396 0 0 1 19.47114,4.7375 16.818136,16.818136 0 0 1 6.39563,14.21251 19.850138,19.850138 0 0 1 -1.84763,8.95388 14.68626,14.68626 0 0 1 -5.35338,5.92188 24.208641,24.208641 0 0 1 -8.48013,3.31626 58.176539,58.176539 0 0 1 -11.32263,0.99487 h -8.338 v 23.68752 h -6.06401 v -60.16629 a 47.659282,47.659282 0 0 1 7.53263,-1.27913 c 2.8425,-0.28425 5.54288,-0.379 8.00638,-0.379 z m 0.28425,5.21125 c -2.274,0 -4.169,0 -5.73238,0 l -4.02687,0.42638 v 27.28802 h 7.62738 a 62.819292,62.819292 0 0 0 8.85913,-0.5685 20.418639,20.418639 0 0 0 6.72725,-2.17925 10.233007,10.233007 0 0 0 4.31113,-4.31113 14.21251,14.21251 0 0 0 1.516,-7.01151 12.649134,12.649134 0 0 0 -1.61075,-6.72725 11.985883,11.985883 0 0 0 -4.3585,-4.21638 18.571013,18.571013 0 0 0 -6.20613,-2.17925 39.273902,39.273902 0 0 0 -7.10626,-0.52113 z"
     id="path9"
     style="stroke-width:4.7375" />
  <path
     class="cls-1"
     d="m 565.33213,267.72569 a 29.46727,29.46727 0 0 1 -1.56337,9.85401 21.65039,21.65039 0 0 1 -4.35851,7.58 18.950013,18.950013 0 0 1 -6.6325,4.73751 21.176639,21.176639 0 0 1 -16.86551,0 18.950013,18.950013 0 0 1 -6.63251,-4.73751 22.40839,22.40839 0 0 1 -4.3585,-7.58 31.836022,31.836022 0 0 1 0,-19.70801 23.119016,23.119016 0 0 1 4.3585,-7.62738 19.944888,19.944888 0 0 1 6.63251,-4.73751 21.697765,21.697765 0 0 1 16.86551,0 19.944888,19.944888 0 0 1 6.6325,4.73751 22.31364,22.31364 0 0 1 4.35851,7.62738 29.46727,29.46727 0 0 1 1.56337,9.854 z m -6.11138,0 a 21.83989,21.83989 0 0 0 -4.02687,-13.73876 14.21251,14.21251 0 0 0 -21.69777,0 21.83989,21.83989 0 0 0 -3.9795,13.73876 21.508265,21.508265 0 0 0 3.9795,13.69139 14.21251,14.21251 0 0 0 21.69777,0 21.508265,21.508265 0 0 0 4.02687,-13.69139 z"
     id="path11"
     style="stroke-width:4.7375" />
  <path
     class="cls-1"
     d="m 607.63804,244.70143 c 0.52112,2.98462 1.18437,6.11138 2.03712,9.475 0.85275,3.36363 1.80025,6.77463 2.8425,10.23301 1.04226,3.45838 2.13188,6.86938 3.31626,10.23301 1.18437,3.36362 2.32137,6.58513 3.50575,9.475 0.99487,-2.22662 2.0845,-4.97438 3.2215,-8.19588 1.137,-3.2215 2.22663,-6.6325 3.36363,-10.233 1.137,-3.60051 2.17925,-7.20101 3.17413,-10.84889 0.99487,-3.64787 1.80025,-7.0115 2.4635,-10.18563 h 5.685 q -3.17413,13.59664 -7.0115,24.72977 a 222.66265,222.66265 0 0 1 -8.33801,21.22401 h -5.35338 c -0.90012,-2.0845 -1.84762,-4.40588 -2.8425,-7.0115 -0.99488,-2.60563 -1.98975,-5.30601 -3.032,-8.24326 -1.04225,-2.93725 -2.03713,-6.01663 -3.032,-9.475 -0.99488,-3.45838 -1.895,-6.53776 -2.79513,-9.90139 -0.90013,3.41101 -1.80025,6.67988 -2.79513,9.94876 -0.99487,3.26888 -1.98975,6.30088 -3.032,9.47501 -1.04225,3.17412 -2.03713,5.685 -3.032,8.24325 -0.99488,2.55825 -1.895,4.73751 -2.79513,6.96413 h -5.54288 a 222.66265,222.66265 0 0 1 -8.338,-21.22401 q -3.79001,-11.22788 -6.96413,-24.72977 h 6.15875 c 0.61588,3.12675 1.46863,6.53776 2.4635,10.18563 0.99488,3.64788 2.03713,7.24838 3.12676,10.84889 1.08962,3.6005 2.274,6.96413 3.45837,10.18563 1.18438,3.2215 2.22663,5.92188 3.26888,8.1485 1.137,-2.93725 2.274,-6.11138 3.411,-9.475 1.137,-3.36363 2.17925,-6.82201 3.17413,-10.23301 0.99488,-3.411 1.94238,-6.82201 2.8425,-10.18563 0.90013,-3.36363 1.7055,-6.49038 2.36875,-9.47501 z"
     id="path13"
     style="stroke-width:4.7375" />
  <path
     class="cls-1"
     d="m 644.16419,267.63094 a 29.46727,29.46727 0 0 1 1.75287,-10.51726 22.834765,22.834765 0 0 1 4.73751,-7.53263 17.386637,17.386637 0 0 1 6.39562,-4.45325 18.950013,18.950013 0 0 1 7.39051,-1.46862 17.339262,17.339262 0 0 1 13.50188,5.4955 24.777142,24.777142 0 0 1 5.02176,16.96026 c 0,0.47375 0,0.9475 0,1.42125 v 1.37388 h -32.2624 a 20.513389,20.513389 0 0 0 4.169,12.98076 15.728511,15.728511 0 0 0 12.45964,4.7375 25.819392,25.819392 0 0 0 7.43788,-0.85275 c 1.84762,-0.61588 3.17412,-1.137 4.02687,-1.516 l 1.04226,4.7375 a 21.508265,21.508265 0 0 1 -4.73751,1.65813 28.99352,28.99352 0 0 1 -8.05375,0.99487 26.861643,26.861643 0 0 1 -10.32776,-1.80025 18.523638,18.523638 0 0 1 -7.01151,-4.7375 18.950013,18.950013 0 0 1 -3.9795,-7.58001 34.583773,34.583773 0 0 1 -1.56337,-9.90138 z m 32.64139,-3.64788 a 18.049887,18.049887 0 0 0 -3.36362,-11.1805 10.991007,10.991007 0 0 0 -9.09601,-3.97951 11.796383,11.796383 0 0 0 -5.54288,1.23175 14.21251,14.21251 0 0 0 -4.26375,3.31626 14.97051,14.97051 0 0 0 -2.8425,4.7375 19.944888,19.944888 0 0 0 -1.18438,5.77975 z"
     id="path15"
     style="stroke-width:4.7375" />
  <path
     class="cls-1"
     d="m 711.38936,243.8013 a 32.736147,32.736147 0 0 1 5.40075,0.47375 14.21251,14.21251 0 0 1 3.50575,0.90013 l -1.18437,4.7375 a 11.133133,11.133133 0 0 0 -2.88988,-0.758 30.746396,30.746396 0 0 0 -5.73238,-0.42638 28.709269,28.709269 0 0 0 -5.96925,0.52113 18.476262,18.476262 0 0 0 -2.98463,0.90012 v 40.26878 h -5.82713 v -43.8219 a 38.989651,38.989651 0 0 1 15.63376,-3.032 z"
     id="path17"
     style="stroke-width:4.7375" />
  <path
     class="cls-1"
     d="m 726.31249,267.63094 a 28.425019,28.425019 0 0 1 1.75288,-10.51726 22.834765,22.834765 0 0 1 4.7375,-7.53263 17.386637,17.386637 0 0 1 6.39563,-4.45325 18.950013,18.950013 0 0 1 7.39051,-1.46862 17.339262,17.339262 0 0 1 13.50188,5.4955 24.777142,24.777142 0 0 1 5.02175,16.96026 c 0,0.47375 0,0.9475 0,1.42125 v 1.37388 h -32.26239 a 20.229139,20.229139 0 0 0 4.169,12.98076 15.728511,15.728511 0 0 0 12.45963,4.7375 26.056268,26.056268 0 0 0 7.43788,-0.85275 c 1.84763,-0.61588 3.17413,-1.137 4.02688,-1.516 l 1.04225,4.7375 a 21.508265,21.508265 0 0 1 -4.7375,1.65813 28.99352,28.99352 0 0 1 -8.05376,0.99487 26.861643,26.861643 0 0 1 -10.32776,-1.80025 18.523638,18.523638 0 0 1 -7.0115,-4.7375 18.950013,18.950013 0 0 1 -3.9795,-7.58001 34.583773,34.583773 0 0 1 -1.56338,-9.90138 z m 32.6414,-3.64788 a 18.334137,18.334137 0 0 0 -3.36363,-11.1805 10.991007,10.991007 0 0 0 -9.096,-3.97951 11.654258,11.654258 0 0 0 -5.54288,1.23175 14.21251,14.21251 0 0 0 -4.26376,3.31626 14.97051,14.97051 0 0 0 -2.8425,4.7375 19.992264,19.992264 0 0 0 -1.23175,5.77975 z"
     id="path19"
     style="stroke-width:4.7375" />
  <path
     class="cls-1"
     d="m 814.43005,289.23396 a 46.427531,46.427531 0 0 1 -6.58513,1.7055 54.102287,54.102287 0 0 1 -10.13826,0.80537 24.777142,24.777142 0 0 1 -9.19075,-1.65812 19.708013,19.708013 0 0 1 -7.10626,-4.73751 21.508265,21.508265 0 0 1 -4.7375,-7.58 28.804019,28.804019 0 0 1 -1.65813,-10.04351 32.546647,32.546647 0 0 1 1.37388,-9.475 22.21889,22.21889 0 0 1 4.07425,-7.62738 17.955137,17.955137 0 0 1 6.53776,-4.97438 20.845014,20.845014 0 0 1 8.85913,-1.80025 22.02939,22.02939 0 0 1 7.86425,1.3265 21.460889,21.460889 0 0 1 4.73751,2.41612 v -24.68239 l 5.77975,-1.08962 z m -5.77975,-36.14715 a 15.823261,15.823261 0 0 0 -1.98975,-1.37388 22.076765,22.076765 0 0 0 -2.79513,-1.3265 23.687516,23.687516 0 0 0 -3.50575,-0.99488 17.149762,17.149762 0 0 0 -3.88476,-0.42637 15.396885,15.396885 0 0 0 -7.15363,1.516 12.649134,12.649134 0 0 0 -4.7375,4.07425 16.391761,16.391761 0 0 0 -2.55825,5.92188 32.357147,32.357147 0 0 0 -0.80538,7.24838 19.565888,19.565888 0 0 0 4.73751,13.92826 15.586386,15.586386 0 0 0 11.98588,4.7375 52.53891,52.53891 0 0 0 6.86938,-0.379 30.22527,30.22527 0 0 0 3.9795,-0.85275 z"
     id="path21"
     style="stroke-width:4.7375" />
  <path
     class="cls-1"
     d="m 855.93058,247.25968 a 20.418639,20.418639 0 0 1 4.7375,-2.41613 22.02939,22.02939 0 0 1 7.86426,-1.3265 20.987139,20.987139 0 0 1 8.85913,1.80025 17.955137,17.955137 0 0 1 6.53775,4.97438 21.366139,21.366139 0 0 1 4.02688,7.62738 31.030646,31.030646 0 0 1 1.42125,9.47501 28.804019,28.804019 0 0 1 -1.65812,10.0435 21.508265,21.508265 0 0 1 -4.73751,7.58001 19.708013,19.708013 0 0 1 -7.10625,4.7375 24.777142,24.777142 0 0 1 -9.19076,1.65813 54.102287,54.102287 0 0 1 -10.13826,-0.80538 46.427531,46.427531 0 0 1 -6.58513,-1.7055 v -66.32504 l 5.77976,-1.08963 z m 0,37.90002 a 30.22527,30.22527 0 0 0 3.9795,0.85275 52.53891,52.53891 0 0 0 6.86938,0.379 15.586386,15.586386 0 0 0 11.98588,-4.7375 19.565888,19.565888 0 0 0 4.73751,-13.92826 32.357147,32.357147 0 0 0 -0.80538,-7.24838 16.391761,16.391761 0 0 0 -2.55825,-5.92188 12.649134,12.649134 0 0 0 -4.7375,-4.07425 15.396885,15.396885 0 0 0 -7.15363,-1.516 17.149762,17.149762 0 0 0 -3.88476,0.42637 23.687516,23.687516 0 0 0 -3.50575,0.99488 22.076765,22.076765 0 0 0 -2.79512,1.3265 15.823261,15.823261 0 0 0 -1.98976,1.37388 z"
     id="path23"
     style="stroke-width:4.7375" />
  <path
     class="cls-1"
     d="m 914.62824,291.65008 c -1.94237,-3.64787 -3.83737,-7.3905 -5.63763,-11.32263 -1.80025,-3.93213 -3.50575,-7.86425 -5.06912,-11.84376 -1.56338,-3.9795 -3.03201,-8.00638 -4.35851,-11.98588 -1.3265,-3.9795 -2.41612,-7.91163 -3.36362,-11.79638 h 6.15875 c 0.61588,2.8425 1.46863,5.92188 2.4635,9.19075 0.99488,3.26888 2.13188,6.67988 3.411,10.18563 1.27913,3.50576 2.70038,7.10626 4.21638,10.75414 1.516,3.64787 3.2215,7.29575 5.06913,10.84888 1.27913,-3.64788 2.4635,-7.10626 3.50575,-10.37513 1.04225,-3.26888 1.94238,-6.49038 2.79513,-9.47501 0.85275,-2.98463 1.7055,-6.53775 2.51088,-9.90138 0.80537,-3.36363 1.65812,-7.05888 2.51087,-10.99101 h 5.77976 c -1.94238,8.62226 -4.12163,16.96026 -6.53776,25.10877 a 205.46551,205.46551 0 0 1 -7.86425,22.26626 52.112535,52.112535 0 0 1 -3.45838,6.91676 19.897513,19.897513 0 0 1 -3.9795,4.7375 14.21251,14.21251 0 0 1 -5.11651,2.74775 22.266265,22.266265 0 0 1 -6.822,0.90013 15.06526,15.06526 0 0 1 -4.02688,-0.52113 16.012761,16.012761 0 0 1 -2.32137,-0.80537 l 1.18437,-4.73751 a 10.848882,10.848882 0 0 0 1.98975,0.75801 13.833509,13.833509 0 0 0 3.45838,0.47375 18.950013,18.950013 0 0 0 4.50063,-0.52113 10.422507,10.422507 0 0 0 3.6005,-1.84763 13.359759,13.359759 0 0 0 2.88988,-3.31625 30.983271,30.983271 0 0 0 2.51087,-5.44813 z"
     id="path25"
     style="stroke-width:4.7375" />
  <path
     class="cls-1"
     d="m 987.25417,291.98171 a 26.530018,26.530018 0 0 1 -10.46988,-1.84763 17.670887,17.670887 0 0 1 -6.96413,-5.16388 20.276514,20.276514 0 0 1 -3.88476,-7.67475 35.815524,35.815524 0 0 1 -1.18437,-9.47501 v -38.75277 h 6.064 v 37.90002 a 28.425019,28.425019 0 0 0 1.18438,8.76438 17.149762,17.149762 0 0 0 3.31625,6.11138 13.644009,13.644009 0 0 0 5.16388,3.55313 18.950013,18.950013 0 0 0 6.77463,1.137 18.950013,18.950013 0 0 0 6.72725,-1.137 13.644009,13.644009 0 0 0 5.16388,-3.55313 16.439136,16.439136 0 0 0 3.3163,-6.11138 28.425019,28.425019 0 0 0 1.2317,-8.76438 v -37.90002 h 6.0166 v 38.75277 a 35.815524,35.815524 0 0 1 -1.1843,9.47501 20.276514,20.276514 0 0 1 -3.8848,7.67475 17.670887,17.670887 0 0 1 -6.96413,5.16388 26.435268,26.435268 0 0 1 -10.4225,1.84763 z"
     id="path27"
     style="stroke-width:4.7375" />
  <path
     class="cls-1"
     d="m 1040.3142,291.22371 h -3.5057 l -4.1217,-0.379 -3.9321,-0.52113 a 31.693896,31.693896 0 0 1 -3.2215,-0.66325 v -59.45566 c 1.0896,-0.28425 2.274,-0.52113 3.5531,-0.758 l 4.0743,-0.52113 4.0742,-0.28425 c 1.3265,0 2.5583,0 3.6953,0 a 55.239287,55.239287 0 0 1 9.475,0.758 25.677267,25.677267 0 0 1 7.8642,2.70038 14.923135,14.923135 0 0 1 5.3534,4.7375 13.217634,13.217634 0 0 1 2.0371,7.58001 14.21251,14.21251 0 0 1 -2.5582,8.48013 12.838634,12.838634 0 0 1 -6.7746,4.7375 19.944888,19.944888 0 0 1 4.7375,1.80025 13.312384,13.312384 0 0 1 3.8847,2.98463 12.033258,12.033258 0 0 1 2.653,4.40588 19.234263,19.234263 0 0 1 0.9001,6.30088 14.923135,14.923135 0 0 1 -6.9167,13.31238 39.605527,39.605527 0 0 1 -21.2714,4.78488 z m -8.717,-35.2944 h 11.749 a 36.952525,36.952525 0 0 0 6.2061,-0.52113 14.21251,14.21251 0 0 0 5.1165,-1.75287 8.859131,8.859131 0 0 0 3.411,-3.45838 10.659382,10.659382 0 0 0 1.2318,-5.54288 9.0960061,9.0960061 0 0 0 -1.3265,-5.06913 9.4750064,9.4750064 0 0 0 -3.7426,-3.411 18.950013,18.950013 0 0 0 -5.8272,-1.895 45.148405,45.148405 0 0 0 -7.4852,-0.61588 c -2.1793,0 -4.0269,0 -5.5429,0 -1.516,0 -2.7951,0.28425 -3.79,0.47375 z m 0,5.1165 v 24.39814 l 3.9795,0.379 c 1.8003,0 3.6005,0 5.4481,0 a 55.239287,55.239287 0 0 0 7.959,-0.5685 21.83989,21.83989 0 0 0 6.7747,-1.94237 12.080633,12.080633 0 0 0 4.7375,-3.93213 10.754132,10.754132 0 0 0 1.7528,-6.39563 12.507008,12.507008 0 0 0 -1.2317,-5.96925 9.4750064,9.4750064 0 0 0 -3.5531,-3.74263 15.491635,15.491635 0 0 0 -5.6377,-1.895 44.390405,44.390405 0 0 0 -7.4378,-0.5685 z"
     id="path29"
     style="stroke-width:4.7375" />
  <path
     class="cls-1"
     d="m 1087.0734,307.09434 h -5.7798 v -60.78216 a 48.796283,48.796283 0 0 1 16.7234,-2.51088 24.777142,24.777142 0 0 1 9.1907,1.65813 20.323889,20.323889 0 0 1 7.1063,4.7375 22.21889,22.21889 0 0 1 4.7375,7.58001 28.99352,28.99352 0 0 1 1.6108,10.0435 31.362271,31.362271 0 0 1 -1.3739,9.47501 21.271389,21.271389 0 0 1 -4.0269,7.53263 18.665763,18.665763 0 0 1 -6.5378,4.7375 20.987139,20.987139 0 0 1 -8.8591,1.80025 21.887265,21.887265 0 0 1 -7.8642,-1.27912 22.171515,22.171515 0 0 1 -4.7375,-2.4635 z m 0,-24.68239 a 16.012761,16.012761 0 0 0 1.9897,1.3265 22.076765,22.076765 0 0 0 2.7951,1.3265 24.587642,24.587642 0 0 0 3.4584,1.04225 21.271389,21.271389 0 0 0 3.9321,0.379 15.53901,15.53901 0 0 0 7.1537,-1.46862 12.838634,12.838634 0 0 0 4.7375,-3.9795 17.007636,17.007636 0 0 0 2.5582,-5.96926 32.357147,32.357147 0 0 0 0.8054,-7.24838 19.660638,19.660638 0 0 0 -4.7375,-13.92826 15.681136,15.681136 0 0 0 -11.9859,-4.7375 45.10103,45.10103 0 0 0 -6.9167,0.42637 24.161266,24.161266 0 0 0 -3.9322,0.80538 z"
     id="path31"
     style="stroke-width:4.7375" />
  <path
     class="cls-1"
     d="m 1172.3958,267.72569 a 29.46727,29.46727 0 0 1 -1.5634,9.85401 21.55564,21.55564 0 0 1 -4.3111,7.58 19.944888,19.944888 0 0 1 -15.1126,6.58513 19.944888,19.944888 0 0 1 -15.1127,-6.58513 22.40839,22.40839 0 0 1 -4.3585,-7.58 32.783522,32.783522 0 0 1 0,-19.70801 23.119016,23.119016 0 0 1 4.3585,-7.62738 19.518513,19.518513 0 0 1 15.0653,-6.58513 20.702889,20.702889 0 0 1 8.4801,1.7055 20.939764,20.939764 0 0 1 6.6325,4.7375 22.21889,22.21889 0 0 1 4.3111,7.62738 29.46727,29.46727 0 0 1 1.6108,9.99613 z m -6.1114,0 a 21.55564,21.55564 0 0 0 -4.0269,-13.73876 14.21251,14.21251 0 0 0 -21.6504,0 21.55564,21.55564 0 0 0 -4.0268,13.73876 21.224014,21.224014 0 0 0 4.0268,13.69139 14.21251,14.21251 0 0 0 21.6504,0 21.224014,21.224014 0 0 0 4.0269,-13.69139 z"
     id="path33"
     style="stroke-width:4.7375" />
  <path
     class="cls-1"
     d="m 1200.6787,243.8013 a 32.736147,32.736147 0 0 1 5.4007,0.47375 14.21251,14.21251 0 0 1 3.5058,0.90013 l -1.1844,4.7375 a 11.133133,11.133133 0 0 0 -2.8899,-0.758 30.746396,30.746396 0 0 0 -5.7323,-0.42638 28.425019,28.425019 0 0 0 -5.9693,0.52113 18.476262,18.476262 0 0 0 -2.9846,0.90012 v 40.26878 h -5.7798 v -43.8219 a 38.989651,38.989651 0 0 1 15.6338,-3.032 z"
     id="path35"
     style="stroke-width:4.7375" />
  <path
     class="cls-1"
     d="m 1223.7977,244.70143 h 18.2868 v 4.7375 h -18.2868 v 24.44552 a 26.198393,26.198393 0 0 0 0.6633,6.39563 8.6696309,8.6696309 0 0 0 1.895,3.74262 6.0640041,6.0640041 0 0 0 3.032,1.80025 19.660638,19.660638 0 0 0 9.8066,-0.42637 23.024266,23.024266 0 0 0 3.4584,-1.516 l 1.4212,4.7375 a 21.176639,21.176639 0 0 1 -4.3585,1.80025 20.939764,20.939764 0 0 1 -6.7746,1.04225 19.708013,19.708013 0 0 1 -7.1536,-1.137 9.8066316,9.8066316 0 0 1 -4.7375,-3.36363 13.359759,13.359759 0 0 1 -2.4636,-5.63762 39.558152,39.558152 0 0 1 -0.7106,-8.00638 v -42.30591 l 5.7798,-1.08962 z"
     id="path37"
     style="stroke-width:4.7375" />
  <path
     class="cls-1"
     d="m 1262.2662,286.58095 a 18.381512,18.381512 0 0 0 8.2433,-1.65812 5.6850038,5.6850038 0 0 0 3.2215,-5.54288 8.3380056,8.3380056 0 0 0 -0.5685,-3.2215 6.2535042,6.2535042 0 0 0 -1.895,-2.36875 15.918011,15.918011 0 0 0 -3.5058,-2.03713 l -5.4007,-2.32138 c -1.7055,-0.71062 -3.3163,-1.46862 -4.7375,-2.17925 a 20.655514,20.655514 0 0 1 -4.0743,-2.60563 10.801507,10.801507 0 0 1 -2.8425,-3.50575 10.564632,10.564632 0 0 1 -1.0896,-4.97438 11.180508,11.180508 0 0 1 4.2164,-9.04863 17.765637,17.765637 0 0 1 11.6069,-3.45837 29.84627,29.84627 0 0 1 7.7695,0.80537 21.271389,21.271389 0 0 1 4.3111,1.42125 l -1.3265,5.11651 c -0.7106,-0.33163 -1.895,-0.80538 -3.6005,-1.42126 a 24.398141,24.398141 0 0 0 -7.3905,-0.85275 15.25476,15.25476 0 0 0 -3.6953,0.379 11.322633,11.322633 0 0 0 -3.0793,1.23176 6.2535042,6.2535042 0 0 0 -2.1319,2.17925 5.874504,5.874504 0 0 0 -0.8054,3.12675 6.7272545,6.7272545 0 0 0 0.7106,3.2215 7.5326301,7.5326301 0 0 0 2.0845,2.36875 18.476262,18.476262 0 0 0 3.3637,1.895 l 4.7375,1.94238 c 1.8002,0.71063 3.5057,1.42125 5.1165,2.17925 a 17.860387,17.860387 0 0 1 4.3111,2.653 13.028134,13.028134 0 0 1 3.032,3.74263 11.749008,11.749008 0 0 1 1.137,5.44813 10.706757,10.706757 0 0 1 -4.7375,9.47501 22.40839,22.40839 0 0 1 -12.7913,3.2215 30.888521,30.888521 0 0 1 -9.2381,-1.04225 29.230395,29.230395 0 0 1 -4.2638,-1.56338 l 1.516,-5.21125 1.137,0.5685 2.4162,0.90012 a 25.819392,25.819392 0 0 0 3.6005,0.80538 24.682392,24.682392 0 0 0 4.6427,0.33162 z"
     id="path39"
     style="stroke-width:4.7375" />
  <path
     class="cls-1"
     d="m 99.872443,183.35076 c -5.069128,1.27913 -11.749008,2.60563 -20.087013,4.02688 a 167.84974,167.84974 0 0 1 -28.89877,2.17925 61.587542,61.587542 0 0 1 -24.019141,-4.169 A 39.179151,39.179151 0 0 1 11.186383,173.5915 47.375032,47.375032 0 0 1 2.6115026,155.63637 92.997188,92.997188 0 0 1 0.00587588,132.70685 V 63.255054 H 22.130016 v 64.666916 q 0,22.59789 7.15363,32.35715 7.153629,9.75926 23.971766,9.75926 c 2.416126,0 4.737503,0 7.390505,0 2.653002,0 4.737503,-0.379 7.15363,-0.61588 l 6.064004,-0.71063 a 17.813012,17.813012 0 0 0 3.932127,-0.80537 V 63.681429 h 22.076765 z"
     id="path41"
     style="stroke-width:4.7375" />
  <path
     class="cls-1"
     d="m 153.87998,167.66962 a 70.351923,70.351923 0 0 0 9.47501,1.75288 111.9472,111.9472 0 0 0 15.11263,0.85275 36.763025,36.763025 0 0 0 28.42502,-11.79638 q 10.65938,-11.74901 10.65938,-33.3994 a 79.021553,79.021553 0 0 0 -1.895,-17.81301 40.553027,40.553027 0 0 0 -6.15875,-14.212511 30.03577,30.03577 0 0 0 -11.08576,-9.475007 35.815524,35.815524 0 0 0 -16.29701,-3.458377 43.300779,43.300779 0 0 0 -16.62864,3.126752 44.81678,44.81678 0 0 0 -11.65426,6.39563 z m 0,-98.966438 a 61.587542,61.587542 0 0 1 12.27013,-5.448128 57.465914,57.465914 0 0 1 18.95002,-2.842502 55.855163,55.855163 0 0 1 23.68751,4.737503 49.127908,49.127908 0 0 1 17.48139,13.312384 58.74504,58.74504 0 0 1 10.84888,20.466014 89.207185,89.207185 0 0 1 3.79,26.151017 79.116303,79.116303 0 0 1 -4.3585,27.00377 56.850038,56.850038 0 0 1 -12.50701,20.32389 54.765537,54.765537 0 0 1 -19.51851,12.83863 68.693796,68.693796 0 0 1 -25.67727,4.7375 156.33761,156.33761 0 0 1 -27.33539,-2.13187 c -7.95901,-1.46863 -14.21251,-2.88988 -19.51851,-4.31113 V 6.1681402 l 22.12413,-3.7900026 z"
     id="path43"
     style="stroke-width:4.7375" />
  <path
     class="cls-1"
     d="m 364.083,183.35076 c -5.06913,1.27913 -11.79639,2.60563 -20.08702,4.02688 a 168.22874,168.22874 0 0 1 -28.89877,2.17925 61.587542,61.587542 0 0 1 -24.01914,-4.169 39.037026,39.037026 0 0 1 -15.72851,-11.79639 47.375032,47.375032 0 0 1 -8.5275,-17.95513 92.902438,92.902438 0 0 1 -2.65301,-22.92952 V 63.255054 h 22.12414 v 64.666916 q 0,22.59789 7.15363,32.35715 7.15363,9.75926 24.01915,9.75926 c 2.36875,0 4.7375,0 7.34313,0 2.60562,0 4.7375,-0.379 7.15363,-0.61588 l 6.064,-0.71063 a 17.244512,17.244512 0 0 0 3.93213,-0.80537 V 63.681429 H 364.083 Z"
     id="path45"
     style="stroke-width:4.7375" />
  <path
     class="cls-1"
     d="m 396.01377,66.808181 c 5.06913,-1.279126 11.79638,-2.605627 20.18176,-4.026878 a 176.14037,176.14037 0 0 1 29.0409,-2.131876 62.298167,62.298167 0 0 1 24.49289,4.169003 37.900026,37.900026 0 0 1 15.58638,11.891133 45.716906,45.716906 0 0 1 8.19588,17.955137 105.26732,105.26732 0 0 1 2.36876,23.07164 v 69.40442 H 473.7562 v -64.90379 a 104.5567,104.5567 0 0 0 -1.56338,-19.51851 32.688772,32.688772 0 0 0 -5.06913,-13.075513 20.750264,20.750264 0 0 0 -9.47501,-7.24838 41.690028,41.690028 0 0 0 -14.73363,-2.274002 c -2.41613,0 -4.7375,0 -7.3905,0 l -7.24838,0.615876 c -2.32138,0 -4.35851,0.521125 -6.20613,0.85275 l -3.93213,0.710626 V 186.52489 h -22.07677 z"
     id="path47"
     style="stroke-width:4.7375" />
  <path
     class="cls-1"
     d="m 546.998,63.255054 h 46.8539 V 81.826066 H 546.998 V 138.6761 a 68.741171,68.741171 0 0 0 1.42125,15.34952 23.687516,23.687516 0 0 0 4.31112,9.475 15.491635,15.491635 0 0 0 7.10626,4.7375 32.025522,32.025522 0 0 0 9.99613,1.42126 46.759157,46.759157 0 0 0 16.20226,-2.27401 c 3.93213,-1.46862 6.63251,-2.55825 8.05376,-3.17412 l 4.7375,18.04988 a 80.537554,80.537554 0 0 1 -11.79638,4.26376 64.240543,64.240543 0 0 1 -18.95002,2.653 57.750164,57.750164 0 0 1 -20.79763,-3.2215 30.177895,30.177895 0 0 1 -13.21764,-9.47501 39.368652,39.368652 0 0 1 -7.0115,-15.82326 105.8832,105.8832 0 0 1 -2.03713,-21.79252 V 28.76603 l 22.12414,-3.790002 z"
     id="path49"
     style="stroke-width:4.7375" />
  <path
     class="cls-1"
     d="m 714.23186,183.35076 c -5.11651,1.27913 -11.79638,2.60563 -20.13439,4.02688 a 167.84974,167.84974 0 0 1 -28.89877,2.17925 61.587542,61.587542 0 0 1 -24.01914,-4.169 39.179151,39.179151 0 0 1 -15.68114,-11.79639 47.375032,47.375032 0 0 1 -8.57488,-17.95513 92.997188,92.997188 0 0 1 -2.60562,-22.92952 V 63.255054 h 22.12414 v 64.666916 q 0,22.59789 7.10625,32.35715 7.10626,9.75926 24.01914,9.75926 c 2.41613,0 4.7375,0 7.39051,0 2.653,0 4.7375,-0.379 7.15363,-0.61588 l 6.064,-0.71063 a 17.813012,17.813012 0 0 0 3.93213,-0.80537 V 63.681429 h 22.12414 z"
     id="path51"
     style="stroke-width:4.7375" />
  <path
     class="cls-2"
     d="M 784.58378,2.3781376 A 49.933284,49.933284 0 1 1 734.6505,52.311421 49.933284,49.933284 0 0 1 784.58378,2.3781376"
     id="path53"
     style="stroke-width:4.7375" />
  <path
     class="cls-3"
     d="m 784.58378,70.598184 a 18.381512,18.381512 0 0 1 -7.72213,-1.658126 l -4.50063,8.10113 a 27.288018,27.288018 0 0 0 12.22276,2.842502 27.903894,27.903894 0 0 0 7.24838,-0.947501 9.0486311,9.0486311 0 0 1 12.17538,-6.964129 27.145893,27.145893 0 0 0 8.10113,-17.813012 h -9.475 A 18.286762,18.286762 0 0 1 784.39428,70.835059 M 766.10752,52.548296 a 18.239387,18.239387 0 0 1 7.7695,-14.97051 l -4.7375,-8.00638 a 27.856519,27.856519 0 0 0 -11.37001,15.918011 8.953881,8.953881 0 0 1 3.36363,7.058879 8.859131,8.859131 0 0 1 -3.36363,7.011505 27.856519,27.856519 0 0 0 11.37001,15.965386 l 4.7375,-8.00638 a 18.286762,18.286762 0 0 1 -7.7695,-14.970511 m 18.47626,-18.476262 a 18.286762,18.286762 0 0 1 18.23939,16.723386 h 9.475 a 27.382768,27.382768 0 0 0 -8.10113,-17.813012 9.0012561,9.0012561 0 0 1 -12.17538,-7.011504 27.903894,27.903894 0 0 0 -7.24838,-0.947501 27.288018,27.288018 0 0 0 -12.22276,2.842502 l 4.50063,8.10113 a 18.428887,18.428887 0 0 1 7.72213,-1.705501 m 21.74514,-6.490379 a 6.4430044,6.4430044 0 1 0 -8.76438,2.368751 6.3956293,6.3956293 0 0 0 8.76438,-2.368751 m -11.32263,55.760412 a 6.4430044,6.4430044 0 1 0 2.36875,-8.764381 6.4430044,6.4430044 0 0 0 -2.36875,8.764381 M 758.66964,52.311421 a 6.4430044,6.4430044 0 0 1 -12.83864,0 6.4430044,6.4430044 0 1 1 12.83864,0"
     id="path55"
     style="stroke-width:4.7375" />
  <path
     class="cls-2"
     d="m 896.62573,96.464951 h 36.19453 v 9.475009 h -36.19453 v 48.46466 a 47.943532,47.943532 0 0 0 1.3265,12.55438 17.623512,17.623512 0 0 0 3.79,7.48525 11.654258,11.654258 0 0 0 5.96926,3.50576 37.1894,37.1894 0 0 0 19.28164,-0.80538 47.375032,47.375032 0 0 0 6.86938,-3.07938 l 2.79512,9.47501 a 45.811656,45.811656 0 0 1 -21.93464,5.59025 39.273902,39.273902 0 0 1 -14.21251,-2.17925 20.323889,20.323889 0 0 1 -9.14338,-6.67988 27.524894,27.524894 0 0 1 -4.7375,-11.13313 76.842302,76.842302 0 0 1 -1.42125,-15.82326 V 69.792808 l 11.41738,-2.084501 z"
     id="path57"
     style="stroke-width:4.7375" />
  <path
     class="cls-2"
     d="m 1027.8072,141.94498 a 59.171415,59.171415 0 0 1 -3.0794,19.51852 44.43778,44.43778 0 0 1 -8.6222,14.92313 40.126652,40.126652 0 0 1 -59.50308,0 43.632404,43.632404 0 0 1 -8.62225,-14.92313 63.245668,63.245668 0 0 1 0,-38.98966 44.106155,44.106155 0 0 1 8.62225,-15.01788 38.563276,38.563276 0 0 1 13.07551,-9.475008 42.637529,42.637529 0 0 1 33.16257,0 38.563276,38.563276 0 0 1 13.0755,9.475008 44.91153,44.91153 0 0 1 8.6222,15.01788 58.887165,58.887165 0 0 1 3.2689,19.47114 z m -12.128,0 a 42.637529,42.637529 0 0 0 -7.9116,-27.09852 27.761769,27.761769 0 0 0 -42.63757,0 42.637529,42.637529 0 0 0 -7.91163,27.09852 42.637529,42.637529 0 0 0 7.91163,27.05115 27.951269,27.951269 0 0 0 42.63757,0 42.637529,42.637529 0 0 0 7.9116,-27.05115 z"
     id="path59"
     style="stroke-width:4.7375" />
  <path
     class="cls-2"
     d="m 1111.7084,184.10876 c -3.411,0.9475 -7.959,1.98975 -13.6914,3.12675 a 105.8832,105.8832 0 0 1 -21.0819,1.80025 43.395529,43.395529 0 0 1 -17.0076,-2.98462 27.714394,27.714394 0 0 1 -11.0858,-8.43276 34.773273,34.773273 0 0 1 -6.064,-13.17026 73.52605,73.52605 0 0 1 -1.8476,-17.05501 V 96.464951 h 11.4174 v 47.375029 a 79.969054,79.969054 0 0 0 1.4212,16.34439 26.956393,26.956393 0 0 0 4.7375,10.80151 17.955137,17.955137 0 0 0 8.1959,5.96925 35.199649,35.199649 0 0 0 12.1754,1.84763 93.565688,93.565688 0 0 0 14.2125,-0.90013 36.147149,36.147149 0 0 0 7.5326,-1.56337 V 96.464951 h 11.4174 z"
     id="path61"
     style="stroke-width:4.7375" />
  <path
     class="cls-2"
     d="m 1168.9374,189.17789 a 48.512033,48.512033 0 0 1 -18.4289,-3.50575 34.915399,34.915399 0 0 1 -13.4071,-9.47501 42.969154,42.969154 0 0 1 -8.1959,-14.92314 63.293043,63.293043 0 0 1 -2.7951,-19.23426 61.587542,61.587542 0 0 1 2.8899,-19.47114 44.485155,44.485155 0 0 1 8.338,-15.11263 36.8104,36.8104 0 0 1 13.1702,-9.664508 42.637529,42.637529 0 0 1 17.3867,-3.411002 74.236675,74.236675 0 0 1 13.7861,1.231751 32.783522,32.783522 0 0 1 9.9014,3.174127 l -3.1741,9.806632 a 36.52615,36.52615 0 0 0 -7.8643,-2.79513 52.112535,52.112535 0 0 0 -11.7964,-1.04225 27.572269,27.572269 0 0 0 -22.9769,9.85401 43.253404,43.253404 0 0 0 -7.8169,27.66702 58.129164,58.129164 0 0 0 1.7529,14.82838 30.604271,30.604271 0 0 0 5.685,11.60688 26.909018,26.909018 0 0 0 10.1857,7.53264 44.43778,44.43778 0 0 0 27.5722,1.04225 50.075409,50.075409 0 0 0 7.2958,-2.88988 l 2.4635,9.85401 a 44.34303,44.34303 0 0 1 -9.9488,3.411 59.69254,59.69254 0 0 1 -14.023,1.516 z"
     id="path63"
     style="stroke-width:4.7375" />
  <path
     class="cls-2"
     d="M 1205.0846,187.23551 V 53.022047 l 11.4173,-2.084502 v 48.180408 a 76.179051,76.179051 0 0 1 11.4174,-3.268877 60.261041,60.261041 0 0 1 11.6069,-1.137001 44.81678,44.81678 0 0 1 17.5288,2.984627 27.382768,27.382768 0 0 1 11.2752,8.527508 33.588898,33.588898 0 0 1 5.8745,13.26501 82.195681,82.195681 0 0 1 1.6582,17.00763 v 50.73866 h -11.4174 v -47.0434 a 83.427431,83.427431 0 0 0 -1.3265,-16.29702 26.956393,26.956393 0 0 0 -4.3585,-10.89625 17.007636,17.007636 0 0 0 -8.1959,-6.06401 37.900026,37.900026 0 0 0 -12.7913,-1.84762 44.62728,44.62728 0 0 0 -6.3956,0.52112 l -6.443,1.137 c -1.9897,0.42638 -3.7426,0.85275 -5.3534,1.3265 a 26.387893,26.387893 0 0 0 -3.0794,1.04225 v 78.12143 z"
     id="path65"
     style="stroke-width:4.7375" />
  <path
     class="cls-1"
     d="m 740.66713,166.72212 h 2.41612 c 1.137,0 2.32138,0 2.32138,1.516 0,1.51601 -1.3265,1.70551 -2.79513,1.70551 H 740.904 Z M 739.009,165.443 v 10.13825 h 1.65813 v -4.3585 H 742.42 l 2.88988,4.3585 h 1.75288 l -3.03201,-4.7375 c 1.56338,0 2.79513,-0.90012 2.79513,-2.74775 0,-1.84763 -1.18438,-2.88988 -3.69525,-2.88988 z m -3.93213,5.02175 a 7.4852551,7.4852551 0 1 1 7.48526,7.48526 7.2957549,7.2957549 0 0 1 -7.48526,-7.48526 m -1.65812,0 a 9.1433812,9.1433812 0 1 0 9.14338,-8.66963 8.906506,8.906506 0 0 0 -8.95388,8.48013"
     id="path67"
     style="stroke-width:4.7375" />
  <g
     class="cls-4"
     clip-path="url(#clip-path)"
     id="g71"
     transform="matrix(4.7375032,0,0,4.7375032,-223.3674,-297.55319)">
    <rect
       class="cls-1"
       x="199.55"
       y="94.300003"
       width="8.6700001"
       height="8.9200001"
       id="rect69" />
  </g>
</svg>
