<?xml version="1.0" encoding="UTF-8" standalone="no"?>
<svg
   id="Layer_1"
   data-name="Layer 1"
   viewBox="0 0 780 780"
   version="1.1"
   sodipodi:docname="icon.svg"
   width="780"
   height="780"
   inkscape:version="1.2.2 (732a01da63, 2022-12-09, custom)"
   xmlns:inkscape="http://www.inkscape.org/namespaces/inkscape"
   xmlns:sodipodi="http://sodipodi.sourceforge.net/DTD/sodipodi-0.dtd"
   xmlns="http://www.w3.org/2000/svg"
   xmlns:svg="http://www.w3.org/2000/svg">
  <sodipodi:namedview
     id="namedview19"
     pagecolor="#ffffff"
     bordercolor="#666666"
     borderopacity="1.0"
     inkscape:pageshadow="2"
     inkscape:pageopacity="0.0"
     inkscape:pagecheckerboard="0"
     showgrid="false"
     inkscape:zoom="0.84826115"
     inkscape:cx="443.84916"
     inkscape:cy="436.18643"
     inkscape:window-width="1850"
     inkscape:window-height="1011"
     inkscape:window-x="0"
     inkscape:window-y="0"
     inkscape:window-maximized="1"
     inkscape:current-layer="Layer_1"
     inkscape:showpageshadow="2"
     inkscape:deskcolor="#d1d1d1" />
  <defs
     id="defs4">
    <style
       id="style2">.cls-1{fill:#e9500e;}</style>
  </defs>
  <rect
     style="fill:#e9500e;fill-opacity:1;stroke:none;stroke-width:0;stroke-dasharray:none;stop-color:#000000"
     id="rect353"
     width="780"
     height="780"
     x="0"
     y="0" />
  <g
     id="g299"
     style="fill:#ffffff;fill-opacity:1"
     transform="matrix(0.74358977,0,0,0.74358977,99.999987,99.999993)">
    <circle
       class="cls-1"
       cx="110.81624"
       cy="368.59134"
       r="110.81622"
       id="circle6"
       style="fill:#ffffff;fill-opacity:1;stroke-width:1.01641" />
    <circle
       class="cls-1"
       cx="572.32458"
       cy="125.60082"
       r="110.81624"
       id="circle8"
       style="fill:#ffffff;fill-opacity:1;stroke-width:1.01641" />
    <path
       class="cls-1"
       d="m 360.74508,653.78789 a 269.88263,269.88263 0 0 1 -184.0428,-140.36456 159.52354,159.52354 0 0 1 -94.748944,11.64635 360.76015,360.76015 0 0 0 259.730904,217.67919 365.1028,365.1028 0 0 0 78.69004,8.09775 158.56333,158.56333 0 0 1 -32.44625,-92.65055 c -9.12714,-1.01388 -18.2432,-2.49509 -27.18295,-4.40818 z"
       id="path10"
       style="fill:#ffffff;fill-opacity:1;stroke-width:1.01641" />
    <circle
       class="cls-1"
       cx="547.35822"
       cy="654.39917"
       r="110.81624"
       id="circle12"
       style="fill:#ffffff;fill-opacity:1;stroke-width:1.01641" />
    <path
       class="cls-1"
       d="m 701.56408,613.69575 a 362.55444,362.55444 0 0 0 18.16818,-425.3874 159.72334,159.72334 0 0 1 -62.31592,72.98148 271.6796,271.6796 0 0 1 -8.88026,269.84538 158.91261,158.91261 0 0 1 53.028,82.56054 z"
       id="path14"
       style="fill:#ffffff;fill-opacity:1;stroke-width:1.01641" />
    <path
       class="cls-1"
       d="m 102.26612,209.67033 q 4.21862,-0.23153 8.44163,-0.22923 A 159.9285,159.9285 0 0 1 194.74706,233.37298 270.27038,270.27038 0 0 1 412.36905,116.9844 160.68211,160.68211 0 0 1 445.98787,27.1131 C 306.63496,16.077243 171.22735,87.987552 102.26612,209.67033 Z"
       id="path16"
       style="fill:#ffffff;fill-opacity:1;stroke-width:1.01641" />
  </g>
</svg>
