<?xml version="1.0" encoding="UTF-8" standalone="no"?>
<!-- Generator: Adobe Illustrator 24.0.3, SVG Export Plug-In . SVG Version: 6.00 Build 0)  -->

<svg
   id="Layer_1"
   style="enable-background:new 0 0 391.7 253.5"
   xml:space="preserve"
   viewBox="0 0 391.7 253.5"
   version="1.1"
   y="0px"
   x="0px"
   sodipodi:docname="download-rpi.svg"
   inkscape:version="1.2.2 (732a01da63, 2022-12-09, custom)"
   xmlns:inkscape="http://www.inkscape.org/namespaces/inkscape"
   xmlns:sodipodi="http://sodipodi.sourceforge.net/DTD/sodipodi-0.dtd"
   xmlns="http://www.w3.org/2000/svg"
   xmlns:svg="http://www.w3.org/2000/svg"><defs
   id="defs1822"><style
     id="style2-6">.cls-1{fill:#e9500e;}</style></defs><sodipodi:namedview
   id="namedview1820"
   pagecolor="#ffffff"
   bordercolor="#666666"
   borderopacity="1.0"
   inkscape:showpageshadow="2"
   inkscape:pageopacity="0.0"
   inkscape:pagecheckerboard="0"
   inkscape:deskcolor="#d1d1d1"
   showgrid="false"
   inkscape:zoom="2.0523742"
   inkscape:cx="155.91699"
   inkscape:cy="115.47602"
   inkscape:window-width="1850"
   inkscape:window-height="1011"
   inkscape:window-x="0"
   inkscape:window-y="0"
   inkscape:window-maximized="1"
   inkscape:current-layer="Layer_1" />
<style
   type="text/css"
   id="style2">
	.st0{display:none;}
	.st1{display:inline;}
	.st2{opacity:0.2;}
	.st3{fill:none;stroke:#32C5F4;stroke-width:0.5;stroke-miterlimit:10;}
	.st4{opacity:0.2;fill:none;stroke:#32C5F4;stroke-width:0.5;stroke-miterlimit:10;enable-background:new    ;}
	.st5{fill:none;stroke:#32C5F4;stroke-width:0.25;stroke-miterlimit:10;}
	.st6{fill:#666666;}
	.st7{fill:#999999;}
	.st8{fill:#E95420;}
	.st9{fill:#FFFFFF;}
</style>
<g
   id="Layer_2_1_"
   class="st0">
	<g
   class="st1"
   id="g430">
		<g
   class="st2"
   id="g48">
			<line
   y1="503.6"
   x2="663.8"
   x1="463.8"
   y2="503.6"
   class="st3"
   id="line4" />
			<line
   y1="487"
   x2="663.8"
   x1="463.8"
   y2="487"
   class="st3"
   id="line6" />
			<line
   y1="470.3"
   x2="663.8"
   x1="463.8"
   y2="470.3"
   class="st3"
   id="line8" />
			<line
   y1="453.6"
   x2="663.8"
   x1="463.8"
   y2="453.6"
   class="st3"
   id="line10" />
			<line
   y1="437"
   x2="663.8"
   x1="463.8"
   y2="437"
   class="st3"
   id="line12" />
			<line
   y1="420.3"
   x2="663.8"
   x1="463.8"
   y2="420.3"
   class="st3"
   id="line14" />
			<line
   y1="403.6"
   x2="663.8"
   x1="463.8"
   y2="403.6"
   class="st3"
   id="line16" />
			<line
   y1="387"
   x2="663.8"
   x1="463.8"
   y2="387"
   class="st3"
   id="line18" />
			<line
   y1="370.3"
   x2="663.8"
   x1="463.8"
   y2="370.3"
   class="st3"
   id="line20" />
			<line
   y1="353.6"
   x2="663.8"
   x1="463.8"
   y2="353.6"
   class="st3"
   id="line22" />
			<line
   y1="337"
   x2="663.8"
   x1="463.8"
   y2="337"
   class="st3"
   id="line24" />
			<line
   y1="320.3"
   x2="647.1"
   x1="647.1"
   y2="520.3"
   class="st3"
   id="line26" />
			<line
   y1="320.3"
   x2="630.4"
   x1="630.4"
   y2="520.3"
   class="st3"
   id="line28" />
			<line
   y1="320.3"
   x2="613.8"
   x1="613.8"
   y2="520.3"
   class="st3"
   id="line30" />
			<line
   y1="320.3"
   x2="597.1"
   x1="597.1"
   y2="520.3"
   class="st3"
   id="line32" />
			<line
   y1="320.3"
   x2="580.4"
   x1="580.4"
   y2="520.3"
   class="st3"
   id="line34" />
			<line
   y1="320.3"
   x2="563.8"
   x1="563.8"
   y2="520.3"
   class="st3"
   id="line36" />
			<line
   y1="320.3"
   x2="547.1"
   x1="547.1"
   y2="520.3"
   class="st3"
   id="line38" />
			<line
   y1="320.3"
   x2="530.4"
   x1="530.4"
   y2="520.3"
   class="st3"
   id="line40" />
			<line
   y1="320.3"
   x2="513.8"
   x1="513.8"
   y2="520.3"
   class="st3"
   id="line42" />
			<line
   y1="320.3"
   x2="497.1"
   x1="497.1"
   y2="520.3"
   class="st3"
   id="line44" />
			<line
   y1="320.3"
   x2="480.4"
   x1="480.4"
   y2="520.3"
   class="st3"
   id="line46" />
		</g>
		<g
   class="st2"
   id="g86">
			<line
   y1="503.6"
   x2="797.1"
   x1="663.8"
   y2="503.6"
   class="st3"
   id="line50" />
			<line
   y1="487"
   x2="797.1"
   x1="663.8"
   y2="487"
   class="st3"
   id="line52" />
			<line
   y1="470.3"
   x2="797.1"
   x1="663.8"
   y2="470.3"
   class="st3"
   id="line54" />
			<line
   y1="453.6"
   x2="797.1"
   x1="663.8"
   y2="453.6"
   class="st3"
   id="line56" />
			<line
   y1="437"
   x2="797.1"
   x1="663.8"
   y2="437"
   class="st3"
   id="line58" />
			<line
   y1="420.3"
   x2="797.1"
   x1="663.8"
   y2="420.3"
   class="st3"
   id="line60" />
			<line
   y1="403.6"
   x2="797.1"
   x1="663.8"
   y2="403.6"
   class="st3"
   id="line62" />
			<line
   y1="387"
   x2="797.1"
   x1="663.8"
   y2="387"
   class="st3"
   id="line64" />
			<line
   y1="370.3"
   x2="797.1"
   x1="663.8"
   y2="370.3"
   class="st3"
   id="line66" />
			<line
   y1="353.6"
   x2="797.1"
   x1="663.8"
   y2="353.6"
   class="st3"
   id="line68" />
			<line
   y1="337"
   x2="797.1"
   x1="663.8"
   y2="337"
   class="st3"
   id="line70" />
			<line
   y1="320.3"
   x2="780.4"
   x1="780.4"
   y2="520.3"
   class="st3"
   id="line72" />
			<line
   y1="320.3"
   x2="763.8"
   x1="763.8"
   y2="520.3"
   class="st3"
   id="line74" />
			<line
   y1="320.3"
   x2="747.1"
   x1="747.1"
   y2="520.3"
   class="st3"
   id="line76" />
			<line
   y1="320.3"
   x2="730.4"
   x1="730.4"
   y2="520.3"
   class="st3"
   id="line78" />
			<line
   y1="320.3"
   x2="713.8"
   x1="713.8"
   y2="520.3"
   class="st3"
   id="line80" />
			<line
   y1="320.3"
   x2="697.1"
   x1="697.1"
   y2="520.3"
   class="st3"
   id="line82" />
			<line
   y1="320.3"
   x2="680.4"
   x1="680.4"
   y2="520.3"
   class="st3"
   id="line84" />
		</g>
		<line
   y1="320.3"
   x2="663.8"
   x1="663.8"
   y2="520.3"
   class="st4"
   id="line88" />
		<g
   class="st2"
   id="g134">
			<line
   y1="412"
   x2="563.8"
   x1="463.8"
   y2="412"
   class="st5"
   id="line90" />
			<line
   y1="403.6"
   x2="563.8"
   x1="463.8"
   y2="403.6"
   class="st5"
   id="line92" />
			<line
   y1="395.3"
   x2="563.8"
   x1="463.8"
   y2="395.3"
   class="st5"
   id="line94" />
			<line
   y1="387"
   x2="563.8"
   x1="463.8"
   y2="387"
   class="st5"
   id="line96" />
			<line
   y1="378.6"
   x2="563.8"
   x1="463.8"
   y2="378.6"
   class="st5"
   id="line98" />
			<line
   y1="370.3"
   x2="563.8"
   x1="463.8"
   y2="370.3"
   class="st5"
   id="line100" />
			<line
   y1="362"
   x2="563.8"
   x1="463.8"
   y2="362"
   class="st5"
   id="line102" />
			<line
   y1="353.6"
   x2="563.8"
   x1="463.8"
   y2="353.6"
   class="st5"
   id="line104" />
			<line
   y1="345.3"
   x2="563.8"
   x1="463.8"
   y2="345.3"
   class="st5"
   id="line106" />
			<line
   y1="337"
   x2="563.8"
   x1="463.8"
   y2="337"
   class="st5"
   id="line108" />
			<line
   y1="328.6"
   x2="563.8"
   x1="463.8"
   y2="328.6"
   class="st5"
   id="line110" />
			<line
   y1="320.3"
   x2="555.4"
   x1="555.4"
   y2="420.3"
   class="st5"
   id="line112" />
			<line
   y1="320.3"
   x2="547.1"
   x1="547.1"
   y2="420.3"
   class="st5"
   id="line114" />
			<line
   y1="320.3"
   x2="538.8"
   x1="538.8"
   y2="420.3"
   class="st5"
   id="line116" />
			<line
   y1="320.3"
   x2="530.4"
   x1="530.4"
   y2="420.3"
   class="st5"
   id="line118" />
			<line
   y1="320.3"
   x2="522.1"
   x1="522.1"
   y2="420.3"
   class="st5"
   id="line120" />
			<line
   y1="320.3"
   x2="513.8"
   x1="513.8"
   y2="420.3"
   class="st5"
   id="line122" />
			<line
   y1="320.3"
   x2="505.4"
   x1="505.4"
   y2="420.3"
   class="st5"
   id="line124" />
			<line
   y1="320.3"
   x2="497.1"
   x1="497.1"
   y2="420.3"
   class="st5"
   id="line126" />
			<line
   y1="320.3"
   x2="488.8"
   x1="488.8"
   y2="420.3"
   class="st5"
   id="line128" />
			<line
   y1="320.3"
   x2="480.4"
   x1="480.4"
   y2="420.3"
   class="st5"
   id="line130" />
			<line
   y1="320.3"
   x2="472.1"
   x1="472.1"
   y2="420.3"
   class="st5"
   id="line132" />
		</g>
		<g
   class="st2"
   id="g180">
			<line
   y1="512"
   x2="563.8"
   x1="463.8"
   y2="512"
   class="st5"
   id="line136" />
			<line
   y1="503.6"
   x2="563.8"
   x1="463.8"
   y2="503.6"
   class="st5"
   id="line138" />
			<line
   y1="495.3"
   x2="563.8"
   x1="463.8"
   y2="495.3"
   class="st5"
   id="line140" />
			<line
   y1="487"
   x2="563.8"
   x1="463.8"
   y2="487"
   class="st5"
   id="line142" />
			<line
   y1="478.6"
   x2="563.8"
   x1="463.8"
   y2="478.6"
   class="st5"
   id="line144" />
			<line
   y1="470.3"
   x2="563.8"
   x1="463.8"
   y2="470.3"
   class="st5"
   id="line146" />
			<line
   y1="462"
   x2="563.8"
   x1="463.8"
   y2="462"
   class="st5"
   id="line148" />
			<line
   y1="453.6"
   x2="563.8"
   x1="463.8"
   y2="453.6"
   class="st5"
   id="line150" />
			<line
   y1="445.3"
   x2="563.8"
   x1="463.8"
   y2="445.3"
   class="st5"
   id="line152" />
			<line
   y1="437"
   x2="563.8"
   x1="463.8"
   y2="437"
   class="st5"
   id="line154" />
			<line
   y1="428.6"
   x2="563.8"
   x1="463.8"
   y2="428.6"
   class="st5"
   id="line156" />
			<line
   y1="420.3"
   x2="555.4"
   x1="555.4"
   y2="520.3"
   class="st5"
   id="line158" />
			<line
   y1="420.3"
   x2="547.1"
   x1="547.1"
   y2="520.3"
   class="st5"
   id="line160" />
			<line
   y1="420.3"
   x2="538.8"
   x1="538.8"
   y2="520.3"
   class="st5"
   id="line162" />
			<line
   y1="420.3"
   x2="530.4"
   x1="530.4"
   y2="520.3"
   class="st5"
   id="line164" />
			<line
   y1="420.3"
   x2="522.1"
   x1="522.1"
   y2="520.3"
   class="st5"
   id="line166" />
			<line
   y1="420.3"
   x2="513.8"
   x1="513.8"
   y2="520.3"
   class="st5"
   id="line168" />
			<line
   y1="420.3"
   x2="505.4"
   x1="505.4"
   y2="520.3"
   class="st5"
   id="line170" />
			<line
   y1="420.3"
   x2="497.1"
   x1="497.1"
   y2="520.3"
   class="st5"
   id="line172" />
			<line
   y1="420.3"
   x2="488.8"
   x1="488.8"
   y2="520.3"
   class="st5"
   id="line174" />
			<line
   y1="420.3"
   x2="480.4"
   x1="480.4"
   y2="520.3"
   class="st5"
   id="line176" />
			<line
   y1="420.3"
   x2="472.1"
   x1="472.1"
   y2="520.3"
   class="st5"
   id="line178" />
		</g>
		<g
   class="st2"
   id="g226">
			<line
   y1="412"
   x2="663.8"
   x1="563.8"
   y2="412"
   class="st5"
   id="line182" />
			<line
   y1="403.6"
   x2="663.8"
   x1="563.8"
   y2="403.6"
   class="st5"
   id="line184" />
			<line
   y1="395.3"
   x2="663.8"
   x1="563.8"
   y2="395.3"
   class="st5"
   id="line186" />
			<line
   y1="387"
   x2="663.8"
   x1="563.8"
   y2="387"
   class="st5"
   id="line188" />
			<line
   y1="378.6"
   x2="663.8"
   x1="563.8"
   y2="378.6"
   class="st5"
   id="line190" />
			<line
   y1="370.3"
   x2="663.8"
   x1="563.8"
   y2="370.3"
   class="st5"
   id="line192" />
			<line
   y1="362"
   x2="663.8"
   x1="563.8"
   y2="362"
   class="st5"
   id="line194" />
			<line
   y1="353.6"
   x2="663.8"
   x1="563.8"
   y2="353.6"
   class="st5"
   id="line196" />
			<line
   y1="345.3"
   x2="663.8"
   x1="563.8"
   y2="345.3"
   class="st5"
   id="line198" />
			<line
   y1="337"
   x2="663.8"
   x1="563.8"
   y2="337"
   class="st5"
   id="line200" />
			<line
   y1="328.6"
   x2="663.8"
   x1="563.8"
   y2="328.6"
   class="st5"
   id="line202" />
			<line
   y1="320.3"
   x2="655.4"
   x1="655.4"
   y2="420.3"
   class="st5"
   id="line204" />
			<line
   y1="320.3"
   x2="647.1"
   x1="647.1"
   y2="420.3"
   class="st5"
   id="line206" />
			<line
   y1="320.3"
   x2="638.8"
   x1="638.8"
   y2="420.3"
   class="st5"
   id="line208" />
			<line
   y1="320.3"
   x2="630.4"
   x1="630.4"
   y2="420.3"
   class="st5"
   id="line210" />
			<line
   y1="320.3"
   x2="622.1"
   x1="622.1"
   y2="420.3"
   class="st5"
   id="line212" />
			<line
   y1="320.3"
   x2="613.8"
   x1="613.8"
   y2="420.3"
   class="st5"
   id="line214" />
			<line
   y1="320.3"
   x2="605.4"
   x1="605.4"
   y2="420.3"
   class="st5"
   id="line216" />
			<line
   y1="320.3"
   x2="597.1"
   x1="597.1"
   y2="420.3"
   class="st5"
   id="line218" />
			<line
   y1="320.3"
   x2="588.8"
   x1="588.8"
   y2="420.3"
   class="st5"
   id="line220" />
			<line
   y1="320.3"
   x2="580.4"
   x1="580.4"
   y2="420.3"
   class="st5"
   id="line222" />
			<line
   y1="320.3"
   x2="572.1"
   x1="572.1"
   y2="420.3"
   class="st5"
   id="line224" />
		</g>
		<g
   class="st2"
   id="g272">
			<line
   y1="512"
   x2="663.8"
   x1="563.8"
   y2="512"
   class="st5"
   id="line228" />
			<line
   y1="503.6"
   x2="663.8"
   x1="563.8"
   y2="503.6"
   class="st5"
   id="line230" />
			<line
   y1="495.3"
   x2="663.8"
   x1="563.8"
   y2="495.3"
   class="st5"
   id="line232" />
			<line
   y1="487"
   x2="663.8"
   x1="563.8"
   y2="487"
   class="st5"
   id="line234" />
			<line
   y1="478.6"
   x2="663.8"
   x1="563.8"
   y2="478.6"
   class="st5"
   id="line236" />
			<line
   y1="470.3"
   x2="663.8"
   x1="563.8"
   y2="470.3"
   class="st5"
   id="line238" />
			<line
   y1="462"
   x2="663.8"
   x1="563.8"
   y2="462"
   class="st5"
   id="line240" />
			<line
   y1="453.6"
   x2="663.8"
   x1="563.8"
   y2="453.6"
   class="st5"
   id="line242" />
			<line
   y1="445.3"
   x2="663.8"
   x1="563.8"
   y2="445.3"
   class="st5"
   id="line244" />
			<line
   y1="437"
   x2="663.8"
   x1="563.8"
   y2="437"
   class="st5"
   id="line246" />
			<line
   y1="428.6"
   x2="663.8"
   x1="563.8"
   y2="428.6"
   class="st5"
   id="line248" />
			<line
   y1="420.3"
   x2="655.4"
   x1="655.4"
   y2="520.3"
   class="st5"
   id="line250" />
			<line
   y1="420.3"
   x2="647.1"
   x1="647.1"
   y2="520.3"
   class="st5"
   id="line252" />
			<line
   y1="420.3"
   x2="638.8"
   x1="638.8"
   y2="520.3"
   class="st5"
   id="line254" />
			<line
   y1="420.3"
   x2="630.4"
   x1="630.4"
   y2="520.3"
   class="st5"
   id="line256" />
			<line
   y1="420.3"
   x2="622.1"
   x1="622.1"
   y2="520.3"
   class="st5"
   id="line258" />
			<line
   y1="420.3"
   x2="613.8"
   x1="613.8"
   y2="520.3"
   class="st5"
   id="line260" />
			<line
   y1="420.3"
   x2="605.4"
   x1="605.4"
   y2="520.3"
   class="st5"
   id="line262" />
			<line
   y1="420.3"
   x2="597.1"
   x1="597.1"
   y2="520.3"
   class="st5"
   id="line264" />
			<line
   y1="420.3"
   x2="588.8"
   x1="588.8"
   y2="520.3"
   class="st5"
   id="line266" />
			<line
   y1="420.3"
   x2="580.4"
   x1="580.4"
   y2="520.3"
   class="st5"
   id="line268" />
			<line
   y1="420.3"
   x2="572.1"
   x1="572.1"
   y2="520.3"
   class="st5"
   id="line270" />
		</g>
		<g
   class="st2"
   id="g318">
			<line
   y1="412"
   x2="763.8"
   x1="663.8"
   y2="412"
   class="st5"
   id="line274" />
			<line
   y1="403.6"
   x2="763.8"
   x1="663.8"
   y2="403.6"
   class="st5"
   id="line276" />
			<line
   y1="395.3"
   x2="763.8"
   x1="663.8"
   y2="395.3"
   class="st5"
   id="line278" />
			<line
   y1="387"
   x2="763.8"
   x1="663.8"
   y2="387"
   class="st5"
   id="line280" />
			<line
   y1="378.6"
   x2="763.8"
   x1="663.8"
   y2="378.6"
   class="st5"
   id="line282" />
			<line
   y1="370.3"
   x2="763.8"
   x1="663.8"
   y2="370.3"
   class="st5"
   id="line284" />
			<line
   y1="362"
   x2="763.8"
   x1="663.8"
   y2="362"
   class="st5"
   id="line286" />
			<line
   y1="353.6"
   x2="763.8"
   x1="663.8"
   y2="353.6"
   class="st5"
   id="line288" />
			<line
   y1="345.3"
   x2="763.8"
   x1="663.8"
   y2="345.3"
   class="st5"
   id="line290" />
			<line
   y1="337"
   x2="763.8"
   x1="663.8"
   y2="337"
   class="st5"
   id="line292" />
			<line
   y1="328.6"
   x2="763.8"
   x1="663.8"
   y2="328.6"
   class="st5"
   id="line294" />
			<line
   y1="320.3"
   x2="755.4"
   x1="755.4"
   y2="420.3"
   class="st5"
   id="line296" />
			<line
   y1="320.3"
   x2="747.1"
   x1="747.1"
   y2="420.3"
   class="st5"
   id="line298" />
			<line
   y1="320.3"
   x2="738.8"
   x1="738.8"
   y2="420.3"
   class="st5"
   id="line300" />
			<line
   y1="320.3"
   x2="730.4"
   x1="730.4"
   y2="420.3"
   class="st5"
   id="line302" />
			<line
   y1="320.3"
   x2="722.1"
   x1="722.1"
   y2="420.3"
   class="st5"
   id="line304" />
			<line
   y1="320.3"
   x2="713.8"
   x1="713.8"
   y2="420.3"
   class="st5"
   id="line306" />
			<line
   y1="320.3"
   x2="705.4"
   x1="705.4"
   y2="420.3"
   class="st5"
   id="line308" />
			<line
   y1="320.3"
   x2="697.1"
   x1="697.1"
   y2="420.3"
   class="st5"
   id="line310" />
			<line
   y1="320.3"
   x2="688.8"
   x1="688.8"
   y2="420.3"
   class="st5"
   id="line312" />
			<line
   y1="320.3"
   x2="680.4"
   x1="680.4"
   y2="420.3"
   class="st5"
   id="line314" />
			<line
   y1="320.3"
   x2="672.1"
   x1="672.1"
   y2="420.3"
   class="st5"
   id="line316" />
		</g>
		<g
   class="st2"
   id="g364">
			<line
   y1="512"
   x2="763.8"
   x1="663.8"
   y2="512"
   class="st5"
   id="line320" />
			<line
   y1="503.6"
   x2="763.8"
   x1="663.8"
   y2="503.6"
   class="st5"
   id="line322" />
			<line
   y1="495.3"
   x2="763.8"
   x1="663.8"
   y2="495.3"
   class="st5"
   id="line324" />
			<line
   y1="487"
   x2="763.8"
   x1="663.8"
   y2="487"
   class="st5"
   id="line326" />
			<line
   y1="478.6"
   x2="763.8"
   x1="663.8"
   y2="478.6"
   class="st5"
   id="line328" />
			<line
   y1="470.3"
   x2="763.8"
   x1="663.8"
   y2="470.3"
   class="st5"
   id="line330" />
			<line
   y1="462"
   x2="763.8"
   x1="663.8"
   y2="462"
   class="st5"
   id="line332" />
			<line
   y1="453.6"
   x2="763.8"
   x1="663.8"
   y2="453.6"
   class="st5"
   id="line334" />
			<line
   y1="445.3"
   x2="763.8"
   x1="663.8"
   y2="445.3"
   class="st5"
   id="line336" />
			<line
   y1="437"
   x2="763.8"
   x1="663.8"
   y2="437"
   class="st5"
   id="line338" />
			<line
   y1="428.6"
   x2="763.8"
   x1="663.8"
   y2="428.6"
   class="st5"
   id="line340" />
			<line
   y1="420.3"
   x2="755.4"
   x1="755.4"
   y2="520.3"
   class="st5"
   id="line342" />
			<line
   y1="420.3"
   x2="747.1"
   x1="747.1"
   y2="520.3"
   class="st5"
   id="line344" />
			<line
   y1="420.3"
   x2="738.8"
   x1="738.8"
   y2="520.3"
   class="st5"
   id="line346" />
			<line
   y1="420.3"
   x2="730.4"
   x1="730.4"
   y2="520.3"
   class="st5"
   id="line348" />
			<line
   y1="420.3"
   x2="722.1"
   x1="722.1"
   y2="520.3"
   class="st5"
   id="line350" />
			<line
   y1="420.3"
   x2="713.8"
   x1="713.8"
   y2="520.3"
   class="st5"
   id="line352" />
			<line
   y1="420.3"
   x2="705.4"
   x1="705.4"
   y2="520.3"
   class="st5"
   id="line354" />
			<line
   y1="420.3"
   x2="697.1"
   x1="697.1"
   y2="520.3"
   class="st5"
   id="line356" />
			<line
   y1="420.3"
   x2="688.8"
   x1="688.8"
   y2="520.3"
   class="st5"
   id="line358" />
			<line
   y1="420.3"
   x2="680.4"
   x1="680.4"
   y2="520.3"
   class="st5"
   id="line360" />
			<line
   y1="420.3"
   x2="672.1"
   x1="672.1"
   y2="520.3"
   class="st5"
   id="line362" />
		</g>
		<g
   class="st2"
   id="g426">
				<line
   y1="412"
   x2="797.1"
   x1="763.8"
   y2="412"
   class="st5"
   id="line366" />
				<line
   y1="403.6"
   x2="797.1"
   x1="763.8"
   y2="403.6"
   class="st5"
   id="line368" />
				<line
   y1="395.3"
   x2="797.1"
   x1="763.8"
   y2="395.3"
   class="st5"
   id="line370" />
				<line
   y1="387"
   x2="797.1"
   x1="763.8"
   y2="387"
   class="st5"
   id="line372" />
				<line
   y1="378.6"
   x2="797.1"
   x1="763.8"
   y2="378.6"
   class="st5"
   id="line374" />
				<line
   y1="370.3"
   x2="797.1"
   x1="763.8"
   y2="370.3"
   class="st5"
   id="line376" />
				<line
   y1="362"
   x2="797.1"
   x1="763.8"
   y2="362"
   class="st5"
   id="line378" />
				<line
   y1="353.6"
   x2="797.1"
   x1="763.8"
   y2="353.6"
   class="st5"
   id="line380" />
				<line
   y1="345.3"
   x2="797.1"
   x1="763.8"
   y2="345.3"
   class="st5"
   id="line382" />
				<line
   y1="337"
   x2="797.1"
   x1="763.8"
   y2="337"
   class="st5"
   id="line384" />
				<line
   y1="328.6"
   x2="797.1"
   x1="763.8"
   y2="328.6"
   class="st5"
   id="line386" />
				<line
   y1="320.3"
   x2="797.1"
   x1="797.1"
   y2="420.3"
   class="st5"
   id="line388" />
				<line
   y1="320.3"
   x2="788.8"
   x1="788.8"
   y2="420.3"
   class="st5"
   id="line390" />
				<line
   y1="320.3"
   x2="780.4"
   x1="780.4"
   y2="420.3"
   class="st5"
   id="line392" />
				<line
   y1="320.3"
   x2="772.1"
   x1="772.1"
   y2="420.3"
   class="st5"
   id="line394" />
				<line
   y1="512"
   x2="797.1"
   x1="763.8"
   y2="512"
   class="st5"
   id="line396" />
				<line
   y1="503.6"
   x2="797.1"
   x1="763.8"
   y2="503.6"
   class="st5"
   id="line398" />
				<line
   y1="495.3"
   x2="797.1"
   x1="763.8"
   y2="495.3"
   class="st5"
   id="line400" />
				<line
   y1="487"
   x2="797.1"
   x1="763.8"
   y2="487"
   class="st5"
   id="line402" />
				<line
   y1="478.6"
   x2="797.1"
   x1="763.8"
   y2="478.6"
   class="st5"
   id="line404" />
				<line
   y1="470.3"
   x2="797.1"
   x1="763.8"
   y2="470.3"
   class="st5"
   id="line406" />
				<line
   y1="462"
   x2="797.1"
   x1="763.8"
   y2="462"
   class="st5"
   id="line408" />
				<line
   y1="453.6"
   x2="797.1"
   x1="763.8"
   y2="453.6"
   class="st5"
   id="line410" />
				<line
   y1="445.3"
   x2="797.1"
   x1="763.8"
   y2="445.3"
   class="st5"
   id="line412" />
				<line
   y1="437"
   x2="797.1"
   x1="763.8"
   y2="437"
   class="st5"
   id="line414" />
				<line
   y1="428.6"
   x2="797.1"
   x1="763.8"
   y2="428.6"
   class="st5"
   id="line416" />
				<line
   y1="420.3"
   x2="797.1"
   x1="797.1"
   y2="520.3"
   class="st5"
   id="line418" />
				<line
   y1="420.3"
   x2="788.8"
   x1="788.8"
   y2="520.3"
   class="st5"
   id="line420" />
				<line
   y1="420.3"
   x2="780.4"
   x1="780.4"
   y2="520.3"
   class="st5"
   id="line422" />
				<line
   y1="420.3"
   x2="772.1"
   x1="772.1"
   y2="520.3"
   class="st5"
   id="line424" />
		</g>
		<rect
   y="320.3"
   x="463.8"
   height="200"
   class="st5"
   width="333.3"
   id="rect428" />
	</g>
	<g
   class="st1"
   id="g858">
		<g
   class="st2"
   id="g476">
			<line
   y1="503.6"
   x2="229.2"
   x1="29.2"
   y2="503.6"
   class="st3"
   id="line432" />
			<line
   y1="487"
   x2="229.2"
   x1="29.2"
   y2="487"
   class="st3"
   id="line434" />
			<line
   y1="470.3"
   x2="229.2"
   x1="29.2"
   y2="470.3"
   class="st3"
   id="line436" />
			<line
   y1="453.6"
   x2="229.2"
   x1="29.2"
   y2="453.6"
   class="st3"
   id="line438" />
			<line
   y1="437"
   x2="229.2"
   x1="29.2"
   y2="437"
   class="st3"
   id="line440" />
			<line
   y1="420.3"
   x2="229.2"
   x1="29.2"
   y2="420.3"
   class="st3"
   id="line442" />
			<line
   y1="403.6"
   x2="229.2"
   x1="29.2"
   y2="403.6"
   class="st3"
   id="line444" />
			<line
   y1="387"
   x2="229.2"
   x1="29.2"
   y2="387"
   class="st3"
   id="line446" />
			<line
   y1="370.3"
   x2="229.2"
   x1="29.2"
   y2="370.3"
   class="st3"
   id="line448" />
			<line
   y1="353.6"
   x2="229.2"
   x1="29.2"
   y2="353.6"
   class="st3"
   id="line450" />
			<line
   y1="337"
   x2="229.2"
   x1="29.2"
   y2="337"
   class="st3"
   id="line452" />
			<line
   y1="320.3"
   x2="212.5"
   x1="212.5"
   y2="520.3"
   class="st3"
   id="line454" />
			<line
   y1="320.3"
   x2="195.8"
   x1="195.8"
   y2="520.3"
   class="st3"
   id="line456" />
			<line
   y1="320.3"
   x2="179.2"
   x1="179.2"
   y2="520.3"
   class="st3"
   id="line458" />
			<line
   y1="320.3"
   x2="162.5"
   x1="162.5"
   y2="520.3"
   class="st3"
   id="line460" />
			<line
   y1="320.3"
   x2="145.8"
   x1="145.8"
   y2="520.3"
   class="st3"
   id="line462" />
			<line
   y1="320.3"
   x2="129.2"
   x1="129.2"
   y2="520.3"
   class="st3"
   id="line464" />
			<line
   y1="320.3"
   x2="112.5"
   x1="112.5"
   y2="520.3"
   class="st3"
   id="line466" />
			<line
   y1="320.3"
   x2="95.8"
   x1="95.8"
   y2="520.3"
   class="st3"
   id="line468" />
			<line
   y1="320.3"
   x2="79.2"
   x1="79.2"
   y2="520.3"
   class="st3"
   id="line470" />
			<line
   y1="320.3"
   x2="62.5"
   x1="62.5"
   y2="520.3"
   class="st3"
   id="line472" />
			<line
   y1="320.3"
   x2="45.8"
   x1="45.8"
   y2="520.3"
   class="st3"
   id="line474" />
		</g>
		<g
   class="st2"
   id="g514">
			<line
   y1="503.6"
   x2="362.5"
   x1="229.2"
   y2="503.6"
   class="st3"
   id="line478" />
			<line
   y1="487"
   x2="362.5"
   x1="229.2"
   y2="487"
   class="st3"
   id="line480" />
			<line
   y1="470.3"
   x2="362.5"
   x1="229.2"
   y2="470.3"
   class="st3"
   id="line482" />
			<line
   y1="453.6"
   x2="362.5"
   x1="229.2"
   y2="453.6"
   class="st3"
   id="line484" />
			<line
   y1="437"
   x2="362.5"
   x1="229.2"
   y2="437"
   class="st3"
   id="line486" />
			<line
   y1="420.3"
   x2="362.5"
   x1="229.2"
   y2="420.3"
   class="st3"
   id="line488" />
			<line
   y1="403.6"
   x2="362.5"
   x1="229.2"
   y2="403.6"
   class="st3"
   id="line490" />
			<line
   y1="387"
   x2="362.5"
   x1="229.2"
   y2="387"
   class="st3"
   id="line492" />
			<line
   y1="370.3"
   x2="362.5"
   x1="229.2"
   y2="370.3"
   class="st3"
   id="line494" />
			<line
   y1="353.6"
   x2="362.5"
   x1="229.2"
   y2="353.6"
   class="st3"
   id="line496" />
			<line
   y1="337"
   x2="362.5"
   x1="229.2"
   y2="337"
   class="st3"
   id="line498" />
			<line
   y1="320.3"
   x2="345.8"
   x1="345.8"
   y2="520.3"
   class="st3"
   id="line500" />
			<line
   y1="320.3"
   x2="329.2"
   x1="329.2"
   y2="520.3"
   class="st3"
   id="line502" />
			<line
   y1="320.3"
   x2="312.5"
   x1="312.5"
   y2="520.3"
   class="st3"
   id="line504" />
			<line
   y1="320.3"
   x2="295.8"
   x1="295.8"
   y2="520.3"
   class="st3"
   id="line506" />
			<line
   y1="320.3"
   x2="279.2"
   x1="279.2"
   y2="520.3"
   class="st3"
   id="line508" />
			<line
   y1="320.3"
   x2="262.5"
   x1="262.5"
   y2="520.3"
   class="st3"
   id="line510" />
			<line
   y1="320.3"
   x2="245.8"
   x1="245.8"
   y2="520.3"
   class="st3"
   id="line512" />
		</g>
		<line
   y1="320.3"
   x2="229.2"
   x1="229.2"
   y2="520.3"
   class="st4"
   id="line516" />
		<g
   class="st2"
   id="g562">
			<line
   y1="412"
   x2="129.2"
   x1="29.2"
   y2="412"
   class="st5"
   id="line518" />
			<line
   y1="403.6"
   x2="129.2"
   x1="29.2"
   y2="403.6"
   class="st5"
   id="line520" />
			<line
   y1="395.3"
   x2="129.2"
   x1="29.2"
   y2="395.3"
   class="st5"
   id="line522" />
			<line
   y1="387"
   x2="129.2"
   x1="29.2"
   y2="387"
   class="st5"
   id="line524" />
			<line
   y1="378.6"
   x2="129.2"
   x1="29.2"
   y2="378.6"
   class="st5"
   id="line526" />
			<line
   y1="370.3"
   x2="129.2"
   x1="29.2"
   y2="370.3"
   class="st5"
   id="line528" />
			<line
   y1="362"
   x2="129.2"
   x1="29.2"
   y2="362"
   class="st5"
   id="line530" />
			<line
   y1="353.6"
   x2="129.2"
   x1="29.2"
   y2="353.6"
   class="st5"
   id="line532" />
			<line
   y1="345.3"
   x2="129.2"
   x1="29.2"
   y2="345.3"
   class="st5"
   id="line534" />
			<line
   y1="337"
   x2="129.2"
   x1="29.2"
   y2="337"
   class="st5"
   id="line536" />
			<line
   y1="328.6"
   x2="129.2"
   x1="29.2"
   y2="328.6"
   class="st5"
   id="line538" />
			<line
   y1="320.3"
   x2="120.8"
   x1="120.8"
   y2="420.3"
   class="st5"
   id="line540" />
			<line
   y1="320.3"
   x2="112.5"
   x1="112.5"
   y2="420.3"
   class="st5"
   id="line542" />
			<line
   y1="320.3"
   x2="104.2"
   x1="104.2"
   y2="420.3"
   class="st5"
   id="line544" />
			<line
   y1="320.3"
   x2="95.8"
   x1="95.8"
   y2="420.3"
   class="st5"
   id="line546" />
			<line
   y1="320.3"
   x2="87.5"
   x1="87.5"
   y2="420.3"
   class="st5"
   id="line548" />
			<line
   y1="320.3"
   x2="79.2"
   x1="79.2"
   y2="420.3"
   class="st5"
   id="line550" />
			<line
   y1="320.3"
   x2="70.8"
   x1="70.8"
   y2="420.3"
   class="st5"
   id="line552" />
			<line
   y1="320.3"
   x2="62.5"
   x1="62.5"
   y2="420.3"
   class="st5"
   id="line554" />
			<line
   y1="320.3"
   x2="54.2"
   x1="54.2"
   y2="420.3"
   class="st5"
   id="line556" />
			<line
   y1="320.3"
   x2="45.8"
   x1="45.8"
   y2="420.3"
   class="st5"
   id="line558" />
			<line
   y1="320.3"
   x2="37.5"
   x1="37.5"
   y2="420.3"
   class="st5"
   id="line560" />
		</g>
		<g
   class="st2"
   id="g608">
			<line
   y1="512"
   x2="129.2"
   x1="29.2"
   y2="512"
   class="st5"
   id="line564" />
			<line
   y1="503.6"
   x2="129.2"
   x1="29.2"
   y2="503.6"
   class="st5"
   id="line566" />
			<line
   y1="495.3"
   x2="129.2"
   x1="29.2"
   y2="495.3"
   class="st5"
   id="line568" />
			<line
   y1="487"
   x2="129.2"
   x1="29.2"
   y2="487"
   class="st5"
   id="line570" />
			<line
   y1="478.6"
   x2="129.2"
   x1="29.2"
   y2="478.6"
   class="st5"
   id="line572" />
			<line
   y1="470.3"
   x2="129.2"
   x1="29.2"
   y2="470.3"
   class="st5"
   id="line574" />
			<line
   y1="462"
   x2="129.2"
   x1="29.2"
   y2="462"
   class="st5"
   id="line576" />
			<line
   y1="453.6"
   x2="129.2"
   x1="29.2"
   y2="453.6"
   class="st5"
   id="line578" />
			<line
   y1="445.3"
   x2="129.2"
   x1="29.2"
   y2="445.3"
   class="st5"
   id="line580" />
			<line
   y1="437"
   x2="129.2"
   x1="29.2"
   y2="437"
   class="st5"
   id="line582" />
			<line
   y1="428.6"
   x2="129.2"
   x1="29.2"
   y2="428.6"
   class="st5"
   id="line584" />
			<line
   y1="420.3"
   x2="120.8"
   x1="120.8"
   y2="520.3"
   class="st5"
   id="line586" />
			<line
   y1="420.3"
   x2="112.5"
   x1="112.5"
   y2="520.3"
   class="st5"
   id="line588" />
			<line
   y1="420.3"
   x2="104.2"
   x1="104.2"
   y2="520.3"
   class="st5"
   id="line590" />
			<line
   y1="420.3"
   x2="95.8"
   x1="95.8"
   y2="520.3"
   class="st5"
   id="line592" />
			<line
   y1="420.3"
   x2="87.5"
   x1="87.5"
   y2="520.3"
   class="st5"
   id="line594" />
			<line
   y1="420.3"
   x2="79.2"
   x1="79.2"
   y2="520.3"
   class="st5"
   id="line596" />
			<line
   y1="420.3"
   x2="70.8"
   x1="70.8"
   y2="520.3"
   class="st5"
   id="line598" />
			<line
   y1="420.3"
   x2="62.5"
   x1="62.5"
   y2="520.3"
   class="st5"
   id="line600" />
			<line
   y1="420.3"
   x2="54.2"
   x1="54.2"
   y2="520.3"
   class="st5"
   id="line602" />
			<line
   y1="420.3"
   x2="45.8"
   x1="45.8"
   y2="520.3"
   class="st5"
   id="line604" />
			<line
   y1="420.3"
   x2="37.5"
   x1="37.5"
   y2="520.3"
   class="st5"
   id="line606" />
		</g>
		<g
   class="st2"
   id="g654">
			<line
   y1="412"
   x2="229.2"
   x1="129.2"
   y2="412"
   class="st5"
   id="line610" />
			<line
   y1="403.6"
   x2="229.2"
   x1="129.2"
   y2="403.6"
   class="st5"
   id="line612" />
			<line
   y1="395.3"
   x2="229.2"
   x1="129.2"
   y2="395.3"
   class="st5"
   id="line614" />
			<line
   y1="387"
   x2="229.2"
   x1="129.2"
   y2="387"
   class="st5"
   id="line616" />
			<line
   y1="378.6"
   x2="229.2"
   x1="129.2"
   y2="378.6"
   class="st5"
   id="line618" />
			<line
   y1="370.3"
   x2="229.2"
   x1="129.2"
   y2="370.3"
   class="st5"
   id="line620" />
			<line
   y1="362"
   x2="229.2"
   x1="129.2"
   y2="362"
   class="st5"
   id="line622" />
			<line
   y1="353.6"
   x2="229.2"
   x1="129.2"
   y2="353.6"
   class="st5"
   id="line624" />
			<line
   y1="345.3"
   x2="229.2"
   x1="129.2"
   y2="345.3"
   class="st5"
   id="line626" />
			<line
   y1="337"
   x2="229.2"
   x1="129.2"
   y2="337"
   class="st5"
   id="line628" />
			<line
   y1="328.6"
   x2="229.2"
   x1="129.2"
   y2="328.6"
   class="st5"
   id="line630" />
			<line
   y1="320.3"
   x2="220.8"
   x1="220.8"
   y2="420.3"
   class="st5"
   id="line632" />
			<line
   y1="320.3"
   x2="212.5"
   x1="212.5"
   y2="420.3"
   class="st5"
   id="line634" />
			<line
   y1="320.3"
   x2="204.2"
   x1="204.2"
   y2="420.3"
   class="st5"
   id="line636" />
			<line
   y1="320.3"
   x2="195.8"
   x1="195.8"
   y2="420.3"
   class="st5"
   id="line638" />
			<line
   y1="320.3"
   x2="187.5"
   x1="187.5"
   y2="420.3"
   class="st5"
   id="line640" />
			<line
   y1="320.3"
   x2="179.2"
   x1="179.2"
   y2="420.3"
   class="st5"
   id="line642" />
			<line
   y1="320.3"
   x2="170.8"
   x1="170.8"
   y2="420.3"
   class="st5"
   id="line644" />
			<line
   y1="320.3"
   x2="162.5"
   x1="162.5"
   y2="420.3"
   class="st5"
   id="line646" />
			<line
   y1="320.3"
   x2="154.2"
   x1="154.2"
   y2="420.3"
   class="st5"
   id="line648" />
			<line
   y1="320.3"
   x2="145.8"
   x1="145.8"
   y2="420.3"
   class="st5"
   id="line650" />
			<line
   y1="320.3"
   x2="137.5"
   x1="137.5"
   y2="420.3"
   class="st5"
   id="line652" />
		</g>
		<g
   class="st2"
   id="g700">
			<line
   y1="512"
   x2="229.2"
   x1="129.2"
   y2="512"
   class="st5"
   id="line656" />
			<line
   y1="503.6"
   x2="229.2"
   x1="129.2"
   y2="503.6"
   class="st5"
   id="line658" />
			<line
   y1="495.3"
   x2="229.2"
   x1="129.2"
   y2="495.3"
   class="st5"
   id="line660" />
			<line
   y1="487"
   x2="229.2"
   x1="129.2"
   y2="487"
   class="st5"
   id="line662" />
			<line
   y1="478.6"
   x2="229.2"
   x1="129.2"
   y2="478.6"
   class="st5"
   id="line664" />
			<line
   y1="470.3"
   x2="229.2"
   x1="129.2"
   y2="470.3"
   class="st5"
   id="line666" />
			<line
   y1="462"
   x2="229.2"
   x1="129.2"
   y2="462"
   class="st5"
   id="line668" />
			<line
   y1="453.6"
   x2="229.2"
   x1="129.2"
   y2="453.6"
   class="st5"
   id="line670" />
			<line
   y1="445.3"
   x2="229.2"
   x1="129.2"
   y2="445.3"
   class="st5"
   id="line672" />
			<line
   y1="437"
   x2="229.2"
   x1="129.2"
   y2="437"
   class="st5"
   id="line674" />
			<line
   y1="428.6"
   x2="229.2"
   x1="129.2"
   y2="428.6"
   class="st5"
   id="line676" />
			<line
   y1="420.3"
   x2="220.8"
   x1="220.8"
   y2="520.3"
   class="st5"
   id="line678" />
			<line
   y1="420.3"
   x2="212.5"
   x1="212.5"
   y2="520.3"
   class="st5"
   id="line680" />
			<line
   y1="420.3"
   x2="204.2"
   x1="204.2"
   y2="520.3"
   class="st5"
   id="line682" />
			<line
   y1="420.3"
   x2="195.8"
   x1="195.8"
   y2="520.3"
   class="st5"
   id="line684" />
			<line
   y1="420.3"
   x2="187.5"
   x1="187.5"
   y2="520.3"
   class="st5"
   id="line686" />
			<line
   y1="420.3"
   x2="179.2"
   x1="179.2"
   y2="520.3"
   class="st5"
   id="line688" />
			<line
   y1="420.3"
   x2="170.8"
   x1="170.8"
   y2="520.3"
   class="st5"
   id="line690" />
			<line
   y1="420.3"
   x2="162.5"
   x1="162.5"
   y2="520.3"
   class="st5"
   id="line692" />
			<line
   y1="420.3"
   x2="154.2"
   x1="154.2"
   y2="520.3"
   class="st5"
   id="line694" />
			<line
   y1="420.3"
   x2="145.8"
   x1="145.8"
   y2="520.3"
   class="st5"
   id="line696" />
			<line
   y1="420.3"
   x2="137.5"
   x1="137.5"
   y2="520.3"
   class="st5"
   id="line698" />
		</g>
		<g
   class="st2"
   id="g746">
			<line
   y1="412"
   x2="329.2"
   x1="229.2"
   y2="412"
   class="st5"
   id="line702" />
			<line
   y1="403.6"
   x2="329.2"
   x1="229.2"
   y2="403.6"
   class="st5"
   id="line704" />
			<line
   y1="395.3"
   x2="329.2"
   x1="229.2"
   y2="395.3"
   class="st5"
   id="line706" />
			<line
   y1="387"
   x2="329.2"
   x1="229.2"
   y2="387"
   class="st5"
   id="line708" />
			<line
   y1="378.6"
   x2="329.2"
   x1="229.2"
   y2="378.6"
   class="st5"
   id="line710" />
			<line
   y1="370.3"
   x2="329.2"
   x1="229.2"
   y2="370.3"
   class="st5"
   id="line712" />
			<line
   y1="362"
   x2="329.2"
   x1="229.2"
   y2="362"
   class="st5"
   id="line714" />
			<line
   y1="353.6"
   x2="329.2"
   x1="229.2"
   y2="353.6"
   class="st5"
   id="line716" />
			<line
   y1="345.3"
   x2="329.2"
   x1="229.2"
   y2="345.3"
   class="st5"
   id="line718" />
			<line
   y1="337"
   x2="329.2"
   x1="229.2"
   y2="337"
   class="st5"
   id="line720" />
			<line
   y1="328.6"
   x2="329.2"
   x1="229.2"
   y2="328.6"
   class="st5"
   id="line722" />
			<line
   y1="320.3"
   x2="320.8"
   x1="320.8"
   y2="420.3"
   class="st5"
   id="line724" />
			<line
   y1="320.3"
   x2="312.5"
   x1="312.5"
   y2="420.3"
   class="st5"
   id="line726" />
			<line
   y1="320.3"
   x2="304.2"
   x1="304.2"
   y2="420.3"
   class="st5"
   id="line728" />
			<line
   y1="320.3"
   x2="295.8"
   x1="295.8"
   y2="420.3"
   class="st5"
   id="line730" />
			<line
   y1="320.3"
   x2="287.5"
   x1="287.5"
   y2="420.3"
   class="st5"
   id="line732" />
			<line
   y1="320.3"
   x2="279.2"
   x1="279.2"
   y2="420.3"
   class="st5"
   id="line734" />
			<line
   y1="320.3"
   x2="270.8"
   x1="270.8"
   y2="420.3"
   class="st5"
   id="line736" />
			<line
   y1="320.3"
   x2="262.5"
   x1="262.5"
   y2="420.3"
   class="st5"
   id="line738" />
			<line
   y1="320.3"
   x2="254.2"
   x1="254.2"
   y2="420.3"
   class="st5"
   id="line740" />
			<line
   y1="320.3"
   x2="245.8"
   x1="245.8"
   y2="420.3"
   class="st5"
   id="line742" />
			<line
   y1="320.3"
   x2="237.5"
   x1="237.5"
   y2="420.3"
   class="st5"
   id="line744" />
		</g>
		<g
   class="st2"
   id="g792">
			<line
   y1="512"
   x2="329.2"
   x1="229.2"
   y2="512"
   class="st5"
   id="line748" />
			<line
   y1="503.6"
   x2="329.2"
   x1="229.2"
   y2="503.6"
   class="st5"
   id="line750" />
			<line
   y1="495.3"
   x2="329.2"
   x1="229.2"
   y2="495.3"
   class="st5"
   id="line752" />
			<line
   y1="487"
   x2="329.2"
   x1="229.2"
   y2="487"
   class="st5"
   id="line754" />
			<line
   y1="478.6"
   x2="329.2"
   x1="229.2"
   y2="478.6"
   class="st5"
   id="line756" />
			<line
   y1="470.3"
   x2="329.2"
   x1="229.2"
   y2="470.3"
   class="st5"
   id="line758" />
			<line
   y1="462"
   x2="329.2"
   x1="229.2"
   y2="462"
   class="st5"
   id="line760" />
			<line
   y1="453.6"
   x2="329.2"
   x1="229.2"
   y2="453.6"
   class="st5"
   id="line762" />
			<line
   y1="445.3"
   x2="329.2"
   x1="229.2"
   y2="445.3"
   class="st5"
   id="line764" />
			<line
   y1="437"
   x2="329.2"
   x1="229.2"
   y2="437"
   class="st5"
   id="line766" />
			<line
   y1="428.6"
   x2="329.2"
   x1="229.2"
   y2="428.6"
   class="st5"
   id="line768" />
			<line
   y1="420.3"
   x2="320.8"
   x1="320.8"
   y2="520.3"
   class="st5"
   id="line770" />
			<line
   y1="420.3"
   x2="312.5"
   x1="312.5"
   y2="520.3"
   class="st5"
   id="line772" />
			<line
   y1="420.3"
   x2="304.2"
   x1="304.2"
   y2="520.3"
   class="st5"
   id="line774" />
			<line
   y1="420.3"
   x2="295.8"
   x1="295.8"
   y2="520.3"
   class="st5"
   id="line776" />
			<line
   y1="420.3"
   x2="287.5"
   x1="287.5"
   y2="520.3"
   class="st5"
   id="line778" />
			<line
   y1="420.3"
   x2="279.2"
   x1="279.2"
   y2="520.3"
   class="st5"
   id="line780" />
			<line
   y1="420.3"
   x2="270.8"
   x1="270.8"
   y2="520.3"
   class="st5"
   id="line782" />
			<line
   y1="420.3"
   x2="262.5"
   x1="262.5"
   y2="520.3"
   class="st5"
   id="line784" />
			<line
   y1="420.3"
   x2="254.2"
   x1="254.2"
   y2="520.3"
   class="st5"
   id="line786" />
			<line
   y1="420.3"
   x2="245.8"
   x1="245.8"
   y2="520.3"
   class="st5"
   id="line788" />
			<line
   y1="420.3"
   x2="237.5"
   x1="237.5"
   y2="520.3"
   class="st5"
   id="line790" />
		</g>
		<g
   class="st2"
   id="g854">
				<line
   y1="412"
   x2="362.5"
   x1="329.2"
   y2="412"
   class="st5"
   id="line794" />
				<line
   y1="403.6"
   x2="362.5"
   x1="329.2"
   y2="403.6"
   class="st5"
   id="line796" />
				<line
   y1="395.3"
   x2="362.5"
   x1="329.2"
   y2="395.3"
   class="st5"
   id="line798" />
				<line
   y1="387"
   x2="362.5"
   x1="329.2"
   y2="387"
   class="st5"
   id="line800" />
				<line
   y1="378.6"
   x2="362.5"
   x1="329.2"
   y2="378.6"
   class="st5"
   id="line802" />
				<line
   y1="370.3"
   x2="362.5"
   x1="329.2"
   y2="370.3"
   class="st5"
   id="line804" />
				<line
   y1="362"
   x2="362.5"
   x1="329.2"
   y2="362"
   class="st5"
   id="line806" />
				<line
   y1="353.6"
   x2="362.5"
   x1="329.2"
   y2="353.6"
   class="st5"
   id="line808" />
				<line
   y1="345.3"
   x2="362.5"
   x1="329.2"
   y2="345.3"
   class="st5"
   id="line810" />
				<line
   y1="337"
   x2="362.5"
   x1="329.2"
   y2="337"
   class="st5"
   id="line812" />
				<line
   y1="328.6"
   x2="362.5"
   x1="329.2"
   y2="328.6"
   class="st5"
   id="line814" />
				<line
   y1="320.3"
   x2="362.5"
   x1="362.5"
   y2="420.3"
   class="st5"
   id="line816" />
				<line
   y1="320.3"
   x2="354.2"
   x1="354.2"
   y2="420.3"
   class="st5"
   id="line818" />
				<line
   y1="320.3"
   x2="345.8"
   x1="345.8"
   y2="420.3"
   class="st5"
   id="line820" />
				<line
   y1="320.3"
   x2="337.5"
   x1="337.5"
   y2="420.3"
   class="st5"
   id="line822" />
				<line
   y1="512"
   x2="362.5"
   x1="329.2"
   y2="512"
   class="st5"
   id="line824" />
				<line
   y1="503.6"
   x2="362.5"
   x1="329.2"
   y2="503.6"
   class="st5"
   id="line826" />
				<line
   y1="495.3"
   x2="362.5"
   x1="329.2"
   y2="495.3"
   class="st5"
   id="line828" />
				<line
   y1="487"
   x2="362.5"
   x1="329.2"
   y2="487"
   class="st5"
   id="line830" />
				<line
   y1="478.6"
   x2="362.5"
   x1="329.2"
   y2="478.6"
   class="st5"
   id="line832" />
				<line
   y1="470.3"
   x2="362.5"
   x1="329.2"
   y2="470.3"
   class="st5"
   id="line834" />
				<line
   y1="462"
   x2="362.5"
   x1="329.2"
   y2="462"
   class="st5"
   id="line836" />
				<line
   y1="453.6"
   x2="362.5"
   x1="329.2"
   y2="453.6"
   class="st5"
   id="line838" />
				<line
   y1="445.3"
   x2="362.5"
   x1="329.2"
   y2="445.3"
   class="st5"
   id="line840" />
				<line
   y1="437"
   x2="362.5"
   x1="329.2"
   y2="437"
   class="st5"
   id="line842" />
				<line
   y1="428.6"
   x2="362.5"
   x1="329.2"
   y2="428.6"
   class="st5"
   id="line844" />
				<line
   y1="420.3"
   x2="362.5"
   x1="362.5"
   y2="520.3"
   class="st5"
   id="line846" />
				<line
   y1="420.3"
   x2="354.2"
   x1="354.2"
   y2="520.3"
   class="st5"
   id="line848" />
				<line
   y1="420.3"
   x2="345.8"
   x1="345.8"
   y2="520.3"
   class="st5"
   id="line850" />
				<line
   y1="420.3"
   x2="337.5"
   x1="337.5"
   y2="520.3"
   class="st5"
   id="line852" />
		</g>
		<rect
   y="320.3"
   x="29.2"
   height="200"
   class="st5"
   width="333.3"
   id="rect856" />
	</g>
	<g
   class="st1"
   id="g1286">
		<g
   class="st2"
   id="g904">
			<line
   y1="208.9"
   x2="229.2"
   x1="29.2"
   y2="208.9"
   class="st3"
   id="line860" />
			<line
   y1="192.3"
   x2="229.2"
   x1="29.2"
   y2="192.3"
   class="st3"
   id="line862" />
			<line
   y1="175.6"
   x2="229.2"
   x1="29.2"
   y2="175.6"
   class="st3"
   id="line864" />
			<line
   y1="158.9"
   x2="229.2"
   x1="29.2"
   y2="158.9"
   class="st3"
   id="line866" />
			<line
   y1="142.3"
   x2="229.2"
   x1="29.2"
   y2="142.3"
   class="st3"
   id="line868" />
			<line
   y1="125.6"
   x2="229.2"
   x1="29.2"
   y2="125.6"
   class="st3"
   id="line870" />
			<line
   y1="108.9"
   x2="229.2"
   x1="29.2"
   y2="108.9"
   class="st3"
   id="line872" />
			<line
   y1="92.3"
   x2="229.2"
   x1="29.2"
   y2="92.3"
   class="st3"
   id="line874" />
			<line
   y1="75.6"
   x2="229.2"
   x1="29.2"
   y2="75.6"
   class="st3"
   id="line876" />
			<line
   y1="58.9"
   x2="229.2"
   x1="29.2"
   y2="58.9"
   class="st3"
   id="line878" />
			<line
   y1="42.3"
   x2="229.2"
   x1="29.2"
   y2="42.3"
   class="st3"
   id="line880" />
			<line
   y1="25.6"
   x2="212.5"
   x1="212.5"
   y2="225.6"
   class="st3"
   id="line882" />
			<line
   y1="25.6"
   x2="195.8"
   x1="195.8"
   y2="225.6"
   class="st3"
   id="line884" />
			<line
   y1="25.6"
   x2="179.2"
   x1="179.2"
   y2="225.6"
   class="st3"
   id="line886" />
			<line
   y1="25.6"
   x2="162.5"
   x1="162.5"
   y2="225.6"
   class="st3"
   id="line888" />
			<line
   y1="25.6"
   x2="145.8"
   x1="145.8"
   y2="225.6"
   class="st3"
   id="line890" />
			<line
   y1="25.6"
   x2="129.2"
   x1="129.2"
   y2="225.6"
   class="st3"
   id="line892" />
			<line
   y1="25.6"
   x2="112.5"
   x1="112.5"
   y2="225.6"
   class="st3"
   id="line894" />
			<line
   y1="25.6"
   x2="95.8"
   x1="95.8"
   y2="225.6"
   class="st3"
   id="line896" />
			<line
   y1="25.6"
   x2="79.2"
   x1="79.2"
   y2="225.6"
   class="st3"
   id="line898" />
			<line
   y1="25.6"
   x2="62.5"
   x1="62.5"
   y2="225.6"
   class="st3"
   id="line900" />
			<line
   y1="25.6"
   x2="45.8"
   x1="45.8"
   y2="225.6"
   class="st3"
   id="line902" />
		</g>
		<g
   class="st2"
   id="g942">
			<line
   y1="208.9"
   x2="362.5"
   x1="229.2"
   y2="208.9"
   class="st3"
   id="line906" />
			<line
   y1="192.3"
   x2="362.5"
   x1="229.2"
   y2="192.3"
   class="st3"
   id="line908" />
			<line
   y1="175.6"
   x2="362.5"
   x1="229.2"
   y2="175.6"
   class="st3"
   id="line910" />
			<line
   y1="158.9"
   x2="362.5"
   x1="229.2"
   y2="158.9"
   class="st3"
   id="line912" />
			<line
   y1="142.3"
   x2="362.5"
   x1="229.2"
   y2="142.3"
   class="st3"
   id="line914" />
			<line
   y1="125.6"
   x2="362.5"
   x1="229.2"
   y2="125.6"
   class="st3"
   id="line916" />
			<line
   y1="108.9"
   x2="362.5"
   x1="229.2"
   y2="108.9"
   class="st3"
   id="line918" />
			<line
   y1="92.3"
   x2="362.5"
   x1="229.2"
   y2="92.3"
   class="st3"
   id="line920" />
			<line
   y1="75.6"
   x2="362.5"
   x1="229.2"
   y2="75.6"
   class="st3"
   id="line922" />
			<line
   y1="58.9"
   x2="362.5"
   x1="229.2"
   y2="58.9"
   class="st3"
   id="line924" />
			<line
   y1="42.3"
   x2="362.5"
   x1="229.2"
   y2="42.3"
   class="st3"
   id="line926" />
			<line
   y1="25.6"
   x2="345.8"
   x1="345.8"
   y2="225.6"
   class="st3"
   id="line928" />
			<line
   y1="25.6"
   x2="329.2"
   x1="329.2"
   y2="225.6"
   class="st3"
   id="line930" />
			<line
   y1="25.6"
   x2="312.5"
   x1="312.5"
   y2="225.6"
   class="st3"
   id="line932" />
			<line
   y1="25.6"
   x2="295.8"
   x1="295.8"
   y2="225.6"
   class="st3"
   id="line934" />
			<line
   y1="25.6"
   x2="279.2"
   x1="279.2"
   y2="225.6"
   class="st3"
   id="line936" />
			<line
   y1="25.6"
   x2="262.5"
   x1="262.5"
   y2="225.6"
   class="st3"
   id="line938" />
			<line
   y1="25.6"
   x2="245.8"
   x1="245.8"
   y2="225.6"
   class="st3"
   id="line940" />
		</g>
		<line
   y1="25.6"
   x2="229.2"
   x1="229.2"
   y2="225.6"
   class="st4"
   id="line944" />
		<g
   class="st2"
   id="g990">
			<line
   y1="117.3"
   x2="129.2"
   x1="29.2"
   y2="117.3"
   class="st5"
   id="line946" />
			<line
   y1="108.9"
   x2="129.2"
   x1="29.2"
   y2="108.9"
   class="st5"
   id="line948" />
			<line
   y1="100.6"
   x2="129.2"
   x1="29.2"
   y2="100.6"
   class="st5"
   id="line950" />
			<line
   y1="92.3"
   x2="129.2"
   x1="29.2"
   y2="92.3"
   class="st5"
   id="line952" />
			<line
   y1="83.9"
   x2="129.2"
   x1="29.2"
   y2="83.9"
   class="st5"
   id="line954" />
			<line
   y1="75.6"
   x2="129.2"
   x1="29.2"
   y2="75.6"
   class="st5"
   id="line956" />
			<line
   y1="67.3"
   x2="129.2"
   x1="29.2"
   y2="67.3"
   class="st5"
   id="line958" />
			<line
   y1="58.9"
   x2="129.2"
   x1="29.2"
   y2="58.9"
   class="st5"
   id="line960" />
			<line
   y1="50.6"
   x2="129.2"
   x1="29.2"
   y2="50.6"
   class="st5"
   id="line962" />
			<line
   y1="42.3"
   x2="129.2"
   x1="29.2"
   y2="42.3"
   class="st5"
   id="line964" />
			<line
   y1="33.9"
   x2="129.2"
   x1="29.2"
   y2="33.9"
   class="st5"
   id="line966" />
			<line
   y1="25.6"
   x2="120.8"
   x1="120.8"
   y2="125.6"
   class="st5"
   id="line968" />
			<line
   y1="25.6"
   x2="112.5"
   x1="112.5"
   y2="125.6"
   class="st5"
   id="line970" />
			<line
   y1="25.6"
   x2="104.2"
   x1="104.2"
   y2="125.6"
   class="st5"
   id="line972" />
			<line
   y1="25.6"
   x2="95.8"
   x1="95.8"
   y2="125.6"
   class="st5"
   id="line974" />
			<line
   y1="25.6"
   x2="87.5"
   x1="87.5"
   y2="125.6"
   class="st5"
   id="line976" />
			<line
   y1="25.6"
   x2="79.2"
   x1="79.2"
   y2="125.6"
   class="st5"
   id="line978" />
			<line
   y1="25.6"
   x2="70.8"
   x1="70.8"
   y2="125.6"
   class="st5"
   id="line980" />
			<line
   y1="25.6"
   x2="62.5"
   x1="62.5"
   y2="125.6"
   class="st5"
   id="line982" />
			<line
   y1="25.6"
   x2="54.2"
   x1="54.2"
   y2="125.6"
   class="st5"
   id="line984" />
			<line
   y1="25.6"
   x2="45.8"
   x1="45.8"
   y2="125.6"
   class="st5"
   id="line986" />
			<line
   y1="25.6"
   x2="37.5"
   x1="37.5"
   y2="125.6"
   class="st5"
   id="line988" />
		</g>
		<g
   class="st2"
   id="g1036">
			<line
   y1="217.3"
   x2="129.2"
   x1="29.2"
   y2="217.3"
   class="st5"
   id="line992" />
			<line
   y1="208.9"
   x2="129.2"
   x1="29.2"
   y2="208.9"
   class="st5"
   id="line994" />
			<line
   y1="200.6"
   x2="129.2"
   x1="29.2"
   y2="200.6"
   class="st5"
   id="line996" />
			<line
   y1="192.3"
   x2="129.2"
   x1="29.2"
   y2="192.3"
   class="st5"
   id="line998" />
			<line
   y1="183.9"
   x2="129.2"
   x1="29.2"
   y2="183.9"
   class="st5"
   id="line1000" />
			<line
   y1="175.6"
   x2="129.2"
   x1="29.2"
   y2="175.6"
   class="st5"
   id="line1002" />
			<line
   y1="167.3"
   x2="129.2"
   x1="29.2"
   y2="167.3"
   class="st5"
   id="line1004" />
			<line
   y1="158.9"
   x2="129.2"
   x1="29.2"
   y2="158.9"
   class="st5"
   id="line1006" />
			<line
   y1="150.6"
   x2="129.2"
   x1="29.2"
   y2="150.6"
   class="st5"
   id="line1008" />
			<line
   y1="142.3"
   x2="129.2"
   x1="29.2"
   y2="142.3"
   class="st5"
   id="line1010" />
			<line
   y1="133.9"
   x2="129.2"
   x1="29.2"
   y2="133.9"
   class="st5"
   id="line1012" />
			<line
   y1="125.6"
   x2="120.8"
   x1="120.8"
   y2="225.6"
   class="st5"
   id="line1014" />
			<line
   y1="125.6"
   x2="112.5"
   x1="112.5"
   y2="225.6"
   class="st5"
   id="line1016" />
			<line
   y1="125.6"
   x2="104.2"
   x1="104.2"
   y2="225.6"
   class="st5"
   id="line1018" />
			<line
   y1="125.6"
   x2="95.8"
   x1="95.8"
   y2="225.6"
   class="st5"
   id="line1020" />
			<line
   y1="125.6"
   x2="87.5"
   x1="87.5"
   y2="225.6"
   class="st5"
   id="line1022" />
			<line
   y1="125.6"
   x2="79.2"
   x1="79.2"
   y2="225.6"
   class="st5"
   id="line1024" />
			<line
   y1="125.6"
   x2="70.8"
   x1="70.8"
   y2="225.6"
   class="st5"
   id="line1026" />
			<line
   y1="125.6"
   x2="62.5"
   x1="62.5"
   y2="225.6"
   class="st5"
   id="line1028" />
			<line
   y1="125.6"
   x2="54.2"
   x1="54.2"
   y2="225.6"
   class="st5"
   id="line1030" />
			<line
   y1="125.6"
   x2="45.8"
   x1="45.8"
   y2="225.6"
   class="st5"
   id="line1032" />
			<line
   y1="125.6"
   x2="37.5"
   x1="37.5"
   y2="225.6"
   class="st5"
   id="line1034" />
		</g>
		<g
   class="st2"
   id="g1082">
			<line
   y1="117.3"
   x2="229.2"
   x1="129.2"
   y2="117.3"
   class="st5"
   id="line1038" />
			<line
   y1="108.9"
   x2="229.2"
   x1="129.2"
   y2="108.9"
   class="st5"
   id="line1040" />
			<line
   y1="100.6"
   x2="229.2"
   x1="129.2"
   y2="100.6"
   class="st5"
   id="line1042" />
			<line
   y1="92.3"
   x2="229.2"
   x1="129.2"
   y2="92.3"
   class="st5"
   id="line1044" />
			<line
   y1="83.9"
   x2="229.2"
   x1="129.2"
   y2="83.9"
   class="st5"
   id="line1046" />
			<line
   y1="75.6"
   x2="229.2"
   x1="129.2"
   y2="75.6"
   class="st5"
   id="line1048" />
			<line
   y1="67.3"
   x2="229.2"
   x1="129.2"
   y2="67.3"
   class="st5"
   id="line1050" />
			<line
   y1="58.9"
   x2="229.2"
   x1="129.2"
   y2="58.9"
   class="st5"
   id="line1052" />
			<line
   y1="50.6"
   x2="229.2"
   x1="129.2"
   y2="50.6"
   class="st5"
   id="line1054" />
			<line
   y1="42.3"
   x2="229.2"
   x1="129.2"
   y2="42.3"
   class="st5"
   id="line1056" />
			<line
   y1="33.9"
   x2="229.2"
   x1="129.2"
   y2="33.9"
   class="st5"
   id="line1058" />
			<line
   y1="25.6"
   x2="220.8"
   x1="220.8"
   y2="125.6"
   class="st5"
   id="line1060" />
			<line
   y1="25.6"
   x2="212.5"
   x1="212.5"
   y2="125.6"
   class="st5"
   id="line1062" />
			<line
   y1="25.6"
   x2="204.2"
   x1="204.2"
   y2="125.6"
   class="st5"
   id="line1064" />
			<line
   y1="25.6"
   x2="195.8"
   x1="195.8"
   y2="125.6"
   class="st5"
   id="line1066" />
			<line
   y1="25.6"
   x2="187.5"
   x1="187.5"
   y2="125.6"
   class="st5"
   id="line1068" />
			<line
   y1="25.6"
   x2="179.2"
   x1="179.2"
   y2="125.6"
   class="st5"
   id="line1070" />
			<line
   y1="25.6"
   x2="170.8"
   x1="170.8"
   y2="125.6"
   class="st5"
   id="line1072" />
			<line
   y1="25.6"
   x2="162.5"
   x1="162.5"
   y2="125.6"
   class="st5"
   id="line1074" />
			<line
   y1="25.6"
   x2="154.2"
   x1="154.2"
   y2="125.6"
   class="st5"
   id="line1076" />
			<line
   y1="25.6"
   x2="145.8"
   x1="145.8"
   y2="125.6"
   class="st5"
   id="line1078" />
			<line
   y1="25.6"
   x2="137.5"
   x1="137.5"
   y2="125.6"
   class="st5"
   id="line1080" />
		</g>
		<g
   class="st2"
   id="g1128">
			<line
   y1="217.3"
   x2="229.2"
   x1="129.2"
   y2="217.3"
   class="st5"
   id="line1084" />
			<line
   y1="208.9"
   x2="229.2"
   x1="129.2"
   y2="208.9"
   class="st5"
   id="line1086" />
			<line
   y1="200.6"
   x2="229.2"
   x1="129.2"
   y2="200.6"
   class="st5"
   id="line1088" />
			<line
   y1="192.3"
   x2="229.2"
   x1="129.2"
   y2="192.3"
   class="st5"
   id="line1090" />
			<line
   y1="183.9"
   x2="229.2"
   x1="129.2"
   y2="183.9"
   class="st5"
   id="line1092" />
			<line
   y1="175.6"
   x2="229.2"
   x1="129.2"
   y2="175.6"
   class="st5"
   id="line1094" />
			<line
   y1="167.3"
   x2="229.2"
   x1="129.2"
   y2="167.3"
   class="st5"
   id="line1096" />
			<line
   y1="158.9"
   x2="229.2"
   x1="129.2"
   y2="158.9"
   class="st5"
   id="line1098" />
			<line
   y1="150.6"
   x2="229.2"
   x1="129.2"
   y2="150.6"
   class="st5"
   id="line1100" />
			<line
   y1="142.3"
   x2="229.2"
   x1="129.2"
   y2="142.3"
   class="st5"
   id="line1102" />
			<line
   y1="133.9"
   x2="229.2"
   x1="129.2"
   y2="133.9"
   class="st5"
   id="line1104" />
			<line
   y1="125.6"
   x2="220.8"
   x1="220.8"
   y2="225.6"
   class="st5"
   id="line1106" />
			<line
   y1="125.6"
   x2="212.5"
   x1="212.5"
   y2="225.6"
   class="st5"
   id="line1108" />
			<line
   y1="125.6"
   x2="204.2"
   x1="204.2"
   y2="225.6"
   class="st5"
   id="line1110" />
			<line
   y1="125.6"
   x2="195.8"
   x1="195.8"
   y2="225.6"
   class="st5"
   id="line1112" />
			<line
   y1="125.6"
   x2="187.5"
   x1="187.5"
   y2="225.6"
   class="st5"
   id="line1114" />
			<line
   y1="125.6"
   x2="179.2"
   x1="179.2"
   y2="225.6"
   class="st5"
   id="line1116" />
			<line
   y1="125.6"
   x2="170.8"
   x1="170.8"
   y2="225.6"
   class="st5"
   id="line1118" />
			<line
   y1="125.6"
   x2="162.5"
   x1="162.5"
   y2="225.6"
   class="st5"
   id="line1120" />
			<line
   y1="125.6"
   x2="154.2"
   x1="154.2"
   y2="225.6"
   class="st5"
   id="line1122" />
			<line
   y1="125.6"
   x2="145.8"
   x1="145.8"
   y2="225.6"
   class="st5"
   id="line1124" />
			<line
   y1="125.6"
   x2="137.5"
   x1="137.5"
   y2="225.6"
   class="st5"
   id="line1126" />
		</g>
		<g
   class="st2"
   id="g1174">
			<line
   y1="117.3"
   x2="329.2"
   x1="229.2"
   y2="117.3"
   class="st5"
   id="line1130" />
			<line
   y1="108.9"
   x2="329.2"
   x1="229.2"
   y2="108.9"
   class="st5"
   id="line1132" />
			<line
   y1="100.6"
   x2="329.2"
   x1="229.2"
   y2="100.6"
   class="st5"
   id="line1134" />
			<line
   y1="92.3"
   x2="329.2"
   x1="229.2"
   y2="92.3"
   class="st5"
   id="line1136" />
			<line
   y1="83.9"
   x2="329.2"
   x1="229.2"
   y2="83.9"
   class="st5"
   id="line1138" />
			<line
   y1="75.6"
   x2="329.2"
   x1="229.2"
   y2="75.6"
   class="st5"
   id="line1140" />
			<line
   y1="67.3"
   x2="329.2"
   x1="229.2"
   y2="67.3"
   class="st5"
   id="line1142" />
			<line
   y1="58.9"
   x2="329.2"
   x1="229.2"
   y2="58.9"
   class="st5"
   id="line1144" />
			<line
   y1="50.6"
   x2="329.2"
   x1="229.2"
   y2="50.6"
   class="st5"
   id="line1146" />
			<line
   y1="42.3"
   x2="329.2"
   x1="229.2"
   y2="42.3"
   class="st5"
   id="line1148" />
			<line
   y1="33.9"
   x2="329.2"
   x1="229.2"
   y2="33.9"
   class="st5"
   id="line1150" />
			<line
   y1="25.6"
   x2="320.8"
   x1="320.8"
   y2="125.6"
   class="st5"
   id="line1152" />
			<line
   y1="25.6"
   x2="312.5"
   x1="312.5"
   y2="125.6"
   class="st5"
   id="line1154" />
			<line
   y1="25.6"
   x2="304.2"
   x1="304.2"
   y2="125.6"
   class="st5"
   id="line1156" />
			<line
   y1="25.6"
   x2="295.8"
   x1="295.8"
   y2="125.6"
   class="st5"
   id="line1158" />
			<line
   y1="25.6"
   x2="287.5"
   x1="287.5"
   y2="125.6"
   class="st5"
   id="line1160" />
			<line
   y1="25.6"
   x2="279.2"
   x1="279.2"
   y2="125.6"
   class="st5"
   id="line1162" />
			<line
   y1="25.6"
   x2="270.8"
   x1="270.8"
   y2="125.6"
   class="st5"
   id="line1164" />
			<line
   y1="25.6"
   x2="262.5"
   x1="262.5"
   y2="125.6"
   class="st5"
   id="line1166" />
			<line
   y1="25.6"
   x2="254.2"
   x1="254.2"
   y2="125.6"
   class="st5"
   id="line1168" />
			<line
   y1="25.6"
   x2="245.8"
   x1="245.8"
   y2="125.6"
   class="st5"
   id="line1170" />
			<line
   y1="25.6"
   x2="237.5"
   x1="237.5"
   y2="125.6"
   class="st5"
   id="line1172" />
		</g>
		<g
   class="st2"
   id="g1220">
			<line
   y1="217.3"
   x2="329.2"
   x1="229.2"
   y2="217.3"
   class="st5"
   id="line1176" />
			<line
   y1="208.9"
   x2="329.2"
   x1="229.2"
   y2="208.9"
   class="st5"
   id="line1178" />
			<line
   y1="200.6"
   x2="329.2"
   x1="229.2"
   y2="200.6"
   class="st5"
   id="line1180" />
			<line
   y1="192.3"
   x2="329.2"
   x1="229.2"
   y2="192.3"
   class="st5"
   id="line1182" />
			<line
   y1="183.9"
   x2="329.2"
   x1="229.2"
   y2="183.9"
   class="st5"
   id="line1184" />
			<line
   y1="175.6"
   x2="329.2"
   x1="229.2"
   y2="175.6"
   class="st5"
   id="line1186" />
			<line
   y1="167.3"
   x2="329.2"
   x1="229.2"
   y2="167.3"
   class="st5"
   id="line1188" />
			<line
   y1="158.9"
   x2="329.2"
   x1="229.2"
   y2="158.9"
   class="st5"
   id="line1190" />
			<line
   y1="150.6"
   x2="329.2"
   x1="229.2"
   y2="150.6"
   class="st5"
   id="line1192" />
			<line
   y1="142.3"
   x2="329.2"
   x1="229.2"
   y2="142.3"
   class="st5"
   id="line1194" />
			<line
   y1="133.9"
   x2="329.2"
   x1="229.2"
   y2="133.9"
   class="st5"
   id="line1196" />
			<line
   y1="125.6"
   x2="320.8"
   x1="320.8"
   y2="225.6"
   class="st5"
   id="line1198" />
			<line
   y1="125.6"
   x2="312.5"
   x1="312.5"
   y2="225.6"
   class="st5"
   id="line1200" />
			<line
   y1="125.6"
   x2="304.2"
   x1="304.2"
   y2="225.6"
   class="st5"
   id="line1202" />
			<line
   y1="125.6"
   x2="295.8"
   x1="295.8"
   y2="225.6"
   class="st5"
   id="line1204" />
			<line
   y1="125.6"
   x2="287.5"
   x1="287.5"
   y2="225.6"
   class="st5"
   id="line1206" />
			<line
   y1="125.6"
   x2="279.2"
   x1="279.2"
   y2="225.6"
   class="st5"
   id="line1208" />
			<line
   y1="125.6"
   x2="270.8"
   x1="270.8"
   y2="225.6"
   class="st5"
   id="line1210" />
			<line
   y1="125.6"
   x2="262.5"
   x1="262.5"
   y2="225.6"
   class="st5"
   id="line1212" />
			<line
   y1="125.6"
   x2="254.2"
   x1="254.2"
   y2="225.6"
   class="st5"
   id="line1214" />
			<line
   y1="125.6"
   x2="245.8"
   x1="245.8"
   y2="225.6"
   class="st5"
   id="line1216" />
			<line
   y1="125.6"
   x2="237.5"
   x1="237.5"
   y2="225.6"
   class="st5"
   id="line1218" />
		</g>
		<g
   class="st2"
   id="g1282">
				<line
   y1="117.3"
   x2="362.5"
   x1="329.2"
   y2="117.3"
   class="st5"
   id="line1222" />
				<line
   y1="108.9"
   x2="362.5"
   x1="329.2"
   y2="108.9"
   class="st5"
   id="line1224" />
				<line
   y1="100.6"
   x2="362.5"
   x1="329.2"
   y2="100.6"
   class="st5"
   id="line1226" />
				<line
   y1="92.3"
   x2="362.5"
   x1="329.2"
   y2="92.3"
   class="st5"
   id="line1228" />
				<line
   y1="83.9"
   x2="362.5"
   x1="329.2"
   y2="83.9"
   class="st5"
   id="line1230" />
				<line
   y1="75.6"
   x2="362.5"
   x1="329.2"
   y2="75.6"
   class="st5"
   id="line1232" />
				<line
   y1="67.3"
   x2="362.5"
   x1="329.2"
   y2="67.3"
   class="st5"
   id="line1234" />
				<line
   y1="58.9"
   x2="362.5"
   x1="329.2"
   y2="58.9"
   class="st5"
   id="line1236" />
				<line
   y1="50.6"
   x2="362.5"
   x1="329.2"
   y2="50.6"
   class="st5"
   id="line1238" />
				<line
   y1="42.3"
   x2="362.5"
   x1="329.2"
   y2="42.3"
   class="st5"
   id="line1240" />
				<line
   y1="33.9"
   x2="362.5"
   x1="329.2"
   y2="33.9"
   class="st5"
   id="line1242" />
				<line
   y1="25.6"
   x2="362.5"
   x1="362.5"
   y2="125.6"
   class="st5"
   id="line1244" />
				<line
   y1="25.6"
   x2="354.2"
   x1="354.2"
   y2="125.6"
   class="st5"
   id="line1246" />
				<line
   y1="25.6"
   x2="345.8"
   x1="345.8"
   y2="125.6"
   class="st5"
   id="line1248" />
				<line
   y1="25.6"
   x2="337.5"
   x1="337.5"
   y2="125.6"
   class="st5"
   id="line1250" />
				<line
   y1="217.3"
   x2="362.5"
   x1="329.2"
   y2="217.3"
   class="st5"
   id="line1252" />
				<line
   y1="208.9"
   x2="362.5"
   x1="329.2"
   y2="208.9"
   class="st5"
   id="line1254" />
				<line
   y1="200.6"
   x2="362.5"
   x1="329.2"
   y2="200.6"
   class="st5"
   id="line1256" />
				<line
   y1="192.3"
   x2="362.5"
   x1="329.2"
   y2="192.3"
   class="st5"
   id="line1258" />
				<line
   y1="183.9"
   x2="362.5"
   x1="329.2"
   y2="183.9"
   class="st5"
   id="line1260" />
				<line
   y1="175.6"
   x2="362.5"
   x1="329.2"
   y2="175.6"
   class="st5"
   id="line1262" />
				<line
   y1="167.3"
   x2="362.5"
   x1="329.2"
   y2="167.3"
   class="st5"
   id="line1264" />
				<line
   y1="158.9"
   x2="362.5"
   x1="329.2"
   y2="158.9"
   class="st5"
   id="line1266" />
				<line
   y1="150.6"
   x2="362.5"
   x1="329.2"
   y2="150.6"
   class="st5"
   id="line1268" />
				<line
   y1="142.3"
   x2="362.5"
   x1="329.2"
   y2="142.3"
   class="st5"
   id="line1270" />
				<line
   y1="133.9"
   x2="362.5"
   x1="329.2"
   y2="133.9"
   class="st5"
   id="line1272" />
				<line
   y1="125.6"
   x2="362.5"
   x1="362.5"
   y2="225.6"
   class="st5"
   id="line1274" />
				<line
   y1="125.6"
   x2="354.2"
   x1="354.2"
   y2="225.6"
   class="st5"
   id="line1276" />
				<line
   y1="125.6"
   x2="345.8"
   x1="345.8"
   y2="225.6"
   class="st5"
   id="line1278" />
				<line
   y1="125.6"
   x2="337.5"
   x1="337.5"
   y2="225.6"
   class="st5"
   id="line1280" />
		</g>
		<rect
   y="25.6"
   x="29.2"
   height="200"
   class="st5"
   width="333.3"
   id="rect1284" />
	</g>
	<g
   class="st1"
   id="g1714">
		<g
   class="st2"
   id="g1332">
			<line
   y1="208.9"
   x2="663.8"
   x1="463.8"
   y2="208.9"
   class="st3"
   id="line1288" />
			<line
   y1="192.3"
   x2="663.8"
   x1="463.8"
   y2="192.3"
   class="st3"
   id="line1290" />
			<line
   y1="175.6"
   x2="663.8"
   x1="463.8"
   y2="175.6"
   class="st3"
   id="line1292" />
			<line
   y1="158.9"
   x2="663.8"
   x1="463.8"
   y2="158.9"
   class="st3"
   id="line1294" />
			<line
   y1="142.3"
   x2="663.8"
   x1="463.8"
   y2="142.3"
   class="st3"
   id="line1296" />
			<line
   y1="125.6"
   x2="663.8"
   x1="463.8"
   y2="125.6"
   class="st3"
   id="line1298" />
			<line
   y1="108.9"
   x2="663.8"
   x1="463.8"
   y2="108.9"
   class="st3"
   id="line1300" />
			<line
   y1="92.3"
   x2="663.8"
   x1="463.8"
   y2="92.3"
   class="st3"
   id="line1302" />
			<line
   y1="75.6"
   x2="663.8"
   x1="463.8"
   y2="75.6"
   class="st3"
   id="line1304" />
			<line
   y1="58.9"
   x2="663.8"
   x1="463.8"
   y2="58.9"
   class="st3"
   id="line1306" />
			<line
   y1="42.3"
   x2="663.8"
   x1="463.8"
   y2="42.3"
   class="st3"
   id="line1308" />
			<line
   y1="25.6"
   x2="647.1"
   x1="647.1"
   y2="225.6"
   class="st3"
   id="line1310" />
			<line
   y1="25.6"
   x2="630.4"
   x1="630.4"
   y2="225.6"
   class="st3"
   id="line1312" />
			<line
   y1="25.6"
   x2="613.8"
   x1="613.8"
   y2="225.6"
   class="st3"
   id="line1314" />
			<line
   y1="25.6"
   x2="597.1"
   x1="597.1"
   y2="225.6"
   class="st3"
   id="line1316" />
			<line
   y1="25.6"
   x2="580.4"
   x1="580.4"
   y2="225.6"
   class="st3"
   id="line1318" />
			<line
   y1="25.6"
   x2="563.8"
   x1="563.8"
   y2="225.6"
   class="st3"
   id="line1320" />
			<line
   y1="25.6"
   x2="547.1"
   x1="547.1"
   y2="225.6"
   class="st3"
   id="line1322" />
			<line
   y1="25.6"
   x2="530.4"
   x1="530.4"
   y2="225.6"
   class="st3"
   id="line1324" />
			<line
   y1="25.6"
   x2="513.8"
   x1="513.8"
   y2="225.6"
   class="st3"
   id="line1326" />
			<line
   y1="25.6"
   x2="497.1"
   x1="497.1"
   y2="225.6"
   class="st3"
   id="line1328" />
			<line
   y1="25.6"
   x2="480.4"
   x1="480.4"
   y2="225.6"
   class="st3"
   id="line1330" />
		</g>
		<g
   class="st2"
   id="g1370">
			<line
   y1="208.9"
   x2="797.1"
   x1="663.8"
   y2="208.9"
   class="st3"
   id="line1334" />
			<line
   y1="192.3"
   x2="797.1"
   x1="663.8"
   y2="192.3"
   class="st3"
   id="line1336" />
			<line
   y1="175.6"
   x2="797.1"
   x1="663.8"
   y2="175.6"
   class="st3"
   id="line1338" />
			<line
   y1="158.9"
   x2="797.1"
   x1="663.8"
   y2="158.9"
   class="st3"
   id="line1340" />
			<line
   y1="142.3"
   x2="797.1"
   x1="663.8"
   y2="142.3"
   class="st3"
   id="line1342" />
			<line
   y1="125.6"
   x2="797.1"
   x1="663.8"
   y2="125.6"
   class="st3"
   id="line1344" />
			<line
   y1="108.9"
   x2="797.1"
   x1="663.8"
   y2="108.9"
   class="st3"
   id="line1346" />
			<line
   y1="92.3"
   x2="797.1"
   x1="663.8"
   y2="92.3"
   class="st3"
   id="line1348" />
			<line
   y1="75.6"
   x2="797.1"
   x1="663.8"
   y2="75.6"
   class="st3"
   id="line1350" />
			<line
   y1="58.9"
   x2="797.1"
   x1="663.8"
   y2="58.9"
   class="st3"
   id="line1352" />
			<line
   y1="42.3"
   x2="797.1"
   x1="663.8"
   y2="42.3"
   class="st3"
   id="line1354" />
			<line
   y1="25.6"
   x2="780.4"
   x1="780.4"
   y2="225.6"
   class="st3"
   id="line1356" />
			<line
   y1="25.6"
   x2="763.8"
   x1="763.8"
   y2="225.6"
   class="st3"
   id="line1358" />
			<line
   y1="25.6"
   x2="747.1"
   x1="747.1"
   y2="225.6"
   class="st3"
   id="line1360" />
			<line
   y1="25.6"
   x2="730.4"
   x1="730.4"
   y2="225.6"
   class="st3"
   id="line1362" />
			<line
   y1="25.6"
   x2="713.8"
   x1="713.8"
   y2="225.6"
   class="st3"
   id="line1364" />
			<line
   y1="25.6"
   x2="697.1"
   x1="697.1"
   y2="225.6"
   class="st3"
   id="line1366" />
			<line
   y1="25.6"
   x2="680.4"
   x1="680.4"
   y2="225.6"
   class="st3"
   id="line1368" />
		</g>
		<line
   y1="25.6"
   x2="663.8"
   x1="663.8"
   y2="225.6"
   class="st4"
   id="line1372" />
		<g
   class="st2"
   id="g1418">
			<line
   y1="117.3"
   x2="563.8"
   x1="463.8"
   y2="117.3"
   class="st5"
   id="line1374" />
			<line
   y1="108.9"
   x2="563.8"
   x1="463.8"
   y2="108.9"
   class="st5"
   id="line1376" />
			<line
   y1="100.6"
   x2="563.8"
   x1="463.8"
   y2="100.6"
   class="st5"
   id="line1378" />
			<line
   y1="92.3"
   x2="563.8"
   x1="463.8"
   y2="92.3"
   class="st5"
   id="line1380" />
			<line
   y1="83.9"
   x2="563.8"
   x1="463.8"
   y2="83.9"
   class="st5"
   id="line1382" />
			<line
   y1="75.6"
   x2="563.8"
   x1="463.8"
   y2="75.6"
   class="st5"
   id="line1384" />
			<line
   y1="67.3"
   x2="563.8"
   x1="463.8"
   y2="67.3"
   class="st5"
   id="line1386" />
			<line
   y1="58.9"
   x2="563.8"
   x1="463.8"
   y2="58.9"
   class="st5"
   id="line1388" />
			<line
   y1="50.6"
   x2="563.8"
   x1="463.8"
   y2="50.6"
   class="st5"
   id="line1390" />
			<line
   y1="42.3"
   x2="563.8"
   x1="463.8"
   y2="42.3"
   class="st5"
   id="line1392" />
			<line
   y1="33.9"
   x2="563.8"
   x1="463.8"
   y2="33.9"
   class="st5"
   id="line1394" />
			<line
   y1="25.6"
   x2="555.4"
   x1="555.4"
   y2="125.6"
   class="st5"
   id="line1396" />
			<line
   y1="25.6"
   x2="547.1"
   x1="547.1"
   y2="125.6"
   class="st5"
   id="line1398" />
			<line
   y1="25.6"
   x2="538.8"
   x1="538.8"
   y2="125.6"
   class="st5"
   id="line1400" />
			<line
   y1="25.6"
   x2="530.4"
   x1="530.4"
   y2="125.6"
   class="st5"
   id="line1402" />
			<line
   y1="25.6"
   x2="522.1"
   x1="522.1"
   y2="125.6"
   class="st5"
   id="line1404" />
			<line
   y1="25.6"
   x2="513.8"
   x1="513.8"
   y2="125.6"
   class="st5"
   id="line1406" />
			<line
   y1="25.6"
   x2="505.4"
   x1="505.4"
   y2="125.6"
   class="st5"
   id="line1408" />
			<line
   y1="25.6"
   x2="497.1"
   x1="497.1"
   y2="125.6"
   class="st5"
   id="line1410" />
			<line
   y1="25.6"
   x2="488.8"
   x1="488.8"
   y2="125.6"
   class="st5"
   id="line1412" />
			<line
   y1="25.6"
   x2="480.4"
   x1="480.4"
   y2="125.6"
   class="st5"
   id="line1414" />
			<line
   y1="25.6"
   x2="472.1"
   x1="472.1"
   y2="125.6"
   class="st5"
   id="line1416" />
		</g>
		<g
   class="st2"
   id="g1464">
			<line
   y1="217.3"
   x2="563.8"
   x1="463.8"
   y2="217.3"
   class="st5"
   id="line1420" />
			<line
   y1="208.9"
   x2="563.8"
   x1="463.8"
   y2="208.9"
   class="st5"
   id="line1422" />
			<line
   y1="200.6"
   x2="563.8"
   x1="463.8"
   y2="200.6"
   class="st5"
   id="line1424" />
			<line
   y1="192.3"
   x2="563.8"
   x1="463.8"
   y2="192.3"
   class="st5"
   id="line1426" />
			<line
   y1="183.9"
   x2="563.8"
   x1="463.8"
   y2="183.9"
   class="st5"
   id="line1428" />
			<line
   y1="175.6"
   x2="563.8"
   x1="463.8"
   y2="175.6"
   class="st5"
   id="line1430" />
			<line
   y1="167.3"
   x2="563.8"
   x1="463.8"
   y2="167.3"
   class="st5"
   id="line1432" />
			<line
   y1="158.9"
   x2="563.8"
   x1="463.8"
   y2="158.9"
   class="st5"
   id="line1434" />
			<line
   y1="150.6"
   x2="563.8"
   x1="463.8"
   y2="150.6"
   class="st5"
   id="line1436" />
			<line
   y1="142.3"
   x2="563.8"
   x1="463.8"
   y2="142.3"
   class="st5"
   id="line1438" />
			<line
   y1="133.9"
   x2="563.8"
   x1="463.8"
   y2="133.9"
   class="st5"
   id="line1440" />
			<line
   y1="125.6"
   x2="555.4"
   x1="555.4"
   y2="225.6"
   class="st5"
   id="line1442" />
			<line
   y1="125.6"
   x2="547.1"
   x1="547.1"
   y2="225.6"
   class="st5"
   id="line1444" />
			<line
   y1="125.6"
   x2="538.8"
   x1="538.8"
   y2="225.6"
   class="st5"
   id="line1446" />
			<line
   y1="125.6"
   x2="530.4"
   x1="530.4"
   y2="225.6"
   class="st5"
   id="line1448" />
			<line
   y1="125.6"
   x2="522.1"
   x1="522.1"
   y2="225.6"
   class="st5"
   id="line1450" />
			<line
   y1="125.6"
   x2="513.8"
   x1="513.8"
   y2="225.6"
   class="st5"
   id="line1452" />
			<line
   y1="125.6"
   x2="505.4"
   x1="505.4"
   y2="225.6"
   class="st5"
   id="line1454" />
			<line
   y1="125.6"
   x2="497.1"
   x1="497.1"
   y2="225.6"
   class="st5"
   id="line1456" />
			<line
   y1="125.6"
   x2="488.8"
   x1="488.8"
   y2="225.6"
   class="st5"
   id="line1458" />
			<line
   y1="125.6"
   x2="480.4"
   x1="480.4"
   y2="225.6"
   class="st5"
   id="line1460" />
			<line
   y1="125.6"
   x2="472.1"
   x1="472.1"
   y2="225.6"
   class="st5"
   id="line1462" />
		</g>
		<g
   class="st2"
   id="g1510">
			<line
   y1="117.3"
   x2="663.8"
   x1="563.8"
   y2="117.3"
   class="st5"
   id="line1466" />
			<line
   y1="108.9"
   x2="663.8"
   x1="563.8"
   y2="108.9"
   class="st5"
   id="line1468" />
			<line
   y1="100.6"
   x2="663.8"
   x1="563.8"
   y2="100.6"
   class="st5"
   id="line1470" />
			<line
   y1="92.3"
   x2="663.8"
   x1="563.8"
   y2="92.3"
   class="st5"
   id="line1472" />
			<line
   y1="83.9"
   x2="663.8"
   x1="563.8"
   y2="83.9"
   class="st5"
   id="line1474" />
			<line
   y1="75.6"
   x2="663.8"
   x1="563.8"
   y2="75.6"
   class="st5"
   id="line1476" />
			<line
   y1="67.3"
   x2="663.8"
   x1="563.8"
   y2="67.3"
   class="st5"
   id="line1478" />
			<line
   y1="58.9"
   x2="663.8"
   x1="563.8"
   y2="58.9"
   class="st5"
   id="line1480" />
			<line
   y1="50.6"
   x2="663.8"
   x1="563.8"
   y2="50.6"
   class="st5"
   id="line1482" />
			<line
   y1="42.3"
   x2="663.8"
   x1="563.8"
   y2="42.3"
   class="st5"
   id="line1484" />
			<line
   y1="33.9"
   x2="663.8"
   x1="563.8"
   y2="33.9"
   class="st5"
   id="line1486" />
			<line
   y1="25.6"
   x2="655.4"
   x1="655.4"
   y2="125.6"
   class="st5"
   id="line1488" />
			<line
   y1="25.6"
   x2="647.1"
   x1="647.1"
   y2="125.6"
   class="st5"
   id="line1490" />
			<line
   y1="25.6"
   x2="638.8"
   x1="638.8"
   y2="125.6"
   class="st5"
   id="line1492" />
			<line
   y1="25.6"
   x2="630.4"
   x1="630.4"
   y2="125.6"
   class="st5"
   id="line1494" />
			<line
   y1="25.6"
   x2="622.1"
   x1="622.1"
   y2="125.6"
   class="st5"
   id="line1496" />
			<line
   y1="25.6"
   x2="613.8"
   x1="613.8"
   y2="125.6"
   class="st5"
   id="line1498" />
			<line
   y1="25.6"
   x2="605.4"
   x1="605.4"
   y2="125.6"
   class="st5"
   id="line1500" />
			<line
   y1="25.6"
   x2="597.1"
   x1="597.1"
   y2="125.6"
   class="st5"
   id="line1502" />
			<line
   y1="25.6"
   x2="588.8"
   x1="588.8"
   y2="125.6"
   class="st5"
   id="line1504" />
			<line
   y1="25.6"
   x2="580.4"
   x1="580.4"
   y2="125.6"
   class="st5"
   id="line1506" />
			<line
   y1="25.6"
   x2="572.1"
   x1="572.1"
   y2="125.6"
   class="st5"
   id="line1508" />
		</g>
		<g
   class="st2"
   id="g1556">
			<line
   y1="217.3"
   x2="663.8"
   x1="563.8"
   y2="217.3"
   class="st5"
   id="line1512" />
			<line
   y1="208.9"
   x2="663.8"
   x1="563.8"
   y2="208.9"
   class="st5"
   id="line1514" />
			<line
   y1="200.6"
   x2="663.8"
   x1="563.8"
   y2="200.6"
   class="st5"
   id="line1516" />
			<line
   y1="192.3"
   x2="663.8"
   x1="563.8"
   y2="192.3"
   class="st5"
   id="line1518" />
			<line
   y1="183.9"
   x2="663.8"
   x1="563.8"
   y2="183.9"
   class="st5"
   id="line1520" />
			<line
   y1="175.6"
   x2="663.8"
   x1="563.8"
   y2="175.6"
   class="st5"
   id="line1522" />
			<line
   y1="167.3"
   x2="663.8"
   x1="563.8"
   y2="167.3"
   class="st5"
   id="line1524" />
			<line
   y1="158.9"
   x2="663.8"
   x1="563.8"
   y2="158.9"
   class="st5"
   id="line1526" />
			<line
   y1="150.6"
   x2="663.8"
   x1="563.8"
   y2="150.6"
   class="st5"
   id="line1528" />
			<line
   y1="142.3"
   x2="663.8"
   x1="563.8"
   y2="142.3"
   class="st5"
   id="line1530" />
			<line
   y1="133.9"
   x2="663.8"
   x1="563.8"
   y2="133.9"
   class="st5"
   id="line1532" />
			<line
   y1="125.6"
   x2="655.4"
   x1="655.4"
   y2="225.6"
   class="st5"
   id="line1534" />
			<line
   y1="125.6"
   x2="647.1"
   x1="647.1"
   y2="225.6"
   class="st5"
   id="line1536" />
			<line
   y1="125.6"
   x2="638.8"
   x1="638.8"
   y2="225.6"
   class="st5"
   id="line1538" />
			<line
   y1="125.6"
   x2="630.4"
   x1="630.4"
   y2="225.6"
   class="st5"
   id="line1540" />
			<line
   y1="125.6"
   x2="622.1"
   x1="622.1"
   y2="225.6"
   class="st5"
   id="line1542" />
			<line
   y1="125.6"
   x2="613.8"
   x1="613.8"
   y2="225.6"
   class="st5"
   id="line1544" />
			<line
   y1="125.6"
   x2="605.4"
   x1="605.4"
   y2="225.6"
   class="st5"
   id="line1546" />
			<line
   y1="125.6"
   x2="597.1"
   x1="597.1"
   y2="225.6"
   class="st5"
   id="line1548" />
			<line
   y1="125.6"
   x2="588.8"
   x1="588.8"
   y2="225.6"
   class="st5"
   id="line1550" />
			<line
   y1="125.6"
   x2="580.4"
   x1="580.4"
   y2="225.6"
   class="st5"
   id="line1552" />
			<line
   y1="125.6"
   x2="572.1"
   x1="572.1"
   y2="225.6"
   class="st5"
   id="line1554" />
		</g>
		<g
   class="st2"
   id="g1602">
			<line
   y1="117.3"
   x2="763.8"
   x1="663.8"
   y2="117.3"
   class="st5"
   id="line1558" />
			<line
   y1="108.9"
   x2="763.8"
   x1="663.8"
   y2="108.9"
   class="st5"
   id="line1560" />
			<line
   y1="100.6"
   x2="763.8"
   x1="663.8"
   y2="100.6"
   class="st5"
   id="line1562" />
			<line
   y1="92.3"
   x2="763.8"
   x1="663.8"
   y2="92.3"
   class="st5"
   id="line1564" />
			<line
   y1="83.9"
   x2="763.8"
   x1="663.8"
   y2="83.9"
   class="st5"
   id="line1566" />
			<line
   y1="75.6"
   x2="763.8"
   x1="663.8"
   y2="75.6"
   class="st5"
   id="line1568" />
			<line
   y1="67.3"
   x2="763.8"
   x1="663.8"
   y2="67.3"
   class="st5"
   id="line1570" />
			<line
   y1="58.9"
   x2="763.8"
   x1="663.8"
   y2="58.9"
   class="st5"
   id="line1572" />
			<line
   y1="50.6"
   x2="763.8"
   x1="663.8"
   y2="50.6"
   class="st5"
   id="line1574" />
			<line
   y1="42.3"
   x2="763.8"
   x1="663.8"
   y2="42.3"
   class="st5"
   id="line1576" />
			<line
   y1="33.9"
   x2="763.8"
   x1="663.8"
   y2="33.9"
   class="st5"
   id="line1578" />
			<line
   y1="25.6"
   x2="755.4"
   x1="755.4"
   y2="125.6"
   class="st5"
   id="line1580" />
			<line
   y1="25.6"
   x2="747.1"
   x1="747.1"
   y2="125.6"
   class="st5"
   id="line1582" />
			<line
   y1="25.6"
   x2="738.8"
   x1="738.8"
   y2="125.6"
   class="st5"
   id="line1584" />
			<line
   y1="25.6"
   x2="730.4"
   x1="730.4"
   y2="125.6"
   class="st5"
   id="line1586" />
			<line
   y1="25.6"
   x2="722.1"
   x1="722.1"
   y2="125.6"
   class="st5"
   id="line1588" />
			<line
   y1="25.6"
   x2="713.8"
   x1="713.8"
   y2="125.6"
   class="st5"
   id="line1590" />
			<line
   y1="25.6"
   x2="705.4"
   x1="705.4"
   y2="125.6"
   class="st5"
   id="line1592" />
			<line
   y1="25.6"
   x2="697.1"
   x1="697.1"
   y2="125.6"
   class="st5"
   id="line1594" />
			<line
   y1="25.6"
   x2="688.8"
   x1="688.8"
   y2="125.6"
   class="st5"
   id="line1596" />
			<line
   y1="25.6"
   x2="680.4"
   x1="680.4"
   y2="125.6"
   class="st5"
   id="line1598" />
			<line
   y1="25.6"
   x2="672.1"
   x1="672.1"
   y2="125.6"
   class="st5"
   id="line1600" />
		</g>
		<g
   class="st2"
   id="g1648">
			<line
   y1="217.3"
   x2="763.8"
   x1="663.8"
   y2="217.3"
   class="st5"
   id="line1604" />
			<line
   y1="208.9"
   x2="763.8"
   x1="663.8"
   y2="208.9"
   class="st5"
   id="line1606" />
			<line
   y1="200.6"
   x2="763.8"
   x1="663.8"
   y2="200.6"
   class="st5"
   id="line1608" />
			<line
   y1="192.3"
   x2="763.8"
   x1="663.8"
   y2="192.3"
   class="st5"
   id="line1610" />
			<line
   y1="183.9"
   x2="763.8"
   x1="663.8"
   y2="183.9"
   class="st5"
   id="line1612" />
			<line
   y1="175.6"
   x2="763.8"
   x1="663.8"
   y2="175.6"
   class="st5"
   id="line1614" />
			<line
   y1="167.3"
   x2="763.8"
   x1="663.8"
   y2="167.3"
   class="st5"
   id="line1616" />
			<line
   y1="158.9"
   x2="763.8"
   x1="663.8"
   y2="158.9"
   class="st5"
   id="line1618" />
			<line
   y1="150.6"
   x2="763.8"
   x1="663.8"
   y2="150.6"
   class="st5"
   id="line1620" />
			<line
   y1="142.3"
   x2="763.8"
   x1="663.8"
   y2="142.3"
   class="st5"
   id="line1622" />
			<line
   y1="133.9"
   x2="763.8"
   x1="663.8"
   y2="133.9"
   class="st5"
   id="line1624" />
			<line
   y1="125.6"
   x2="755.4"
   x1="755.4"
   y2="225.6"
   class="st5"
   id="line1626" />
			<line
   y1="125.6"
   x2="747.1"
   x1="747.1"
   y2="225.6"
   class="st5"
   id="line1628" />
			<line
   y1="125.6"
   x2="738.8"
   x1="738.8"
   y2="225.6"
   class="st5"
   id="line1630" />
			<line
   y1="125.6"
   x2="730.4"
   x1="730.4"
   y2="225.6"
   class="st5"
   id="line1632" />
			<line
   y1="125.6"
   x2="722.1"
   x1="722.1"
   y2="225.6"
   class="st5"
   id="line1634" />
			<line
   y1="125.6"
   x2="713.8"
   x1="713.8"
   y2="225.6"
   class="st5"
   id="line1636" />
			<line
   y1="125.6"
   x2="705.4"
   x1="705.4"
   y2="225.6"
   class="st5"
   id="line1638" />
			<line
   y1="125.6"
   x2="697.1"
   x1="697.1"
   y2="225.6"
   class="st5"
   id="line1640" />
			<line
   y1="125.6"
   x2="688.8"
   x1="688.8"
   y2="225.6"
   class="st5"
   id="line1642" />
			<line
   y1="125.6"
   x2="680.4"
   x1="680.4"
   y2="225.6"
   class="st5"
   id="line1644" />
			<line
   y1="125.6"
   x2="672.1"
   x1="672.1"
   y2="225.6"
   class="st5"
   id="line1646" />
		</g>
		<g
   class="st2"
   id="g1710">
				<line
   y1="117.3"
   x2="797.1"
   x1="763.8"
   y2="117.3"
   class="st5"
   id="line1650" />
				<line
   y1="108.9"
   x2="797.1"
   x1="763.8"
   y2="108.9"
   class="st5"
   id="line1652" />
				<line
   y1="100.6"
   x2="797.1"
   x1="763.8"
   y2="100.6"
   class="st5"
   id="line1654" />
				<line
   y1="92.3"
   x2="797.1"
   x1="763.8"
   y2="92.3"
   class="st5"
   id="line1656" />
				<line
   y1="83.9"
   x2="797.1"
   x1="763.8"
   y2="83.9"
   class="st5"
   id="line1658" />
				<line
   y1="75.6"
   x2="797.1"
   x1="763.8"
   y2="75.6"
   class="st5"
   id="line1660" />
				<line
   y1="67.3"
   x2="797.1"
   x1="763.8"
   y2="67.3"
   class="st5"
   id="line1662" />
				<line
   y1="58.9"
   x2="797.1"
   x1="763.8"
   y2="58.9"
   class="st5"
   id="line1664" />
				<line
   y1="50.6"
   x2="797.1"
   x1="763.8"
   y2="50.6"
   class="st5"
   id="line1666" />
				<line
   y1="42.3"
   x2="797.1"
   x1="763.8"
   y2="42.3"
   class="st5"
   id="line1668" />
				<line
   y1="33.9"
   x2="797.1"
   x1="763.8"
   y2="33.9"
   class="st5"
   id="line1670" />
				<line
   y1="25.6"
   x2="797.1"
   x1="797.1"
   y2="125.6"
   class="st5"
   id="line1672" />
				<line
   y1="25.6"
   x2="788.8"
   x1="788.8"
   y2="125.6"
   class="st5"
   id="line1674" />
				<line
   y1="25.6"
   x2="780.4"
   x1="780.4"
   y2="125.6"
   class="st5"
   id="line1676" />
				<line
   y1="25.6"
   x2="772.1"
   x1="772.1"
   y2="125.6"
   class="st5"
   id="line1678" />
				<line
   y1="217.3"
   x2="797.1"
   x1="763.8"
   y2="217.3"
   class="st5"
   id="line1680" />
				<line
   y1="208.9"
   x2="797.1"
   x1="763.8"
   y2="208.9"
   class="st5"
   id="line1682" />
				<line
   y1="200.6"
   x2="797.1"
   x1="763.8"
   y2="200.6"
   class="st5"
   id="line1684" />
				<line
   y1="192.3"
   x2="797.1"
   x1="763.8"
   y2="192.3"
   class="st5"
   id="line1686" />
				<line
   y1="183.9"
   x2="797.1"
   x1="763.8"
   y2="183.9"
   class="st5"
   id="line1688" />
				<line
   y1="175.6"
   x2="797.1"
   x1="763.8"
   y2="175.6"
   class="st5"
   id="line1690" />
				<line
   y1="167.3"
   x2="797.1"
   x1="763.8"
   y2="167.3"
   class="st5"
   id="line1692" />
				<line
   y1="158.9"
   x2="797.1"
   x1="763.8"
   y2="158.9"
   class="st5"
   id="line1694" />
				<line
   y1="150.6"
   x2="797.1"
   x1="763.8"
   y2="150.6"
   class="st5"
   id="line1696" />
				<line
   y1="142.3"
   x2="797.1"
   x1="763.8"
   y2="142.3"
   class="st5"
   id="line1698" />
				<line
   y1="133.9"
   x2="797.1"
   x1="763.8"
   y2="133.9"
   class="st5"
   id="line1700" />
				<line
   y1="125.6"
   x2="797.1"
   x1="797.1"
   y2="225.6"
   class="st5"
   id="line1702" />
				<line
   y1="125.6"
   x2="788.8"
   x1="788.8"
   y2="225.6"
   class="st5"
   id="line1704" />
				<line
   y1="125.6"
   x2="780.4"
   x1="780.4"
   y2="225.6"
   class="st5"
   id="line1706" />
				<line
   y1="125.6"
   x2="772.1"
   x1="772.1"
   y2="225.6"
   class="st5"
   id="line1708" />
		</g>
		<rect
   y="25.6"
   x="463.8"
   height="200"
   class="st5"
   width="333.3"
   id="rect1712" />
	</g>
	<text
   transform="translate(41.745 310.29)"
   font-size="9px"
   font-family="'ArialMT'"
   fill="#D3D3D3"
   id="text1716">Wifi manager app</text>
	<text
   transform="translate(166.31 310.29)"
   font-size="9px"
   font-family="'ArialMT'"
   fill="#D3D3D3"
   id="text1718">Chat app</text>
	<text
   transform="translate(268.39 310.29)"
   font-size="9px"
   font-family="'ArialMT'"
   fill="#D3D3D3"
   id="text1720">Security app</text>
	<text
   transform="translate(42.164 537.62)"
   font-size="9px"
   font-family="'ArialMT'"
   fill="#D3D3D3"
   id="text1722">Control / Settings</text>
	<text
   transform="translate(160.56 537.62)"
   font-size="9px"
   font-family="'ArialMT'"
   fill="#D3D3D3"
   id="text1724">Analytics (1)</text>
	<text
   transform="translate(270.63 537.62)"
   font-size="9px"
   font-family="'ArialMT'"
   fill="#D3D3D3"
   id="text1726">Games app</text>
</g>
		<path
   class="st6"
   d="m321 228h-25c-0.6 0-1-0.4-1-1v-25c0-0.6 0.4-1 1-1h25c0.6 0 1 0.4 1 1v25c0 0.5-0.4 1-1 1zm-24-2h23v-23h-23v23z"
   id="path1729" />
		<path
   class="st6"
   d="m279.5 228h-16.7c-0.6 0-1-0.4-1-1v-16.7c0-0.6 0.4-1 1-1h16.7c0.6 0 1 0.4 1 1v16.7c0 0.5-0.5 1-1 1zm-15.7-2h14.7v-14.7h-14.7v14.7z"
   id="path1731" />
		<path
   class="st6"
   d="m237.8 178h-25c-0.6 0-1-0.4-1-1v-16.7c0-0.6 0.4-1 1-1h25c0.6 0 1 0.4 1 1v16.7c0 0.5-0.6 1-1 1zm-24-2h23v-14.7h-23v14.7z"
   id="path1733" />
	<path
   class="st7"
   d="m271 211.3c-0.6 0-1-0.4-1-1v-8.3c0-0.6 0.4-1 1-1s1 0.4 1 1v8.3c0 0.6-0.4 1-1 1z"
   id="path1735" />
	<path
   class="st7"
   d="m329.5 211.3h-8.3c-0.6 0-1-0.4-1-1s0.4-1 1-1h8.3c0.6 0 1 0.4 1 1s-0.5 1-1 1z"
   id="path1737" />
	<path
   class="st7"
   d="m304.5 144.7h-8.3c-0.6 0-1-0.4-1-1s0.4-1 1-1h8.3c0.6 0 1 0.4 1 1s-0.5 1-1 1z"
   id="path1739" />
	<path
   class="st7"
   d="m304.5 153h-8.3c-0.6 0-1-0.4-1-1s0.4-1 1-1h8.3c0.6 0 1 0.4 1 1s-0.5 1-1 1z"
   id="path1741" />
	<path
   class="st7"
   d="m304.5 161.3h-8.3c-0.6 0-1-0.4-1-1s0.4-1 1-1h8.3c0.6 0 1 0.4 1 1s-0.5 1-1 1z"
   id="path1743" />
	<path
   class="st7"
   d="m312.8 203c-0.6 0-1-0.4-1-1v-8.3c0-0.6 0.4-1 1-1s1 0.4 1 1v8.3c0 0.5-0.6 1-1 1z"
   id="path1745" />
	<path
   class="st7"
   d="m304.5 203c-0.6 0-1-0.4-1-1v-8.3c0-0.6 0.4-1 1-1s1 0.4 1 1v8.3c0 0.5-0.5 1-1 1z"
   id="path1747" />
	<path
   class="st7"
   d="m262.8 144.7h-8.3c-0.6 0-1-0.4-1-1v-8.3c0-0.6 0.4-1 1-1s1 0.4 1 1v7.3h7.3c0.6 0 1 0.4 1 1s-0.6 1-1 1z"
   id="path1749" />
	<path
   class="st7"
   d="m262.8 153h-16.7c-0.6 0-1-0.4-1-1s0.4-1 1-1h16.7c0.6 0 1 0.4 1 1s-0.6 1-1 1z"
   id="path1751" />
	<path
   class="st7"
   d="m262.8 161.3h-16.7c-0.6 0-1-0.4-1-1s0.4-1 1-1h16.7c0.6 0 1 0.4 1 1s-0.6 1-1 1z"
   id="path1753" />
	<path
   class="st7"
   d="m254.4 169.7h-8.3c-0.6 0-1-0.4-1-1s0.4-1 1-1h8.3c0.6 0 1 0.4 1 1s-0.5 1-1 1z"
   id="path1755" />
	<path
   class="st7"
   d="m254.4 178h-8.3c-0.6 0-1-0.4-1-1s0.4-1 1-1h8.3c0.6 0 1 0.4 1 1s-0.5 1-1 1z"
   id="path1757" />
	<path
   class="st7"
   d="m254.4 186.3h-8.3c-0.6 0-1-0.4-1-1s0.4-1 1-1h8.3c0.6 0 1 0.4 1 1s-0.5 1-1 1z"
   id="path1759" />
	<path
   class="st7"
   d="m162.8 44.7h-133.3c-0.6 0-1-0.4-1-1s0.4-1 1-1h133.3c0.6 0 1 0.4 1 1s-0.6 1-1 1z"
   id="path1761" />
		<path
   class="st7"
   d="m46.1 94.7c-0.3 0-0.6-0.2-0.8-0.4-0.3-0.5-0.2-1.1 0.3-1.4l23.7-15.9-23.7-15.8c-0.5-0.3-0.6-0.9-0.3-1.4s0.9-0.6 1.4-0.3l25 16.7c0.3 0.2 0.4 0.5 0.4 0.8s-0.2 0.6-0.4 0.8l-25 16.7c-0.2 0.1-0.4 0.2-0.6 0.2z"
   id="path1763" />
		<path
   class="st7"
   d="m96.1 94.7h-25c-0.6 0-1-0.4-1-1s0.4-1 1-1h25c0.6 0 1 0.4 1 1s-0.4 1-1 1z"
   id="path1765" />
	<path
   class="st6"
   d="m154.8 128.5h-117.3c-5.2 0-9.5-4.3-9.5-9.5v-84c0-5.2 4.3-9.5 9.5-9.5h117.3c5.2 0 9.5 4.3 9.5 9.5v84c-0.1 5.2-4.4 9.5-9.5 9.5zm-117.3-100c-3.6 0-6.5 2.9-6.5 6.5v84c0 3.6 2.9 6.5 6.5 6.5h117.3c3.6 0 6.5-2.9 6.5-6.5v-84c0-3.6-2.9-6.5-6.5-6.5h-117.3z"
   id="path1767" />
		<path
   class="st8"
   d="m196.1 169.7h-92c-5 0-9-4-9-9v-25.4c0-0.6 0.4-1 1-1s1 0.4 1 1v25.4c0 3.9 3.1 7 7 7h92c0.6 0 1 0.4 1 1s-0.5 1-1 1z"
   id="path1769" />
		<path
   class="st8"
   d="m179.4 186.3c-0.3 0-0.5-0.1-0.7-0.3-0.4-0.4-0.4-1 0-1.4l15.9-15.9-15.9-15.9c-0.4-0.4-0.4-1 0-1.4s1-0.4 1.4 0l16.7 16.6c0.2 0.2 0.3 0.4 0.3 0.7s-0.1 0.5-0.3 0.7l-16.7 16.6c-0.2 0.2-0.5 0.3-0.7 0.3z"
   id="path1771" />
		<path
   class="st6"
   d="m246.1 194.7h-8.3c-0.6 0-1-0.4-1-1v-50c0-0.6 0.4-1 1-1h8.3c0.6 0 1 0.4 1 1v50c0 0.5-0.5 1-1 1zm-7.3-2h6.3v-48h-6.3v48z"
   id="path1773" />
	<path
   class="st6"
   d="m342 136.3c-2.8 0-5.2-2.3-5.2-5.2 0-2.8 2.3-5.2 5.2-5.2s5.2 2.3 5.2 5.2c-0.2 2.9-2.4 5.2-5.2 5.2zm0-8.3c-1.7 0-3.2 1.4-3.2 3.2s1.4 3.2 3.2 3.2 3.2-1.4 3.2-3.2-1.6-3.2-3.2-3.2z"
   id="path1775" />
	<path
   class="st7"
   d="m312.8 136.3c-2.8 0-5.2-2.3-5.2-5.2 0-2.8 2.3-5.2 5.2-5.2s5.2 2.3 5.2 5.2c0 2.9-2.5 5.2-5.2 5.2zm0-8.3c-1.7 0-3.2 1.4-3.2 3.2s1.4 3.2 3.2 3.2 3.2-1.4 3.2-3.2-1.5-3.2-3.2-3.2z"
   id="path1777" />
	<path
   class="st7"
   d="m254.4 136.3c-2.8 0-5.2-2.3-5.2-5.2 0-2.8 2.3-5.2 5.2-5.2s5.2 2.3 5.2 5.2c-0.1 2.9-2.4 5.2-5.2 5.2zm0-8.3c-1.7 0-3.2 1.4-3.2 3.2s1.4 3.2 3.2 3.2 3.2-1.4 3.2-3.2-1.5-3.2-3.2-3.2z"
   id="path1779" />
	<path
   class="st7"
   d="m267 190.5c-2.8 0-5.2-2.3-5.2-5.2 0-2.8 2.3-5.2 5.2-5.2s5.2 2.3 5.2 5.2c-0.2 2.9-2.4 5.2-5.2 5.2zm0-8.3c-1.7 0-3.2 1.4-3.2 3.2s1.4 3.2 3.2 3.2 3.2-1.4 3.2-3.2-1.6-3.2-3.2-3.2z"
   id="path1781" />
	<path
   class="st7"
   d="m333.5 190.5c-2.8 0-5.2-2.3-5.2-5.2 0-2.8 2.3-5.2 5.2-5.2s5.2 2.3 5.2 5.2-2.2 5.2-5.2 5.2zm0-8.3c-1.7 0-3.2 1.4-3.2 3.2s1.4 3.2 3.2 3.2 3.2-1.4 3.2-3.2-1.3-3.2-3.2-3.2z"
   id="path1783" />
	<path
   class="st6"
   d="m342 211.3c-2.8 0-5.2-2.3-5.2-5.2 0-2.8 2.3-5.2 5.2-5.2s5.2 2.3 5.2 5.2c-0.2 2.9-2.4 5.2-5.2 5.2zm0-8.3c-1.7 0-3.2 1.4-3.2 3.2s1.4 3.2 3.2 3.2 3.2-1.4 3.2-3.2-1.6-3.2-3.2-3.2z"
   id="path1785" />
	<path
   class="st6"
   d="m233.6 136.3c-2.8 0-5.2-2.3-5.2-5.2 0-2.8 2.3-5.2 5.2-5.2s5.2 2.3 5.2 5.2c0 2.9-2.4 5.2-5.2 5.2zm0-8.3c-1.7 0-3.2 1.4-3.2 3.2s1.4 3.2 3.2 3.2 3.2-1.4 3.2-3.2-1.4-3.2-3.2-3.2z"
   id="path1787" />
	<path
   class="st6"
   d="m233.6 211.3c-2.8 0-5.2-2.3-5.2-5.2 0-2.8 2.3-5.2 5.2-5.2s5.2 2.3 5.2 5.2c0 2.9-2.4 5.2-5.2 5.2zm0-8.3c-1.7 0-3.2 1.4-3.2 3.2s1.4 3.2 3.2 3.2 3.2-1.4 3.2-3.2-1.4-3.2-3.2-3.2z"
   id="path1789" />
		<path
   class="st6"
   d="m296 169.7h-33.4c-0.6 0-1-0.4-1-1v-33.4c0-0.6 0.4-1 1-1h33.4c0.6 0 1 0.4 1 1v33.4c0 0.5-0.4 1-1 1zm-32.2-2h31.4v-31.4h-31.4v31.4z"
   id="path1791" />
	<path
   class="st6"
   d="m261.8 217.2h-32.8c-3.6 0-6.5-2.9-6.5-6.5v-32.7h-3v32.7c0 5.2 4.3 9.5 9.5 9.5h32.7v-3z"
   id="path1793" />
	<path
   class="st7"
   d="m329.5 186.3h-58.3c-0.6 0-1-0.4-1-1s0.4-1 1-1h58.3c0.6 0 1 0.4 1 1s-0.5 1-1 1z"
   id="path1795" />
	<path
   class="st7"
   d="m296 186.3c-0.3 0-0.5-0.1-0.7-0.3-0.4-0.4-0.4-1 0-1.4l16.4-16.4v-32.9c0-0.6 0.4-1 1-1s1 0.4 1 1v33.3c0 0.3-0.1 0.5-0.3 0.7l-16.7 16.7c-0.2 0.2-0.3 0.3-0.7 0.3z"
   id="path1797" />
	<path
   class="st7"
   d="m346 153h-8.3c-0.6 0-1-0.4-1-1s0.4-1 1-1h8.3c0.6 0 1 0.4 1 1s-0.4 1-1 1z"
   id="path1799" />
	<path
   class="st7"
   d="m346 161.4h-8.3c-0.6 0-1-0.4-1-1s0.4-1 1-1h8.3c0.6 0 1 0.4 1 1s-0.4 1-1 1z"
   id="path1801" />
					
					
			
	<path
   class="st6"
   d="m352.9 126.7v17h3v-17c0-5.2-4.3-9.5-9.5-9.5h-117.4c-5.2 0-9.5 4.3-9.5 9.5v32.6h3v-32.6c0-3.6 2.9-6.5 6.5-6.5h117.3c3.7 0 6.6 2.9 6.6 6.5z"
   id="path1809" />
	<path
   class="st6"
   d="m362.8 169.7h-33.3c-0.6 0-1-0.4-1-1v-25c0-0.6 0.4-1 1-1h33.3c0.6 0 1 0.4 1 1v25c0 0.5-0.6 1-1 1zm-32.3-2h31.3v-23h-31.3v23z"
   id="path1811" />
		<rect
   y="217.2"
   x="280.5"
   height="3"
   class="st6"
   width="14.6"
   id="rect1813" />
		<path
   class="st6"
   d="m352.9 168.7v42c0 3.6-2.9 6.5-6.5 6.5h-24.4v3h24.4c5.2 0 9.5-4.3 9.4-9.5v-42h-2.9z"
   id="path1815" />
	<path
   class="st7"
   d="m308.5 222.3c-0.6 0-1-0.4-1-1v-10.9c0-0.6 0.4-1 1-1s1 0.4 1 1v10.9c0 0.5-0.4 1-1 1z"
   id="path1817" />
<g
   id="g2072"
   transform="matrix(0.03369149,0,0,0.03369149,128.76031,92.76032)"><rect
     style="fill:#e9500e;fill-opacity:1;stroke:none;stroke-width:0;stroke-dasharray:none;stop-color:#000000"
     id="rect353"
     width="780"
     height="780"
     x="0"
     y="0" /><g
     id="g299"
     style="fill:#ffffff;fill-opacity:1"
     transform="matrix(0.74358977,0,0,0.74358977,99.999987,99.999993)"><circle
       class="cls-1"
       cx="110.81624"
       cy="368.59134"
       r="110.81622"
       id="circle6"
       style="fill:#ffffff;fill-opacity:1;stroke-width:1.01641" /><circle
       class="cls-1"
       cx="572.32458"
       cy="125.60082"
       r="110.81624"
       id="circle8"
       style="fill:#ffffff;fill-opacity:1;stroke-width:1.01641" /><path
       class="cls-1"
       d="m 360.74508,653.78789 a 269.88263,269.88263 0 0 1 -184.0428,-140.36456 159.52354,159.52354 0 0 1 -94.748944,11.64635 360.76015,360.76015 0 0 0 259.730904,217.67919 365.1028,365.1028 0 0 0 78.69004,8.09775 158.56333,158.56333 0 0 1 -32.44625,-92.65055 c -9.12714,-1.01388 -18.2432,-2.49509 -27.18295,-4.40818 z"
       id="path10"
       style="fill:#ffffff;fill-opacity:1;stroke-width:1.01641" /><circle
       class="cls-1"
       cx="547.35822"
       cy="654.39917"
       r="110.81624"
       id="circle12"
       style="fill:#ffffff;fill-opacity:1;stroke-width:1.01641" /><path
       class="cls-1"
       d="m 701.56408,613.69575 a 362.55444,362.55444 0 0 0 18.16818,-425.3874 159.72334,159.72334 0 0 1 -62.31592,72.98148 271.6796,271.6796 0 0 1 -8.88026,269.84538 158.91261,158.91261 0 0 1 53.028,82.56054 z"
       id="path14"
       style="fill:#ffffff;fill-opacity:1;stroke-width:1.01641" /><path
       class="cls-1"
       d="m 102.26612,209.67033 q 4.21862,-0.23153 8.44163,-0.22923 A 159.9285,159.9285 0 0 1 194.74706,233.37298 270.27038,270.27038 0 0 1 412.36905,116.9844 160.68211,160.68211 0 0 1 445.98787,27.1131 C 306.63496,16.077243 171.22735,87.987552 102.26612,209.67033 Z"
       id="path16"
       style="fill:#ffffff;fill-opacity:1;stroke-width:1.01641" /></g></g></svg>
