<svg width="386" height="55" viewBox="0 0 386 55" fill="none" xmlns="http://www.w3.org/2000/svg">
<g clip-path="url(#clip0_316_16464)">
<path d="M53.122 47.672C51.6176 47.672 50.2103 47.397 48.9161 46.8632C47.622 46.3294 46.4897 45.5368 45.5353 44.5015C44.5809 43.4662 43.8206 42.1882 43.2706 40.6676C42.7206 39.147 42.4456 37.4 42.4456 35.4426C42.4456 33.4853 42.7367 31.7382 43.3353 30.2176C43.9338 28.697 44.7264 27.4191 45.7132 26.3838C46.7 25.3485 47.8485 24.572 49.1588 24.0382C50.4691 23.5044 51.8279 23.2456 53.2514 23.2456C54.125 23.2456 54.9338 23.3103 55.6456 23.4073C56.3735 23.5206 56.9882 23.6662 57.5382 23.8279C58.072 23.9897 58.5411 24.1676 58.9294 24.3294C59.3176 24.4912 59.6088 24.6529 59.8029 24.7823L59.0588 26.772C58.4926 26.4323 57.7808 26.1088 56.9073 25.7691C56.0338 25.4456 54.9661 25.2838 53.672 25.2838C52.2161 25.2838 50.922 25.5265 49.8382 26.0279C48.7382 26.5294 47.8323 27.225 47.0882 28.1147C46.3441 29.0206 45.7941 30.0882 45.4059 31.3176C45.0338 32.5632 44.8559 33.9382 44.8559 35.4426C44.8559 36.947 45.05 38.4029 45.4059 39.6485C45.7779 40.8941 46.3279 41.9618 47.0397 42.8353C47.7676 43.7088 48.6411 44.3882 49.6926 44.8573C50.7441 45.3265 51.9411 45.5691 53.2838 45.5691C54.772 45.5691 56.0176 45.4235 57.0206 45.1485C58.0235 44.8735 58.7838 44.5823 59.3014 44.2912L59.9485 46.2485C59.7867 46.3618 59.5117 46.4912 59.1397 46.6368C58.7676 46.7823 58.2661 46.9279 57.6838 47.0897C57.1014 47.2515 56.422 47.3809 55.6617 47.4779C54.9014 47.575 54.0441 47.6235 53.0897 47.6235L53.122 47.672Z" fill="black"/>
<path d="M69.3471 29.2956C70.4956 29.2956 71.4662 29.4573 72.275 29.7809C73.0838 30.1044 73.7147 30.5573 74.2162 31.1235C74.7177 31.7059 75.0735 32.3853 75.3 33.1617C75.5265 33.9544 75.6397 34.8117 75.6397 35.7338V46.75C75.4132 46.8147 75.0897 46.8956 74.653 46.9764C74.2324 47.0573 73.7309 47.1382 73.1647 47.2353C72.5985 47.3323 71.9838 47.397 71.2882 47.4617C70.6088 47.5103 69.8971 47.5426 69.1853 47.5426C68.2632 47.5426 67.4059 47.4456 66.6294 47.2353C65.853 47.025 65.1735 46.7176 64.6074 46.2647C64.0412 45.8279 63.5882 45.2617 63.2647 44.5823C62.9412 43.9029 62.7794 43.0617 62.7794 42.0588C62.7794 41.0559 62.9574 40.2956 63.3132 39.6323C63.6691 38.9691 64.1868 38.4029 64.8338 37.9662C65.4809 37.5294 66.2574 37.2059 67.1632 37.0117C68.0691 36.8014 69.0397 36.7044 70.1074 36.7044C70.4309 36.7044 70.7544 36.7206 71.1103 36.7529C71.45 36.7853 71.7897 36.8338 72.1294 36.8823C72.4529 36.9309 72.7441 36.9956 72.9706 37.0441C73.2132 37.0926 73.375 37.1573 73.4559 37.1897V36.1059C73.4559 35.4912 73.4074 34.9088 73.3265 34.3264C73.2456 33.7603 73.0353 33.2426 72.728 32.7735C72.4206 32.3044 72 31.9323 71.45 31.6573C70.9 31.3823 70.1721 31.2367 69.2662 31.2367C67.9882 31.2367 67.0338 31.3338 66.3868 31.5117C65.7559 31.6897 65.2868 31.8353 64.9956 31.9485L64.6882 30.0235C65.0765 29.8456 65.6588 29.6676 66.4677 29.522C67.2603 29.3603 68.2309 29.2794 69.3632 29.2794L69.3471 29.2956ZM69.5412 45.5853C70.3985 45.5853 71.1427 45.5529 71.7897 45.5044C72.4368 45.4559 72.9706 45.375 73.4235 45.2779V39.1309C73.1809 39.0176 72.7765 38.9044 72.2427 38.775C71.7088 38.6456 70.9647 38.5809 70.0103 38.5809C69.4765 38.5809 68.9103 38.6132 68.328 38.6941C67.7456 38.775 67.1956 38.9367 66.7103 39.1956C66.225 39.4544 65.8044 39.8103 65.4971 40.2632C65.1735 40.7161 65.0279 41.3147 65.0279 42.0588C65.0279 42.7059 65.1412 43.272 65.3515 43.7088C65.5618 44.1617 65.8691 44.5176 66.2574 44.7926C66.6456 45.0676 67.1309 45.2617 67.6809 45.3911C68.2309 45.5206 68.8618 45.5853 69.5574 45.5853H69.5412Z" fill="black"/>
<path d="M80.9941 30.3147C81.6412 30.1368 82.5309 29.9265 83.6309 29.7C84.7309 29.4735 86.0897 29.3603 87.6912 29.3603C89.0177 29.3603 90.1338 29.5544 91.0236 29.9426C91.9133 30.3309 92.625 30.8647 93.1588 31.5765C93.6927 32.2882 94.0647 33.1294 94.2912 34.1324C94.5177 35.1191 94.6309 36.2191 94.6309 37.4162V47.1868H92.4309V38.1279C92.4309 36.8823 92.35 35.8471 92.1721 34.9897C91.9941 34.1323 91.7191 33.4368 91.3309 32.9029C90.9427 32.3691 90.425 31.9809 89.778 31.7382C89.1309 31.4956 88.3383 31.3823 87.3677 31.3823C86.3324 31.3823 85.4265 31.4471 84.6824 31.5441C83.9221 31.6573 83.4368 31.7544 83.2103 31.8515V47.1868H81.0103V30.3309L80.9941 30.3147Z" fill="black"/>
<path d="M114.932 38.4514C114.932 39.8264 114.738 41.072 114.334 42.2044C113.946 43.3367 113.396 44.2912 112.684 45.0838C111.972 45.8764 111.131 46.4912 110.176 46.9279C109.206 47.3647 108.138 47.5911 106.974 47.5911C105.809 47.5911 104.725 47.3647 103.754 46.9279C102.784 46.4912 101.943 45.8764 101.247 45.0838C100.535 44.2912 99.9853 43.3367 99.5971 42.2044C99.2088 41.072 98.9985 39.8264 98.9985 38.4514C98.9985 37.0764 99.1927 35.8309 99.5971 34.6985C99.9853 33.5662 100.535 32.6117 101.247 31.8029C101.959 31.0103 102.8 30.3794 103.754 29.9426C104.725 29.5059 105.793 29.2794 106.974 29.2794C108.154 29.2794 109.206 29.5059 110.176 29.9426C111.147 30.3794 111.988 30.9941 112.684 31.8029C113.396 32.6117 113.946 33.5662 114.334 34.6985C114.722 35.8309 114.932 37.0764 114.932 38.4514ZM112.603 38.4514C112.603 36.2676 112.101 34.5206 111.082 33.2264C110.063 31.9323 108.688 31.2853 106.957 31.2853C105.226 31.2853 103.851 31.9323 102.832 33.2264C101.813 34.5206 101.312 36.2676 101.312 38.4514C101.312 40.6353 101.813 42.3662 102.832 43.6603C103.851 44.9382 105.21 45.5853 106.957 45.5853C108.704 45.5853 110.063 44.9382 111.082 43.6603C112.101 42.3823 112.603 40.6353 112.603 38.4514Z" fill="black"/>
<path d="M119.494 30.3147C120.141 30.1368 121.031 29.9265 122.131 29.7C123.231 29.4735 124.59 29.3603 126.191 29.3603C127.518 29.3603 128.634 29.5544 129.524 29.9426C130.413 30.3309 131.125 30.8647 131.659 31.5765C132.193 32.2882 132.565 33.1294 132.791 34.1324C133.018 35.1191 133.131 36.2191 133.131 37.4162V47.1868H130.931V38.1279C130.931 36.8823 130.85 35.8471 130.672 34.9897C130.494 34.1323 130.219 33.4368 129.831 32.9029C129.443 32.3691 128.925 31.9809 128.278 31.7382C127.631 31.4956 126.838 31.3823 125.868 31.3823C124.832 31.3823 123.926 31.4471 123.182 31.5441C122.422 31.6573 121.937 31.7544 121.71 31.8515V47.1868H119.51V30.3309L119.494 30.3147Z" fill="black"/>
<path d="M141.09 24.4265C141.09 24.9441 140.928 25.3485 140.621 25.6559C140.297 25.9632 139.925 26.1088 139.472 26.1088C139.019 26.1088 138.631 25.9632 138.323 25.6559C138 25.3485 137.854 24.9441 137.854 24.4265C137.854 23.9088 138.016 23.4882 138.323 23.1971C138.631 22.8897 139.019 22.7441 139.472 22.7441C139.925 22.7441 140.313 22.8897 140.621 23.1971C140.944 23.5044 141.09 23.9088 141.09 24.4265V24.4265ZM140.588 47.1706H138.388V29.7H140.588V47.1706Z" fill="black"/>
<path d="M153.335 47.5426C151.977 47.5426 150.796 47.3323 149.76 46.8956C148.725 46.4588 147.868 45.8603 147.172 45.0514C146.477 44.2588 145.959 43.2882 145.603 42.172C145.247 41.0559 145.053 39.8264 145.053 38.4676C145.053 37.1088 145.247 35.847 145.619 34.7147C145.991 33.5823 146.525 32.6279 147.221 31.8029C147.916 30.9779 148.757 30.3632 149.76 29.9264C150.763 29.4897 151.863 29.2632 153.109 29.2632C154.047 29.2632 154.937 29.3441 155.762 29.5059C156.587 29.6676 157.218 29.8617 157.671 30.1206L157.088 32.0132C156.635 31.7867 156.134 31.6088 155.568 31.4794C155.002 31.35 154.257 31.2853 153.303 31.2853C151.362 31.2853 149.89 31.9162 148.887 33.1617C147.884 34.4073 147.382 36.1867 147.382 38.4838C147.382 39.5191 147.496 40.4735 147.722 41.3309C147.949 42.2044 148.321 42.9485 148.822 43.5632C149.324 44.1779 149.987 44.6632 150.779 45.0191C151.572 45.375 152.559 45.5367 153.707 45.5367C154.662 45.5367 155.454 45.4235 156.085 45.2132C156.732 45.0029 157.202 44.8088 157.493 44.6632L157.962 46.5559C157.557 46.7823 156.927 47.0088 156.053 47.2191C155.179 47.4294 154.274 47.5426 153.335 47.5426V47.5426Z" fill="black"/>
<path d="M167.134 29.2956C168.282 29.2956 169.253 29.4573 170.062 29.7809C170.871 30.1044 171.501 30.5573 172.003 31.1235C172.488 31.7059 172.86 32.3853 173.087 33.1617C173.313 33.9382 173.426 34.8117 173.426 35.7338V46.75C173.2 46.8147 172.876 46.8956 172.44 46.9764C172.003 47.0573 171.518 47.1382 170.951 47.2353C170.385 47.3323 169.771 47.397 169.075 47.4617C168.379 47.5103 167.684 47.5426 166.956 47.5426C166.034 47.5426 165.176 47.4456 164.4 47.2353C163.624 47.025 162.944 46.7176 162.378 46.2647C161.812 45.8117 161.359 45.2617 161.019 44.5823C160.679 43.9029 160.534 43.0617 160.534 42.0588C160.534 41.0559 160.712 40.2956 161.068 39.6323C161.424 38.9691 161.941 38.4029 162.588 37.9662C163.235 37.5294 164.012 37.2059 164.918 37.0117C165.824 36.8014 166.794 36.7044 167.862 36.7044C168.185 36.7044 168.509 36.7206 168.865 36.7529C169.221 36.7853 169.56 36.8338 169.884 36.8823C170.207 36.9309 170.499 36.9956 170.725 37.0441C170.968 37.0926 171.129 37.1573 171.21 37.1897V36.1059C171.21 35.4912 171.162 34.9088 171.081 34.3264C170.984 33.7603 170.79 33.2426 170.482 32.7735C170.175 32.3044 169.754 31.9323 169.204 31.6573C168.654 31.3823 167.926 31.2367 167.021 31.2367C165.743 31.2367 164.772 31.3338 164.141 31.5117C163.51 31.6897 163.057 31.8353 162.75 31.9485L162.443 30.0235C162.831 29.8456 163.413 29.6676 164.222 29.522C165.015 29.3603 165.985 29.2794 167.118 29.2794L167.134 29.2956ZM167.328 45.5853C168.185 45.5853 168.929 45.5529 169.576 45.5044C170.224 45.4559 170.757 45.375 171.21 45.2779V39.1309C170.968 39.0176 170.563 38.9044 170.029 38.775C169.496 38.6456 168.751 38.5809 167.797 38.5809C167.247 38.5809 166.697 38.6132 166.115 38.6941C165.532 38.775 164.982 38.9367 164.497 39.1956C164.012 39.4544 163.591 39.8103 163.284 40.2632C162.96 40.7161 162.815 41.3147 162.815 42.0588C162.815 42.7059 162.912 43.272 163.138 43.7088C163.349 44.1617 163.656 44.5176 164.044 44.7926C164.432 45.0676 164.918 45.2617 165.468 45.3911C166.018 45.5206 166.649 45.5853 167.344 45.5853H167.328Z" fill="black"/>
<path d="M183.165 47.4779C182.421 47.4618 181.773 47.3647 181.223 47.1868C180.673 47.0088 180.204 46.7662 179.832 46.4103C179.46 46.0544 179.185 45.6176 178.991 45.0515C178.797 44.5015 178.7 43.8059 178.7 42.9809V21.3529L180.9 20.9485V42.9162C180.9 43.45 180.948 43.8868 181.046 44.2103C181.143 44.5338 181.304 44.7926 181.498 44.9868C181.693 45.1809 181.968 45.3265 182.291 45.4073C182.615 45.5044 183.003 45.5691 183.456 45.65L183.148 47.4779H183.165Z" fill="black"/>
<path d="M202.69 47.672C201.137 47.672 199.81 47.4294 198.71 46.9603C197.61 46.4912 196.737 45.8279 196.057 45.0029C195.378 44.1779 194.893 43.1912 194.585 42.075C194.278 40.9588 194.132 39.7617 194.132 38.4838V23.7632H196.429V38.1926C196.429 39.4706 196.575 40.5867 196.882 41.525C197.19 42.4632 197.61 43.2235 198.144 43.8382C198.694 44.4529 199.341 44.9059 200.101 45.197C200.862 45.4882 201.719 45.6338 202.674 45.6338C203.628 45.6338 204.469 45.4882 205.246 45.197C206.006 44.9059 206.669 44.4529 207.203 43.8382C207.737 43.2235 208.157 42.4632 208.465 41.525C208.772 40.5867 208.918 39.4867 208.918 38.1926V23.7632H211.215V38.5C211.215 39.7779 211.069 40.9912 210.762 42.0912C210.454 43.1912 209.969 44.1779 209.29 45.0191C208.61 45.8603 207.737 46.5073 206.637 46.9765C205.537 47.4456 204.226 47.6882 202.674 47.6882L202.69 47.672Z" fill="black"/>
<path d="M219.109 30.7515C219.497 30.4603 220.112 30.1529 220.953 29.8294C221.794 29.5059 222.797 29.3441 223.946 29.3441C225.207 29.3441 226.323 29.5706 227.31 30.0235C228.297 30.4765 229.122 31.1073 229.801 31.9162C230.481 32.725 230.982 33.6956 231.338 34.8118C231.694 35.9279 231.856 37.1412 231.856 38.4838C231.856 39.9073 231.646 41.1853 231.225 42.3015C230.804 43.4338 230.222 44.3882 229.462 45.1809C228.701 45.9735 227.812 46.572 226.76 46.9926C225.709 47.4132 224.544 47.6235 223.266 47.6235C221.713 47.6235 220.419 47.5265 219.416 47.3162C218.413 47.122 217.572 46.8956 216.925 46.6691V21.3529L219.125 20.9485V30.7515H219.109ZM219.109 45.1162C219.448 45.2294 219.95 45.3426 220.613 45.4397C221.276 45.5368 222.15 45.5853 223.234 45.5853C225.126 45.5853 226.647 44.9706 227.796 43.7412C228.944 42.5118 229.51 40.7485 229.51 38.4515C229.51 37.4809 229.413 36.5588 229.203 35.7015C228.993 34.8441 228.669 34.0838 228.216 33.4368C227.763 32.7897 227.181 32.2882 226.437 31.9C225.709 31.5118 224.803 31.3176 223.719 31.3176C223.201 31.3176 222.716 31.3662 222.231 31.4632C221.746 31.5603 221.325 31.6897 220.921 31.8515C220.516 32.0132 220.16 32.175 219.853 32.3529C219.546 32.5309 219.287 32.7088 219.093 32.8544V45.0838L219.109 45.1162Z" fill="black"/>
<path d="M249.828 46.5559C249.181 46.7338 248.291 46.9441 247.191 47.1706C246.091 47.397 244.732 47.5103 243.131 47.5103C241.821 47.5103 240.737 47.3162 239.847 46.9279C238.973 46.5397 238.262 46.0059 237.728 45.3103C237.194 44.6147 236.806 43.7735 236.563 42.7706C236.32 41.7838 236.207 40.6838 236.207 39.4867V29.6838H238.407V38.775C238.407 40.0206 238.488 41.0559 238.682 41.9132C238.876 42.7706 239.151 43.4662 239.556 43.9838C239.96 44.5015 240.478 44.8897 241.125 45.1323C241.772 45.375 242.548 45.4882 243.47 45.4882C244.506 45.4882 245.412 45.4235 246.172 45.3265C246.932 45.2132 247.418 45.1162 247.628 45.0191V29.6838H249.828V46.5397V46.5559Z" fill="black"/>
<path d="M255.296 30.3147C255.943 30.1368 256.832 29.9265 257.932 29.7C259.032 29.4735 260.391 29.3603 261.993 29.3603C263.319 29.3603 264.435 29.5544 265.325 29.9426C266.215 30.3309 266.926 30.8647 267.46 31.5765C267.994 32.2882 268.366 33.1294 268.593 34.1324C268.819 35.1191 268.932 36.2191 268.932 37.4162V47.1868H266.732V38.1279C266.732 36.8823 266.651 35.8471 266.473 34.9897C266.296 34.1323 266.021 33.4368 265.632 32.9029C265.244 32.3691 264.726 31.9809 264.079 31.7382C263.432 31.4956 262.64 31.3823 261.669 31.3823C260.634 31.3823 259.728 31.4471 258.984 31.5441C258.223 31.6573 257.738 31.7544 257.512 31.8515V47.1868H255.312V30.3309L255.296 30.3147Z" fill="black"/>
<path d="M276.293 29.7H283.248V31.5603H276.293V40.8456C276.293 41.8323 276.374 42.6412 276.551 43.2559C276.729 43.8706 276.956 44.3559 277.279 44.6956C277.603 45.0353 277.975 45.2618 278.428 45.375C278.881 45.4882 279.366 45.5368 279.916 45.5368C280.838 45.5368 281.582 45.4235 282.149 45.2132C282.715 45.0029 283.151 44.8088 283.459 44.6147L283.993 46.4426C283.669 46.6368 283.119 46.8794 282.343 47.1382C281.55 47.397 280.693 47.5265 279.771 47.5265C278.687 47.5265 277.781 47.3809 277.053 47.1059C276.325 46.8309 275.726 46.3941 275.29 45.8279C274.853 45.2618 274.546 44.5338 274.368 43.6765C274.19 42.8191 274.093 41.8 274.093 40.6353V24.572L276.293 24.1676V29.7162V29.7Z" fill="black"/>
<path d="M300.541 46.5559C299.894 46.7338 299.004 46.9441 297.904 47.1706C296.804 47.397 295.446 47.5103 293.844 47.5103C292.534 47.5103 291.45 47.3162 290.56 46.9279C289.687 46.5397 288.975 46.0059 288.425 45.3103C287.875 44.6147 287.503 43.7735 287.26 42.7706C287.018 41.7838 286.904 40.6838 286.904 39.4867V29.6838H289.104V38.775C289.104 40.0206 289.185 41.0559 289.379 41.9132C289.557 42.7706 289.849 43.4662 290.253 43.9838C290.657 44.5176 291.175 44.8897 291.822 45.1323C292.469 45.375 293.246 45.4882 294.168 45.4882C295.203 45.4882 296.109 45.4235 296.869 45.3265C297.629 45.2132 298.115 45.1162 298.325 45.0191V29.6838H300.525V46.5397L300.541 46.5559Z" fill="black"/>
<path d="M323.932 47.672C322.428 47.672 321.021 47.397 319.726 46.8632C318.432 46.3294 317.3 45.5368 316.346 44.5015C315.391 43.4662 314.631 42.1882 314.081 40.6676C313.531 39.147 313.256 37.4 313.256 35.4426C313.256 33.4853 313.563 31.7382 314.146 30.2176C314.744 28.697 315.537 27.4191 316.524 26.3838C317.51 25.3485 318.659 24.572 319.969 24.0382C321.279 23.5044 322.638 23.2456 324.062 23.2456C324.935 23.2456 325.744 23.3103 326.456 23.4073C327.168 23.5044 327.815 23.6662 328.349 23.8279C328.882 23.9897 329.351 24.1676 329.74 24.3294C330.128 24.4912 330.419 24.6529 330.613 24.7823L329.869 26.772C329.303 26.4323 328.591 26.1088 327.718 25.7691C326.844 25.4456 325.776 25.2838 324.498 25.2838C323.026 25.2838 321.749 25.5265 320.665 26.0279C319.565 26.5294 318.659 27.225 317.915 28.1147C317.171 29.0206 316.621 30.0882 316.249 31.3176C315.876 32.5632 315.682 33.9382 315.682 35.4426C315.682 36.947 315.876 38.4029 316.249 39.6485C316.621 40.8941 317.171 41.9618 317.882 42.8353C318.61 43.7088 319.484 44.3882 320.535 44.8573C321.587 45.3265 322.784 45.5691 324.126 45.5691C325.615 45.5691 326.86 45.4235 327.863 45.1485C328.866 44.8735 329.626 44.5823 330.144 44.2912L330.791 46.2485C330.629 46.3618 330.371 46.4912 329.982 46.6368C329.594 46.7823 329.109 46.9279 328.526 47.0897C327.944 47.2515 327.265 47.3809 326.504 47.4779C325.744 47.575 324.887 47.6235 323.932 47.6235V47.672Z" fill="black"/>
<path d="M349.054 38.4514C349.054 39.8264 348.86 41.072 348.456 42.2044C348.068 43.3367 347.518 44.2912 346.806 45.0838C346.094 45.8764 345.253 46.4912 344.299 46.9279C343.328 47.3647 342.26 47.5911 341.096 47.5911C339.931 47.5911 338.847 47.3647 337.876 46.9279C336.906 46.4912 336.065 45.8764 335.369 45.0838C334.657 44.2912 334.107 43.3367 333.719 42.2044C333.331 41.072 333.121 39.8264 333.121 38.4514C333.121 37.0764 333.315 35.8309 333.719 34.6985C334.107 33.5662 334.657 32.6117 335.369 31.8029C336.081 31.0103 336.922 30.3794 337.876 29.9426C338.847 29.5059 339.915 29.2794 341.096 29.2794C342.276 29.2794 343.328 29.5059 344.299 29.9426C345.269 30.3794 346.11 30.9941 346.806 31.8029C347.518 32.6117 348.068 33.5662 348.456 34.6985C348.844 35.8309 349.054 37.0764 349.054 38.4514ZM346.725 38.4514C346.725 36.2676 346.224 34.5206 345.204 33.2264C344.185 31.9323 342.81 31.2853 341.079 31.2853C339.349 31.2853 337.974 31.9323 336.954 33.2264C335.935 34.5206 335.434 36.2676 335.434 38.4514C335.434 40.6353 335.935 42.3662 336.954 43.6603C337.974 44.9382 339.332 45.5853 341.079 45.5853C342.826 45.5853 344.185 44.9382 345.204 43.6603C346.224 42.3823 346.725 40.6353 346.725 38.4514Z" fill="black"/>
<path d="M359.569 29.3603C360.297 29.3603 360.976 29.425 361.607 29.5221C362.254 29.6353 362.691 29.7485 362.934 29.8618L362.497 31.7544C362.319 31.6574 361.947 31.5603 361.397 31.4632C360.847 31.3662 360.119 31.3176 359.213 31.3176C358.259 31.3176 357.515 31.3824 356.932 31.5118C356.35 31.6412 355.978 31.7544 355.8 31.8515V47.1544H353.6V30.4926C354.166 30.25 354.943 29.9912 355.929 29.7324C356.916 29.4735 358.129 29.3441 359.553 29.3441L359.569 29.3603Z" fill="black"/>
<path d="M364.745 38.419C364.745 36.8822 364.972 35.5557 365.408 34.4072C365.845 33.2749 366.427 32.3204 367.123 31.5601C367.835 30.7998 368.644 30.2175 369.566 29.8616C370.472 29.4896 371.41 29.3116 372.38 29.3116C374.516 29.3116 376.23 30.0072 377.492 31.3984C378.754 32.7896 379.401 34.941 379.401 37.8528C379.401 38.0307 379.401 38.2087 379.401 38.3866C379.401 38.5646 379.369 38.7425 379.352 38.8881H367.091C367.155 41.0234 367.689 42.6734 368.676 43.8219C369.663 44.9704 371.248 45.5528 373.4 45.5528C374.597 45.5528 375.535 45.4396 376.247 45.2131C376.942 44.9866 377.444 44.7925 377.767 44.6469L378.172 46.5396C377.848 46.7175 377.266 46.9278 376.392 47.1866C375.519 47.4293 374.5 47.5587 373.335 47.5587C371.798 47.5587 370.504 47.3322 369.42 46.8793C368.336 46.4263 367.447 45.7954 366.751 44.9866C366.055 44.1778 365.554 43.2072 365.23 42.091C364.907 40.9749 364.761 39.7616 364.761 38.419H364.745ZM377.152 37.0278C377.104 35.1998 376.683 33.7925 375.875 32.7734C375.066 31.7543 373.917 31.2528 372.429 31.2528C371.636 31.2528 370.941 31.4146 370.326 31.7219C369.711 32.0293 369.161 32.466 368.708 32.9837C368.255 33.5013 367.883 34.1322 367.625 34.8278C367.366 35.5234 367.22 36.2513 367.172 37.0278H377.169H377.152Z" fill="black"/>
<path d="M34.4706 0H0.5V51.7647H34.4706V0Z" fill="#E95420"/>
<path d="M8.26469 37.7235C10.2034 37.7235 11.775 36.1519 11.775 34.2132C11.775 32.2746 10.2034 30.7029 8.26469 30.7029C6.32601 30.7029 4.75439 32.2746 4.75439 34.2132C4.75439 36.1519 6.32601 37.7235 8.26469 37.7235Z" fill="white"/>
<path d="M22.9206 30.0235C24.8593 30.0235 26.4309 28.4519 26.4309 26.5132C26.4309 24.5745 24.8593 23.0029 22.9206 23.0029C20.9819 23.0029 19.4103 24.5745 19.4103 26.5132C19.4103 28.4519 20.9819 30.0235 22.9206 30.0235Z" fill="white"/>
<path d="M16.1912 43.272C13.6515 42.722 11.5485 41.1044 10.3515 38.8235C9.41324 39.2441 8.36177 39.3735 7.34265 39.1956C8.78236 42.7382 11.8397 45.2941 15.5927 46.1029C16.4177 46.2809 17.2588 46.3618 18.0838 46.3618C17.4368 45.5206 17.0809 44.4853 17.0485 43.4176C16.7574 43.3853 16.4662 43.3368 16.1912 43.272V43.272Z" fill="white"/>
<path d="M22.128 46.7985C24.0667 46.7985 25.6383 45.2269 25.6383 43.2882C25.6383 41.3496 24.0667 39.778 22.128 39.778C20.1893 39.778 18.6177 41.3496 18.6177 43.2882C18.6177 45.2269 20.1893 46.7985 22.128 46.7985Z" fill="white"/>
<path d="M27.0132 41.9941C28.1132 40.6191 28.8735 38.9853 29.2456 37.2544C29.8926 34.2294 29.2941 31.0588 27.5794 28.4868C27.175 29.4412 26.4794 30.25 25.6059 30.8C26.5603 32.5956 26.8515 34.65 26.4147 36.6397C26.2044 37.6103 25.8323 38.5323 25.3147 39.3573C26.1397 40.0368 26.722 40.9426 26.997 41.9779L27.0132 41.9941Z" fill="white"/>
<path d="M7.98975 29.1824C8.0868 29.1824 8.16769 29.1824 8.26475 29.1824C8.62063 29.1824 8.97651 29.2147 9.33239 29.2956C9.89857 29.425 10.4486 29.6353 10.9339 29.9426C12.5192 27.6618 15.075 26.3029 17.8412 26.2544C17.8412 25.9956 17.8897 25.7206 17.9545 25.4618C18.1162 24.7015 18.4397 24.0059 18.9089 23.4074C14.4927 23.0515 10.1897 25.3324 8.00592 29.1985L7.98975 29.1824Z" fill="white"/>
</g>
<defs>
<clipPath id="clip0_316_16464">
<rect width="385" height="55" fill="white" transform="translate(0.5)"/>
</clipPath>
</defs>
</svg>